<?xml version="1.0"?>
<VTKFile type="PolyData" version="0.1" byte_order="LittleEndian">
  <PolyData>
    <Piece NumberOfPoints="     19" NumberOfVerts="  0" NumberOfLines="     18"
           NumberOfStrips="  0" NumberOfPolys="      0">
      <Points>
        <DataArray type="Float32" NumberOfComponents="3" format="ascii">
                      -4.70568                      -1.03329                      88.96750
                      -4.85987                      -1.97393                      87.98769
                      -5.19193                      -3.78553                      85.96456
                      -5.53001                      -5.56351                      83.90971
                      -5.94709                      -7.76481                      81.31941
                      -6.36105                     -10.50808                      78.29587
                      -6.70855                     -13.34187                      75.34978
                      -7.01595                     -16.17246                      72.39573
                      -7.27306                     -19.00050                      69.43411
                      -7.47332                     -21.82394                      66.46341
                      -7.61149                     -24.63945                      63.48137
                      -7.68092                     -27.44744                      60.48940
                      -7.67785                     -30.24724                      57.48841
                      -7.60033                     -33.03813                      54.47964
                      -7.44612                     -35.81904                      51.46456
                      -7.25902                     -38.12796                      48.94850
                      -7.07397                     -39.97511                      46.93988
                      -6.85316                     -41.85697                      44.96797
                      -6.73884                     -42.76531                      43.95435
        </DataArray>
      </Points>
      <PointData>
        <DataArray type="Float32" Name="TranslationalVelocity" NumberOfComponents="3" format="ascii">
                      -0.24694                       2.45559                      -2.34609
                      -0.45093                       4.70825                      -4.47662
                      -0.84459                       9.36074                      -8.57822
                      -1.23239                      14.08348                     -12.60126
                      -1.71534                      20.03010                     -17.57803
                      -2.32240                      26.94807                     -23.77343
                      -2.95711                      33.66867                     -30.16497
                      -3.60165                      40.39048                     -36.54063
                      -4.25867                      47.11064                     -42.90238
                      -4.93018                      53.83141                     -49.24634
                      -5.61780                      60.55718                     -55.56616
                      -6.32366                      67.28369                     -61.86399
                      -7.04928                      74.00847                     -68.13969
                      -7.79564                      80.72850                     -74.39299
                      -8.56302                      87.43997                     -80.62276
                      -9.21867                      93.02293                     -85.79513
                      -9.75394                      97.46882                     -89.93336
                     -10.30580                     101.82129                     -94.14992
                     -10.57805                     104.05733                     -96.18527
        </DataArray>
        <DataArray type="Float32" Name="RotationalVelocity" NumberOfComponents="3" format="ascii">
                       2.26532                      -0.00027                      -0.21713
                       2.26493                      -0.00018                      -0.21717
                       2.26382                       0.00013                      -0.21737
                       2.26237                       0.00062                      -0.21774
                       2.26025                       0.00139                      -0.21847
                       2.25747                       0.00256                      -0.21978
                       2.25462                       0.00398                      -0.22155
                       2.25186                       0.00573                      -0.22378
                       2.24928                       0.00788                      -0.22641
                       2.24693                       0.01052                      -0.22937
                       2.24481                       0.01371                      -0.23256
                       2.24291                       0.01748                      -0.23590
                       2.24122                       0.02179                      -0.23924
                       2.23970                       0.02653                      -0.24246
                       2.23834                       0.03146                      -0.24543
                       2.23734                       0.03549                      -0.24760
                       2.23664                       0.03846                      -0.24908
                       2.23606                       0.04101                      -0.25029
                       2.23582                       0.04206                      -0.25077
        </DataArray>
        <DataArray type="Float32" Name="TranslationalAcceleration" NumberOfComponents="3" format="ascii">
                       0.55540                       5.37847                       5.53968
                       0.65113                       6.51716                       6.71138
                       1.89124                      18.28329                      19.54068
                       3.04350                      28.88465                      31.52620
                       4.39346                      41.08089                      45.65466
                       5.87488                      55.36659                      61.25053
                       7.27116                      69.68041                      75.98624
                       8.66583                      83.89054                      90.66732
                      10.08276                      98.18810                     105.47048
                      11.53396                     112.62871                     120.45739
                      13.02137                     127.17394                     135.60362
                      14.53743                     141.75151                     150.81105
                      16.06986                     156.26536                     165.96846
                      17.60372                     170.63580                     180.98315
                      19.12386                     184.83324                     195.81661
                      20.37008                     196.56832                     208.07255
                      21.34904                     205.98376                     217.84283
                      22.30753                     215.69016                     227.50717
                      22.78459                     220.45484                     232.55173
        </DataArray>
        <DataArray type="Float32" Name="OrientationX" NumberOfComponents="3" format="ascii">
                       0.94968                       0.13713                      -0.28160
                       0.94975                       0.13760                      -0.28113
                       0.94996                       0.13915                      -0.27966
                       0.95024                       0.14148                      -0.27753
                       0.95065                       0.14537                      -0.27411
                       0.96004                       0.12875                      -0.24850
                       0.96632                       0.12006                      -0.22762
                       0.97136                       0.11517                      -0.20783
                       0.97610                       0.11137                      -0.18662
                       0.98033                       0.10913                      -0.16442
                       0.98368                       0.10977                      -0.14255
                       0.98633                       0.11241                      -0.12052
                       0.98800                       0.11795                      -0.09972
                       0.98841                       0.12763                      -0.08218
                       0.98835                       0.13739                      -0.06550
                       0.98811                       0.14454                      -0.05248
                       0.98783                       0.14936                      -0.04341
                       0.98715                       0.15521                      -0.03811
                       0.98658                       0.15890                      -0.03749
        </DataArray>
        <DataArray type="Float32" Name="OrientationY" NumberOfComponents="3" format="ascii">
                       0.29237                      -0.71063                       0.63994
                       0.29238                      -0.71063                       0.63994
                       0.29248                      -0.71060                       0.63992
                       0.29268                      -0.71054                       0.63990
                       0.29312                      -0.71041                       0.63985
                       0.26356                      -0.71457                       0.64801
                       0.24295                      -0.71721                       0.65313
                       0.22585                      -0.71928                       0.65698
                       0.20858                      -0.72127                       0.66050
                       0.19179                      -0.72314                       0.66354
                       0.17736                      -0.72473                       0.66581
                       0.16433                      -0.72620                       0.66755
                       0.15432                      -0.72740                       0.66863
                       0.14964                      -0.72803                       0.66902
                       0.14564                      -0.72860                       0.66928
                       0.14221                      -0.72911                       0.66946
                       0.13973                      -0.72948                       0.66958
                       0.14052                      -0.72930                       0.66961
                       0.14284                      -0.72888                       0.66958
        </DataArray>
        <DataArray type="Float32" Name="OrientationZ" NumberOfComponents="3" format="ascii">
                      -0.11236                      -0.69007                      -0.71497
                      -0.11172                      -0.68998                      -0.71515
                      -0.10968                      -0.68970                      -0.71574
                      -0.10666                      -0.68929                      -0.71659
                      -0.10172                      -0.68862                      -0.71796
                      -0.09414                      -0.68761                      -0.71995
                      -0.08484                      -0.68644                      -0.72223
                      -0.07382                      -0.68511                      -0.72469
                      -0.06104                      -0.68364                      -0.72726
                      -0.04648                      -0.68202                      -0.72985
                      -0.03023                      -0.68023                      -0.73237
                      -0.01248                      -0.67823                      -0.73474
                       0.00633                      -0.67600                      -0.73688
                       0.02556                      -0.67356                      -0.73869
                       0.04423                      -0.67102                      -0.74012
                       0.05850                      -0.66896                      -0.74100
                       0.06834                      -0.66750                      -0.74147
                       0.07614                      -0.66635                      -0.74174
                       0.07906                      -0.66595                      -0.74180
        </DataArray>
        <DataArray type="Float32" Name="Force" NumberOfComponents="3" format="ascii">
                       1.30665                     -14.33535                      13.63085
                     165.60900                     -87.56629                      58.63610
                     264.97716                    -226.71692                     178.12864
                     271.37436                    -311.36278                     259.87561
                    1698.03607                     320.08047                    -549.22935
                    1771.98205                     250.09169                    -472.71173
                    1893.83137                     209.92843                    -424.54100
                    2673.23895                     272.82542                    -534.36510
                    3071.73509                     274.25655                    -520.32966
                    3612.43639                     307.18673                    -522.61705
                    5094.21017                     421.75877                    -609.18896
                    5917.91803                     509.27750                    -578.59591
                    6768.06500                     668.74094                    -565.39897
                    7242.43973                     782.09133                    -473.32004
                    7627.46241                     897.49566                    -369.20116
                    7853.97185                     981.07346                    -277.11670
                    7658.19921                     991.08106                    -197.18971
                    5435.58939                     725.21001                    -101.09231
                    -352.03660                    -120.18909                      73.98473
        </DataArray>
        <DataArray type="Float32" Name="Moment" NumberOfComponents="3" format="ascii">
                       0.00000                       0.00000                       0.00000
                       0.00000                       0.00000                       0.00000
                       0.00000                       0.00000                       0.00000
                       0.00000                       0.00000                       0.00000
                     104.11185                     707.73541                     734.33431
                     169.96846                    1250.27543                    1298.60232
                     202.36471                    1654.92356                    1721.05905
                     277.21333                    2611.91840                    2720.34086
                     328.15083                    3752.70009                    3915.20060
                     281.33910                    4250.15395                    4442.85258
                     200.27455                    4713.84663                    4938.28191
                      83.26643                    5012.77447                    5263.87613
                     -42.40314                    3902.95900                    4108.74691
                    -151.80449                    3891.28349                    4106.95517
                    -250.39909                    3768.11608                    3986.87318
                    -313.62006                    3583.77633                    3799.06626
                    -325.44095                    3188.01118                    3383.97926
                    -182.14038                    1602.54798                    1702.83512
                    -177.24884                    1501.99240                    1596.61346
        </DataArray>
      </PointData>
      <Lines>
        <DataArray type="Int32" Name="connectivity" format="ascii">
      0      1
      1      2
      2      3
      3      4
      4      5
      5      6
      6      7
      7      8
      8      9
      9     10
     10     11
     11     12
     12     13
     13     14
     14     15
     15     16
     16     17
     17     18
        </DataArray>
        <DataArray type="Int32" Name="offsets" format="ascii">
      2
      4
      6
      8
     10
     12
     14
     16
     18
     20
     22
     24
     26
     28
     30
     32
     34
     36
        </DataArray>
      </Lines>
    </Piece>
  </PolyData>
</VTKFile>
