<?xml version="1.0"?>
<VTKFile type="PolyData" version="0.1" byte_order="LittleEndian">
  <PolyData>
    <Piece NumberOfPoints="     19" NumberOfVerts="  0" NumberOfLines="     18"
           NumberOfStrips="  0" NumberOfPolys="      0">
      <Points>
        <DataArray type="Float32" NumberOfComponents="3" format="ascii">
                      -4.74080                      -1.11355                      89.03400
                      -4.88827                      -2.11731                      88.11804
                      -5.20716                      -4.05945                      86.21821
                      -5.53225                      -5.96997                      84.28458
                      -5.93333                      -8.33808                      81.84442
                      -6.32740                     -11.27477                      79.00738
                      -6.65351                     -14.29576                      76.25311
                      -6.93661                     -17.31312                      73.48996
                      -7.16419                     -20.32724                      70.71815
                      -7.32693                     -23.33588                      67.93596
                      -7.41656                     -26.33559                      65.14095
                      -7.42326                     -29.32638                      62.33481
                      -7.34007                     -32.30721                      59.51883
                      -7.16195                     -35.27699                      56.69491
                      -6.88379                     -38.23429                      53.86552
                      -6.57320                     -40.68798                      51.50591
                      -6.27638                     -42.64911                      49.62451
                      -5.93459                     -44.64139                      47.78460
                      -5.75242                     -45.60596                      46.83596
        </DataArray>
      </Points>
      <PointData>
        <DataArray type="Float32" Name="TranslationalVelocity" NumberOfComponents="3" format="ascii">
                      -0.00121                       1.38634                      -1.47521
                      -0.13221                       2.63913                      -2.82702
                      -0.38634                       5.23853                      -5.44179
                      -0.63707                       7.88316                      -8.01292
                      -0.94914                      11.21757                     -11.19811
                      -1.33786                      15.08230                     -15.14548
                      -1.74071                      18.82406                     -19.20287
                      -2.14792                      22.56926                     -23.25183
                      -2.56080                      26.31601                     -27.29314
                      -2.98035                      30.06548                     -31.32417
                      -3.40733                      33.81993                     -35.34081
                      -3.84283                      37.57589                     -39.34372
                      -4.28759                      41.33071                     -43.33220
                      -4.74211                      45.08118                     -47.30555
                      -5.20652                      48.82314                     -51.26263
                      -5.60110                      51.93120                     -54.54675
                      -5.92186                      54.40131                     -57.17246
                      -6.25084                      56.80846                     -59.84080
                      -6.41319                      58.04825                     -61.13313
        </DataArray>
        <DataArray type="Float32" Name="RotationalVelocity" NumberOfComponents="3" format="ascii">
                       1.34729                       0.00263                      -0.12812
                       1.34713                       0.00266                      -0.12814
                       1.34668                       0.00279                      -0.12822
                       1.34610                       0.00298                      -0.12837
                       1.34526                       0.00330                      -0.12868
                       1.34415                       0.00380                      -0.12924
                       1.34301                       0.00445                      -0.13001
                       1.34191                       0.00528                      -0.13099
                       1.34087                       0.00635                      -0.13215
                       1.33992                       0.00768                      -0.13347
                       1.33905                       0.00932                      -0.13491
                       1.33826                       0.01127                      -0.13644
                       1.33754                       0.01351                      -0.13799
                       1.33690                       0.01599                      -0.13950
                       1.33632                       0.01858                      -0.14090
                       1.33589                       0.02072                      -0.14194
                       1.33559                       0.02232                      -0.14265
                       1.33535                       0.02373                      -0.14322
                       1.33525                       0.02433                      -0.14344
        </DataArray>
        <DataArray type="Float32" Name="TranslationalAcceleration" NumberOfComponents="3" format="ascii">
                       0.29266                       2.12352                       1.74861
                       0.22870                       2.56371                       2.10959
                       0.64858                       7.22092                       6.16503
                       1.02122                      11.43283                       9.97520
                       1.43931                      16.29004                      14.48459
                       1.87435                      21.93038                      19.43967
                       2.26707                      27.53627                      24.10232
                       2.65325                      33.09458                      28.76756
                       3.04156                      38.67950                      33.49233
                       3.43405                      44.31163                      38.29660
                       3.82790                      49.97424                      43.17221
                       4.21615                      55.63546                      48.08550
                       4.59073                      61.25455                      52.99850
                       4.94408                      66.79757                      57.87878
                       5.27107                      72.25059                      62.71085
                       5.52226                      76.73847                      66.70901
                       5.70945                      80.32638                      69.89560
                       5.87691                      84.00486                      73.03563
                       5.96859                      85.81630                      74.68157
        </DataArray>
        <DataArray type="Float32" Name="OrientationX" NumberOfComponents="3" format="ascii">
                       0.94908                       0.12435                      -0.28944
                       0.94915                       0.12483                      -0.28901
                       0.94937                       0.12639                      -0.28761
                       0.94969                       0.12869                      -0.28552
                       0.95019                       0.13253                      -0.28208
                       0.95987                       0.11724                      -0.25477
                       0.96652                       0.10939                      -0.23212
                       0.97203                       0.10511                      -0.21002
                       0.97735                       0.10181                      -0.18552
                       0.98223                       0.09992                      -0.15888
                       0.98621                       0.10065                      -0.13134
                       0.98939                       0.10316                      -0.10229
                       0.99141                       0.10831                      -0.07327
                       0.99201                       0.11726                      -0.04661
                       0.99180                       0.12625                      -0.02006
                       0.99114                       0.13283                       0.00140
                       0.99038                       0.13730                       0.01704
                       0.98934                       0.14284                       0.02830
                       0.98872                       0.14640                       0.03153
        </DataArray>
        <DataArray type="Float32" Name="OrientationY" NumberOfComponents="3" format="ascii">
                       0.29618                      -0.66525                       0.68536
                       0.29618                      -0.66526                       0.68535
                       0.29618                      -0.66527                       0.68534
                       0.29619                      -0.66528                       0.68533
                       0.29624                      -0.66525                       0.68533
                       0.26590                      -0.66921                       0.69386
                       0.24400                      -0.67185                       0.69935
                       0.22492                      -0.67402                       0.70364
                       0.20477                      -0.67621                       0.70768
                       0.18406                      -0.67840                       0.71126
                       0.16454                      -0.68047                       0.71407
                       0.14522                      -0.68258                       0.71624
                       0.12782                      -0.68461                       0.71761
                       0.11487                      -0.68629                       0.71820
                       0.10212                      -0.68804                       0.71845
                       0.09140                      -0.68957                       0.71843
                       0.08339                      -0.69070                       0.71831
                       0.07926                      -0.69122                       0.71828
                       0.07942                      -0.69110                       0.71838
        </DataArray>
        <DataArray type="Float32" Name="OrientationZ" NumberOfComponents="3" format="ascii">
                      -0.10733                      -0.73619                      -0.66821
                      -0.10672                      -0.73610                      -0.66840
                      -0.10472                      -0.73583                      -0.66902
                      -0.10176                      -0.73542                      -0.66993
                      -0.09683                      -0.73476                      -0.67138
                      -0.08914                      -0.73376                      -0.67353
                      -0.07945                      -0.73257                      -0.67604
                      -0.06760                      -0.73120                      -0.67881
                      -0.05340                      -0.72964                      -0.68175
                      -0.03671                      -0.72786                      -0.68474
                      -0.01750                      -0.72583                      -0.68765
                       0.00407                      -0.72350                      -0.69032
                       0.02756                      -0.72082                      -0.69258
                       0.05223                      -0.71782                      -0.69427
                       0.07690                      -0.71461                      -0.69529
                       0.09639                      -0.71193                      -0.69560
                       0.11039                      -0.70998                      -0.69551
                       0.12216                      -0.70838                      -0.69517
                       0.12696                      -0.70778                      -0.69493
        </DataArray>
        <DataArray type="Float32" Name="Force" NumberOfComponents="3" format="ascii">
                       0.64383                      -6.23938                       6.77075
                     146.44253                     -50.46427                      32.21131
                     204.88017                    -109.74181                      88.78287
                     190.21483                    -134.11434                     118.73138
                    1508.70722                     338.28278                    -589.93675
                    2104.69241                     489.44522                    -816.74679
                    2461.80286                     478.18894                    -814.39784
                    3098.06271                     528.39355                    -887.47290
                    3327.74425                     502.84688                    -809.75809
                    3799.07594                     544.77401                    -795.66021
                    4636.62839                     643.84310                    -813.08801
                    5270.08730                     743.53100                    -765.48511
                    6162.69468                     937.02573                    -750.65443
                    6688.40744                    1082.36102                    -637.69327
                    7145.36484                    1232.34377                    -498.35040
                    7396.65723                    1332.06714                    -359.54600
                    7200.91613                    1325.24455                    -228.56621
                    5219.48140                     983.24087                     -97.12512
                    2273.31463                     303.05060                     107.56978
        </DataArray>
        <DataArray type="Float32" Name="Moment" NumberOfComponents="3" format="ascii">
                       0.00000                       0.00000                       0.00000
                       0.00000                       0.00000                       0.00000
                       0.00000                       0.00000                       0.00000
                       0.00000                       0.00000                       0.00000
                      42.72685                     325.57803                     295.96349
                      68.50712                     568.03001                     516.93620
                      88.86925                     828.73836                     755.24770
                     110.91436                    1219.56947                    1113.30980
                     116.04242                    1623.49433                    1485.04669
                      89.12161                    1832.51284                    1680.22117
                      43.58395                    1948.65096                    1791.57487
                     -14.71962                    2062.99772                    1902.49172
                     -72.42638                    1840.77585                    1703.19735
                    -134.27367                    1831.80256                    1700.80938
                    -190.50040                    1772.36417                    1651.38238
                    -226.52101                    1682.00058                    1571.53581
                    -229.88636                    1489.65048                    1394.60151
                    -127.67967                     746.97589                     700.49374
                    -113.36227                     637.89763                     598.61458
        </DataArray>
      </PointData>
      <Lines>
        <DataArray type="Int32" Name="connectivity" format="ascii">
      0      1
      1      2
      2      3
      3      4
      4      5
      5      6
      6      7
      7      8
      8      9
      9     10
     10     11
     11     12
     12     13
     13     14
     14     15
     15     16
     16     17
     17     18
        </DataArray>
        <DataArray type="Int32" Name="offsets" format="ascii">
      2
      4
      6
      8
     10
     12
     14
     16
     18
     20
     22
     24
     26
     28
     30
     32
     34
     36
        </DataArray>
      </Lines>
    </Piece>
  </PolyData>
</VTKFile>
