<?xml version="1.0"?>
<VTKFile type="PolyData" version="0.1" byte_order="LittleEndian">
  <PolyData>
    <Piece NumberOfPoints="     22" NumberOfVerts="  0" NumberOfLines="     21"
           NumberOfStrips="  0" NumberOfPolys="      0">
      <Points>
        <DataArray type="Float32" NumberOfComponents="3" format="ascii">
                       0.00007                      -0.00000                       2.19000
                       0.00074                      -0.00003                       6.57000
                       0.00222                      -0.00007                      10.95000
                       0.00457                      -0.00013                      15.33000
                       0.00781                      -0.00020                      19.71000
                       0.01192                      -0.00030                      24.09000
                       0.01686                      -0.00040                      28.46999
                       0.02260                      -0.00053                      32.84999
                       0.02913                      -0.00068                      37.22998
                       0.03643                      -0.00084                      41.60998
                       0.04454                      -0.00103                      45.98997
                       0.05349                      -0.00124                      50.36996
                       0.06331                      -0.00147                      54.74995
                       0.07404                      -0.00172                      59.12994
                       0.08570                      -0.00199                      63.50992
                       0.09827                      -0.00228                      67.88990
                       0.11164                      -0.00259                      72.26988
                       0.12562                      -0.00292                      76.64986
                       0.13989                      -0.00326                      81.02984
                       0.15393                      -0.00362                      85.40982
                       0.16066                      -0.00379                      87.59980
                       0.00000                       0.00000                       0.00000
        </DataArray>
      </Points>
      <PointData>
        <DataArray type="Float32" Name="TranslationalVelocity" NumberOfComponents="3" format="ascii">
                       0.00003                       0.00001                      -0.00000
                       0.00026                       0.00007                      -0.00000
                       0.00074                       0.00018                      -0.00000
                       0.00143                       0.00034                      -0.00000
                       0.00231                       0.00055                      -0.00000
                       0.00332                       0.00080                      -0.00000
                       0.00442                       0.00110                      -0.00000
                       0.00553                       0.00146                      -0.00000
                       0.00658                       0.00187                      -0.00001
                       0.00751                       0.00235                      -0.00001
                       0.00824                       0.00289                      -0.00001
                       0.00871                       0.00350                      -0.00001
                       0.00887                       0.00418                      -0.00001
                       0.00867                       0.00494                      -0.00001
                       0.00809                       0.00577                      -0.00001
                       0.00709                       0.00667                      -0.00001
                       0.00570                       0.00764                      -0.00000
                       0.00392                       0.00868                       0.00000
                       0.00181                       0.00976                       0.00001
                      -0.00058                       0.01088                       0.00002
                      -0.00185                       0.01145                       0.00002
                       0.00000                      -0.00000                       0.00000
        </DataArray>
        <DataArray type="Float32" Name="RotationalVelocity" NumberOfComponents="3" format="ascii">
                      -0.00001                       0.00003                       0.00000
                      -0.00002                       0.00008                       0.00000
                      -0.00003                       0.00013                       0.00000
                      -0.00004                       0.00018                       0.00000
                      -0.00005                       0.00022                       0.00000
                      -0.00006                       0.00024                       0.00000
                      -0.00008                       0.00025                       0.00000
                      -0.00009                       0.00025                       0.00000
                      -0.00010                       0.00023                       0.00000
                      -0.00012                       0.00019                       0.00000
                      -0.00013                       0.00014                       0.00000
                      -0.00015                       0.00007                       0.00000
                      -0.00016                      -0.00000                       0.00000
                      -0.00018                      -0.00009                       0.00000
                      -0.00020                      -0.00018                       0.00000
                      -0.00021                      -0.00027                       0.00000
                      -0.00023                      -0.00036                       0.00000
                      -0.00024                      -0.00045                       0.00000
                      -0.00025                      -0.00052                       0.00000
                      -0.00026                      -0.00057                       0.00000
                      -0.00026                      -0.00059                       0.00000
                       0.00000                      -0.00000                       0.00000
        </DataArray>
        <DataArray type="Float32" Name="TranslationalAcceleration" NumberOfComponents="3" format="ascii">
                      -0.00000                       0.00009                      -0.00000
                      -0.00002                       0.00075                      -0.00000
                      -0.00006                       0.00194                      -0.00000
                      -0.00011                       0.00356                      -0.00000
                      -0.00016                       0.00549                      -0.00000
                      -0.00022                       0.00765                      -0.00000
                      -0.00028                       0.00995                      -0.00000
                      -0.00033                       0.01229                      -0.00000
                      -0.00035                       0.01455                      -0.00000
                      -0.00034                       0.01662                      -0.00000
                      -0.00030                       0.01839                      -0.00000
                      -0.00021                       0.01973                      -0.00000
                      -0.00006                       0.02050                      -0.00000
                       0.00014                       0.02059                      -0.00000
                       0.00041                       0.01991                      -0.00000
                       0.00075                       0.01836                      -0.00001
                       0.00116                       0.01592                      -0.00001
                       0.00162                       0.01260                      -0.00001
                       0.00213                       0.00847                      -0.00001
                       0.00268                       0.00372                      -0.00002
                       0.00295                       0.00119                      -0.00002
                       0.00000                      -0.00000                       0.00000
        </DataArray>
        <DataArray type="Float32" Name="RotationalAcceleration" NumberOfComponents="3" format="ascii">
                      -0.00008                      -0.00000                       0.00000
                      -0.00022                      -0.00001                       0.00000
                      -0.00032                      -0.00001                       0.00000
                      -0.00041                      -0.00001                       0.00000
                      -0.00047                      -0.00001                       0.00000
                      -0.00051                      -0.00001                       0.00000
                      -0.00053                      -0.00001                       0.00000
                      -0.00053                      -0.00001                       0.00000
                      -0.00050                      -0.00000                       0.00000
                      -0.00044                       0.00001                       0.00000
                      -0.00036                       0.00002                       0.00000
                      -0.00025                       0.00003                       0.00000
                      -0.00010                       0.00004                       0.00000
                       0.00006                       0.00005                       0.00000
                       0.00025                       0.00007                       0.00000
                       0.00045                       0.00009                       0.00000
                       0.00066                       0.00010                       0.00000
                       0.00085                       0.00011                       0.00000
                       0.00102                       0.00012                       0.00000
                       0.00114                       0.00013                       0.00000
                       0.00117                       0.00013                       0.00000
                       0.00000                      -0.00000                       0.00000
        </DataArray>
        <DataArray type="Float32" Name="OrientationX" NumberOfComponents="3" format="ascii">
                       1.00000                       0.00000                      -0.00007
                       1.00000                       0.00000                      -0.00024
                       1.00000                       0.00000                      -0.00044
                       1.00000                       0.00000                      -0.00064
                       1.00000                       0.00000                      -0.00084
                       1.00000                       0.00000                      -0.00103
                       1.00000                       0.00000                      -0.00122
                       1.00000                       0.00000                      -0.00140
                       1.00000                       0.00000                      -0.00158
                       1.00000                       0.00000                      -0.00176
                       1.00000                       0.00000                      -0.00195
                       1.00000                       0.00000                      -0.00214
                       1.00000                       0.00000                      -0.00234
                       1.00000                       0.00000                      -0.00256
                       1.00000                       0.00000                      -0.00277
                       1.00000                       0.00000                      -0.00297
                       1.00000                       0.00000                      -0.00313
                       0.99999                       0.00000                      -0.00324
                       0.99999                       0.00000                      -0.00326
                       1.00000                       0.00000                      -0.00313
                       1.00000                       0.00000                      -0.00300
                       1.00000                      -0.00000                       0.00000
        </DataArray>
        <DataArray type="Float32" Name="OrientationY" NumberOfComponents="3" format="ascii">
                       0.00000                       1.00000                       0.00000
                       0.00000                       1.00000                       0.00001
                       0.00000                       1.00000                       0.00001
                       0.00000                       1.00000                       0.00002
                       0.00000                       1.00000                       0.00002
                       0.00000                       1.00000                       0.00002
                       0.00000                       1.00000                       0.00003
                       0.00000                       1.00000                       0.00003
                       0.00000                       1.00000                       0.00004
                       0.00000                       1.00000                       0.00004
                       0.00000                       1.00000                       0.00004
                       0.00000                       1.00000                       0.00005
                       0.00000                       1.00000                       0.00005
                       0.00000                       1.00000                       0.00006
                       0.00000                       1.00000                       0.00006
                       0.00000                       1.00000                       0.00007
                       0.00000                       1.00000                       0.00007
                       0.00000                       1.00000                       0.00008
                       0.00000                       1.00000                       0.00008
                       0.00000                       1.00000                       0.00008
                       0.00000                       1.00000                       0.00008
                      -0.00000                       1.00000                      -0.00000
        </DataArray>
        <DataArray type="Float32" Name="OrientationZ" NumberOfComponents="3" format="ascii">
                       0.00007                      -0.00000                       1.00000
                       0.00024                      -0.00001                       1.00000
                       0.00044                      -0.00001                       1.00000
                       0.00064                      -0.00002                       1.00000
                       0.00084                      -0.00002                       1.00000
                       0.00103                      -0.00002                       1.00000
                       0.00122                      -0.00003                       1.00000
                       0.00140                      -0.00003                       1.00000
                       0.00158                      -0.00004                       1.00000
                       0.00176                      -0.00004                       1.00000
                       0.00195                      -0.00004                       1.00000
                       0.00214                      -0.00005                       1.00000
                       0.00234                      -0.00005                       1.00000
                       0.00256                      -0.00006                       1.00000
                       0.00277                      -0.00006                       1.00000
                       0.00297                      -0.00007                       1.00000
                       0.00313                      -0.00007                       1.00000
                       0.00324                      -0.00008                       0.99999
                       0.00326                      -0.00008                       0.99999
                       0.00313                      -0.00008                       1.00000
                       0.00300                      -0.00008                       1.00000
                       0.00000                      -0.00000                       1.00000
        </DataArray>
      </PointData>
      <Lines>
        <DataArray type="Int32" Name="connectivity" format="ascii">
      0      1
      1      2
      2      3
      3      4
      4      5
      5      6
      6      7
      7      8
      8      9
      9     10
     10     11
     11     12
     12     13
     13     14
     14     15
     15     16
     16     17
     17     18
     18     19
     19     20
     21      0
        </DataArray>
        <DataArray type="Int32" Name="offsets" format="ascii">
      2
      4
      6
      8
     10
     12
     14
     16
     18
     20
     22
     24
     26
     28
     30
     32
     34
     36
     38
     40
     42
        </DataArray>
      </Lines>
    </Piece>
  </PolyData>
</VTKFile>
