<?xml version="1.0"?>
<VTKFile type="PolyData" version="0.1" byte_order="LittleEndian">
  <PolyData>
    <Piece NumberOfPoints="     22" NumberOfVerts="  0" NumberOfLines="     21"
           NumberOfStrips="  0" NumberOfPolys="      0">
      <Points>
        <DataArray type="Float32" NumberOfComponents="3" format="ascii">
                       0.00021                      -0.00000                       2.19000
                       0.00211                      -0.00001                       6.57000
                       0.00631                      -0.00002                      10.95000
                       0.01299                      -0.00003                      15.32999
                       0.02218                      -0.00006                      19.70998
                       0.03382                      -0.00010                      24.08997
                       0.04783                      -0.00016                      28.46994
                       0.06409                      -0.00023                      32.84991
                       0.08256                      -0.00033                      37.22987
                       0.10323                      -0.00047                      41.60983
                       0.12614                      -0.00064                      45.98977
                       0.15139                      -0.00085                      50.36969
                       0.17909                      -0.00111                      54.74960
                       0.20935                      -0.00142                      59.12950
                       0.24220                      -0.00178                      63.50938
                       0.27757                      -0.00220                      67.88923
                       0.31519                      -0.00267                      72.26907
                       0.35451                      -0.00319                      76.64890
                       0.39461                      -0.00376                      81.02871
                       0.43407                      -0.00437                      85.40854
                       0.45295                      -0.00468                      87.59845
                       0.00000                       0.00000                       0.00000
        </DataArray>
      </Points>
      <PointData>
        <DataArray type="Float32" Name="TranslationalVelocity" NumberOfComponents="3" format="ascii">
                       0.00007                      -0.00002                      -0.00000
                       0.00067                      -0.00021                      -0.00000
                       0.00199                      -0.00055                      -0.00000
                       0.00411                      -0.00103                      -0.00001
                       0.00702                      -0.00162                      -0.00001
                       0.01072                      -0.00232                      -0.00002
                       0.01517                      -0.00311                      -0.00004
                       0.02035                      -0.00399                      -0.00005
                       0.02624                      -0.00495                      -0.00008
                       0.03284                      -0.00597                      -0.00011
                       0.04018                      -0.00705                      -0.00015
                       0.04829                      -0.00817                      -0.00020
                       0.05720                      -0.00932                      -0.00025
                       0.06695                      -0.01049                      -0.00032
                       0.07756                      -0.01165                      -0.00040
                       0.08900                      -0.01280                      -0.00049
                       0.10119                      -0.01392                      -0.00060
                       0.11395                      -0.01501                      -0.00071
                       0.12697                      -0.01606                      -0.00083
                       0.13980                      -0.01708                      -0.00095
                       0.14595                      -0.01758                      -0.00100
                       0.00000                      -0.00000                       0.00000
        </DataArray>
        <DataArray type="Float32" Name="RotationalVelocity" NumberOfComponents="3" format="ascii">
                       0.00002                       0.00006                       0.00000
                       0.00006                       0.00022                       0.00000
                       0.00009                       0.00039                       0.00000
                       0.00012                       0.00057                       0.00000
                       0.00015                       0.00076                       0.00000
                       0.00017                       0.00093                       0.00000
                       0.00019                       0.00110                       0.00000
                       0.00021                       0.00126                       0.00000
                       0.00023                       0.00143                       0.00000
                       0.00024                       0.00159                       0.00000
                       0.00025                       0.00176                       0.00000
                       0.00026                       0.00194                       0.00000
                       0.00027                       0.00213                       0.00000
                       0.00027                       0.00232                       0.00000
                       0.00026                       0.00252                       0.00000
                       0.00026                       0.00270                       0.00000
                       0.00025                       0.00286                       0.00000
                       0.00024                       0.00296                       0.00000
                       0.00024                       0.00297                       0.00000
                       0.00023                       0.00286                       0.00000
                       0.00023                       0.00274                       0.00000
                       0.00000                      -0.00000                       0.00000
        </DataArray>
        <DataArray type="Float32" Name="TranslationalAcceleration" NumberOfComponents="3" format="ascii">
                      -0.00030                      -0.00005                       0.00000
                      -0.00287                      -0.00040                       0.00000
                      -0.00834                      -0.00103                       0.00001
                      -0.01679                      -0.00188                       0.00002
                      -0.02808                      -0.00290                       0.00004
                      -0.04194                      -0.00403                       0.00007
                      -0.05804                      -0.00521                       0.00012
                      -0.07601                      -0.00639                       0.00018
                      -0.09548                      -0.00751                       0.00026
                      -0.11614                      -0.00850                       0.00034
                      -0.13771                      -0.00929                       0.00044
                      -0.15998                      -0.00980                       0.00056
                      -0.18280                      -0.00996                       0.00068
                      -0.20605                      -0.00970                       0.00082
                      -0.22963                      -0.00897                       0.00097
                      -0.25340                      -0.00772                       0.00113
                      -0.27714                      -0.00594                       0.00130
                      -0.30053                      -0.00363                       0.00148
                      -0.32301                      -0.00085                       0.00164
                      -0.34376                       0.00231                       0.00179
                      -0.35313                       0.00398                       0.00186
                       0.00000                      -0.00000                       0.00000
        </DataArray>
        <DataArray type="Float32" Name="RotationalAcceleration" NumberOfComponents="3" format="ascii">
                       0.00004                      -0.00028                       0.00000
                       0.00011                      -0.00091                       0.00000
                       0.00017                      -0.00159                       0.00000
                       0.00022                      -0.00226                       0.00000
                       0.00025                      -0.00288                       0.00000
                       0.00027                      -0.00343                       0.00000
                       0.00027                      -0.00390                       0.00000
                       0.00027                      -0.00429                       0.00000
                       0.00024                      -0.00459                       0.00000
                       0.00021                      -0.00483                       0.00000
                       0.00015                      -0.00501                       0.00000
                       0.00008                      -0.00515                       0.00000
                      -0.00001                      -0.00526                       0.00000
                      -0.00011                      -0.00535                       0.00000
                      -0.00022                      -0.00541                       0.00000
                      -0.00035                      -0.00543                       0.00000
                      -0.00047                      -0.00540                       0.00000
                      -0.00058                      -0.00526                       0.00000
                      -0.00068                      -0.00497                       0.00000
                      -0.00075                      -0.00446                       0.00000
                      -0.00077                      -0.00408                       0.00000
                       0.00000                      -0.00000                       0.00000
        </DataArray>
        <DataArray type="Float32" Name="OrientationX" NumberOfComponents="3" format="ascii">
                       1.00000                       0.00000                      -0.00020
                       1.00000                       0.00000                      -0.00068
                       1.00000                       0.00000                      -0.00124
                       1.00000                       0.00000                      -0.00181
                       1.00000                       0.00000                      -0.00238
                       1.00000                       0.00000                      -0.00293
                       0.99999                       0.00000                      -0.00346
                       0.99999                       0.00000                      -0.00397
                       0.99999                       0.00000                      -0.00447
                       0.99999                       0.00000                      -0.00497
                       0.99998                       0.00000                      -0.00549
                       0.99998                       0.00000                      -0.00604
                       0.99998                       0.00000                      -0.00661
                       0.99997                       0.00000                      -0.00720
                       0.99997                       0.00000                      -0.00779
                       0.99997                       0.00000                      -0.00835
                       0.99996                       0.00000                      -0.00881
                       0.99996                       0.00000                      -0.00911
                       0.99996                       0.00000                      -0.00915
                       0.99996                       0.00000                      -0.00880
                       0.99996                       0.00000                      -0.00843
                       1.00000                      -0.00000                       0.00000
        </DataArray>
        <DataArray type="Float32" Name="OrientationY" NumberOfComponents="3" format="ascii">
                       0.00000                       1.00000                       0.00000
                       0.00000                       1.00000                       0.00000
                       0.00000                       1.00000                       0.00000
                       0.00000                       1.00000                       0.00000
                       0.00000                       1.00000                       0.00001
                       0.00000                       1.00000                       0.00001
                       0.00000                       1.00000                       0.00001
                       0.00000                       1.00000                       0.00002
                       0.00000                       1.00000                       0.00003
                       0.00000                       1.00000                       0.00003
                       0.00000                       1.00000                       0.00004
                       0.00000                       1.00000                       0.00005
                       0.00000                       1.00000                       0.00006
                       0.00000                       1.00000                       0.00008
                       0.00000                       1.00000                       0.00009
                       0.00000                       1.00000                       0.00010
                       0.00000                       1.00000                       0.00011
                       0.00000                       1.00000                       0.00013
                       0.00000                       1.00000                       0.00013
                       0.00000                       1.00000                       0.00014
                       0.00000                       1.00000                       0.00014
                      -0.00000                       1.00000                      -0.00000
        </DataArray>
        <DataArray type="Float32" Name="OrientationZ" NumberOfComponents="3" format="ascii">
                       0.00020                      -0.00000                       1.00000
                       0.00068                      -0.00000                       1.00000
                       0.00124                      -0.00000                       1.00000
                       0.00181                      -0.00000                       1.00000
                       0.00238                      -0.00001                       1.00000
                       0.00293                      -0.00001                       1.00000
                       0.00346                      -0.00001                       0.99999
                       0.00397                      -0.00002                       0.99999
                       0.00447                      -0.00003                       0.99999
                       0.00497                      -0.00003                       0.99999
                       0.00549                      -0.00004                       0.99998
                       0.00604                      -0.00005                       0.99998
                       0.00661                      -0.00006                       0.99998
                       0.00720                      -0.00008                       0.99997
                       0.00779                      -0.00009                       0.99997
                       0.00835                      -0.00010                       0.99997
                       0.00881                      -0.00011                       0.99996
                       0.00911                      -0.00013                       0.99996
                       0.00915                      -0.00013                       0.99996
                       0.00880                      -0.00014                       0.99996
                       0.00843                      -0.00014                       0.99996
                       0.00000                      -0.00000                       1.00000
        </DataArray>
      </PointData>
      <Lines>
        <DataArray type="Int32" Name="connectivity" format="ascii">
      0      1
      1      2
      2      3
      3      4
      4      5
      5      6
      6      7
      7      8
      8      9
      9     10
     10     11
     11     12
     12     13
     13     14
     14     15
     15     16
     16     17
     17     18
     18     19
     19     20
     21      0
        </DataArray>
        <DataArray type="Int32" Name="offsets" format="ascii">
      2
      4
      6
      8
     10
     12
     14
     16
     18
     20
     22
     24
     26
     28
     30
     32
     34
     36
     38
     40
     42
        </DataArray>
      </Lines>
    </Piece>
  </PolyData>
</VTKFile>
