<?xml version="1.0"?>
<VTKFile type="PolyData" version="0.1" byte_order="LittleEndian">
  <PolyData>
    <Piece NumberOfPoints="     19" NumberOfVerts="  0" NumberOfLines="     18"
           NumberOfStrips="  0" NumberOfPolys="      0">
      <Points>
        <DataArray type="Float32" NumberOfComponents="3" format="ascii">
                      -4.88003                       1.08925                      89.01277
                      -5.02539                       2.09013                      88.09307
                      -5.32975                       4.15532                      86.32417
                      -5.63783                       6.25038                      84.58738
                      -6.02029                       8.88679                      82.43370
                      -6.42347                      11.95331                      79.73489
                      -6.79469                      14.93038                      76.93452
                      -7.14968                      17.90448                      74.12841
                      -7.48540                      20.87466                      71.31523
                      -7.80270                      23.84245                      68.49683
                      -8.10406                      26.81049                      65.67642
                      -8.39138                      29.77787                      62.85334
                      -8.66917                      32.74446                      60.02820
                      -8.94350                      35.70997                      57.20163
                      -9.21957                      38.67400                      54.37427
                      -9.45742                      41.14234                      52.01796
                      -9.65658                      43.11006                      50.12743
                      -9.86457                      45.03850                      48.19716
                      -9.97753                      46.03016                      47.26270
        </DataArray>
      </Points>
      <PointData>
        <DataArray type="Float32" Name="TranslationalVelocity" NumberOfComponents="3" format="ascii">
                       0.25018                       2.68776                       2.88028
                       0.49484                       5.14350                       5.51413
                       0.99971                       9.87113                      10.94683
                       1.51232                      14.51293                      16.45500
                       2.15866                      20.26551                      23.38133
                       2.91340                      27.44998                      31.43006
                       3.65006                      34.88639                      39.23606
                       4.38987                      42.32698                      47.02673
                       5.13231                      49.77492                      54.80026
                       5.87685                      57.22629                      62.56149
                       6.62249                      64.67402                      70.31831
                       7.36660                      72.12100                      78.06932
                       8.10583                      79.56738                      85.81517
                       8.83577                      87.01333                      93.55583
                       9.55092                      94.45850                     101.29088
                      10.13024                     100.66234                     107.73113
                      10.57872                     105.63981                     112.86437
                      11.00339                     110.72092                     117.89423
                      11.21561                     113.18255                     120.48031
        </DataArray>
        <DataArray type="Float32" Name="RotationalVelocity" NumberOfComponents="3" format="ascii">
                       2.63210                      -0.00078                      -0.24359
                       2.63168                      -0.00085                      -0.24361
                       2.63054                      -0.00104                      -0.24368
                       2.62912                      -0.00128                      -0.24380
                       2.62710                      -0.00163                      -0.24409
                       2.62453                      -0.00210                      -0.24464
                       2.62200                      -0.00260                      -0.24536
                       2.61965                      -0.00310                      -0.24614
                       2.61755                      -0.00355                      -0.24680
                       2.61574                      -0.00392                      -0.24714
                       2.61421                      -0.00413                      -0.24696
                       2.61292                      -0.00410                      -0.24604
                       2.61183                      -0.00371                      -0.24420
                       2.61090                      -0.00281                      -0.24130
                       2.61007                      -0.00121                      -0.23726
                       2.60944                       0.00080                      -0.23304
                       2.60898                       0.00299                      -0.22911
                       2.60857                       0.00579                      -0.22475
                       2.60839                       0.00746                      -0.22244
        </DataArray>
        <DataArray type="Float32" Name="TranslationalAcceleration" NumberOfComponents="3" format="ascii">
                       0.66751                      -7.63509                       7.13635
                       0.79311                      -9.25114                       8.60755
                       2.22923                     -26.90353                      24.14628
                       3.53186                     -43.35595                      38.16737
                       5.04933                     -62.69588                      54.34803
                       6.86692                     -83.98441                      73.41099
                       8.74556                    -104.02418                      92.62397
                      10.69073                    -123.90856                     111.79465
                      12.74793                    -143.89157                     131.16888
                      14.94480                    -164.07189                     150.81043
                      17.29355                    -184.43159                     170.65708
                      19.79516                    -204.85310                     190.60174
                      22.43839                    -225.19907                     210.50679
                      25.20197                    -245.35481                     230.25868
                      28.05621                    -265.27982                     249.81392
                      30.47822                    -281.75847                     266.00884
                      32.42584                    -294.90721                     279.01903
                      34.37863                    -307.92406                     292.43266
                      35.34051                    -314.72336                     299.03348
        </DataArray>
        <DataArray type="Float32" Name="OrientationX" NumberOfComponents="3" format="ascii">
                       0.98093                       0.18806                       0.04918
                       0.98096                       0.18783                       0.04941
                       0.98104                       0.18720                       0.05022
                       0.98114                       0.18633                       0.05149
                       0.98127                       0.18501                       0.05365
                       0.98619                       0.16215                       0.03374
                       0.98916                       0.14526                       0.02149
                       0.99131                       0.13091                       0.01268
                       0.99313                       0.11689                       0.00447
                       0.99457                       0.10406                      -0.00262
                       0.99554                       0.09406                      -0.00728
                       0.99619                       0.08655                      -0.01038
                       0.99650                       0.08289                      -0.01096
                       0.99637                       0.08481                      -0.00772
                       0.99601                       0.08916                      -0.00462
                       0.99556                       0.09410                      -0.00309
                       0.99507                       0.09909                      -0.00273
                       0.99426                       0.10697                      -0.00124
                       0.99366                       0.11241                       0.00033
        </DataArray>
        <DataArray type="Float32" Name="OrientationY" NumberOfComponents="3" format="ascii">
                       0.16278                      -0.65643                      -0.73661
                       0.16282                      -0.65662                      -0.73644
                       0.16306                      -0.65707                      -0.73598
                       0.16348                      -0.65761                      -0.73540
                       0.16429                      -0.65836                      -0.73455
                       0.13444                      -0.66477                      -0.73485
                       0.11421                      -0.66901                      -0.73442
                       0.09816                      -0.67225                      -0.73378
                       0.08276                      -0.67506                      -0.73311
                       0.06894                      -0.67734                      -0.73243
                       0.05880                      -0.67897                      -0.73180
                       0.05147                      -0.68015                      -0.73127
                       0.04859                      -0.68081                      -0.73085
                       0.05229                      -0.68084                      -0.73056
                       0.05754                      -0.68066                      -0.73034
                       0.06204                      -0.68041                      -0.73020
                       0.06572                      -0.68013                      -0.73014
                       0.07219                      -0.67945                      -0.73016
                       0.07704                      -0.67887                      -0.73021
        </DataArray>
        <DataArray type="Float32" Name="OrientationZ" NumberOfComponents="3" format="ascii">
                      -0.10625                       0.73057                      -0.67453
                      -0.10589                       0.73046                      -0.67470
                      -0.10478                       0.73022                      -0.67513
                      -0.10317                       0.72995                      -0.67567
                      -0.10057                       0.72961                      -0.67643
                      -0.09673                       0.72924                      -0.67739
                      -0.09230                       0.72892                      -0.67835
                      -0.08753                       0.72865                      -0.67926
                      -0.08267                       0.72844                      -0.68010
                      -0.07799                       0.72827                      -0.68084
                      -0.07378                       0.72811                      -0.68148
                      -0.07035                       0.72795                      -0.68201
                      -0.06804                       0.72776                      -0.68245
                      -0.06721                       0.72750                      -0.68280
                      -0.06826                       0.72716                      -0.68307
                      -0.07081                       0.72676                      -0.68323
                      -0.07421                       0.72636                      -0.68329
                      -0.07894                       0.72588                      -0.68328
                      -0.08185                       0.72561                      -0.68322
        </DataArray>
        <DataArray type="Float32" Name="Force" NumberOfComponents="3" format="ascii">
                      -0.69106                      -6.99508                      -7.46737
                     144.74362                     -53.82995                     -81.01689
                     221.67733                    -183.39584                    -233.00248
                     221.34125                    -295.11105                    -353.30261
                    1474.94855                     292.58241                      97.18792
                    1476.34223                     220.51393                      27.51024
                    1432.78098                     152.42613                     -30.39102
                    2094.55073                     203.29588                     -50.59929
                    2496.54419                     190.89422                     -97.72571
                    2808.70527                     166.95765                    -141.92319
                    4306.73740                     208.36297                    -241.95496
                    4737.12954                     182.19865                    -292.55011
                    4494.07049                     149.52564                    -287.13941
                    3725.61072                      82.13499                    -278.38587
                    2505.32835                      -0.33789                    -250.84540
                    1431.02317                     -67.10468                    -220.75001
                     509.85784                    -117.23018                    -181.83446
                     362.42332                     -63.77700                    -110.75027
                  -10929.32092                    -263.15912                    1027.80980
        </DataArray>
        <DataArray type="Float32" Name="Moment" NumberOfComponents="3" format="ascii">
                       0.00000                       0.00000                       0.00000
                       0.00000                       0.00000                       0.00000
                       0.00000                       0.00000                       0.00000
                       0.00000                       0.00000                       0.00000
                     122.92467                    -894.11858                     826.19133
                     207.64827                   -1571.45680                    1452.84851
                     263.96585                   -2094.84901                    1937.92528
                     409.17816                   -3426.31855                    3171.74333
                     561.10839                   -4977.73572                    4610.97602
                     602.25626                   -5666.70616                    5252.56234
                     639.63883                   -6365.48316                    5903.68344
                     650.09592                   -6788.42659                    6298.90873
                     480.24404                   -5187.55388                    4815.00700
                     470.25888                   -5144.49548                    4775.59604
                     458.32507                   -4938.98995                    4584.19276
                     446.85871                   -4643.31867                    4308.28329
                     413.08727                   -4097.03172                    3799.67333
                     224.07302                   -2089.29061                    1936.41026
                     219.49906                   -1973.84112                    1828.68603
        </DataArray>
      </PointData>
      <Lines>
        <DataArray type="Int32" Name="connectivity" format="ascii">
      0      1
      1      2
      2      3
      3      4
      4      5
      5      6
      6      7
      7      8
      8      9
      9     10
     10     11
     11     12
     12     13
     13     14
     14     15
     15     16
     16     17
     17     18
        </DataArray>
        <DataArray type="Int32" Name="offsets" format="ascii">
      2
      4
      6
      8
     10
     12
     14
     16
     18
     20
     22
     24
     26
     28
     30
     32
     34
     36
        </DataArray>
      </Lines>
    </Piece>
  </PolyData>
</VTKFile>
