<?xml version="1.0"?>
<VTKFile type="PolyData" version="0.1" byte_order="LittleEndian">
  <PolyData>
    <Piece NumberOfPoints="     19" NumberOfVerts="  0" NumberOfLines="     18"
           NumberOfStrips="  0" NumberOfPolys="      0">
      <Points>
        <DataArray type="Float32" NumberOfComponents="3" format="ascii">
                      -5.01947                      -0.35863                      88.57034
                      -5.19914                      -0.67450                      87.25249
                      -5.58104                      -1.21374                      84.59720
                      -5.97128                      -1.70891                      81.93197
                      -6.45987                      -2.30101                      78.59351
                      -6.97981                      -3.14969                      74.61156
                      -7.45931                      -4.12316                      70.65410
                      -7.92670                      -5.09725                      66.69487
                      -8.38037                      -6.07387                      62.73411
                      -8.82332                      -7.05146                      58.77177
                      -9.26050                      -8.02698                      54.80773
                      -9.69609                      -9.00251                      50.84305
                     -10.13719                      -9.97889                      46.87895
                     -10.59258                     -10.95712                      42.91700
                     -11.07029                     -11.93804                      38.95884
                     -11.49444                     -12.75846                      35.66495
                     -11.85430                     -13.42474                      33.03561
                     -12.22894                     -14.14651                      30.42237
                     -12.43475                     -14.46845                      29.10922
        </DataArray>
      </Points>
      <PointData>
        <DataArray type="Float32" Name="TranslationalVelocity" NumberOfComponents="3" format="ascii">
                      -0.09009                       4.05742                      -0.97117
                      -0.16893                       7.74685                      -1.84471
                      -0.30458                      15.18177                      -3.33519
                      -0.43141                      22.64054                      -4.70268
                      -0.58761                      31.97384                      -6.33608
                      -0.81756                      43.07582                      -8.67409
                      -1.08904                      54.08398                     -11.35113
                      -1.37277                      65.07798                     -14.02440
                      -1.67070                      76.05781                     -16.69927
                      -1.98388                      87.02575                     -19.37172
                      -2.31300                      97.98513                     -22.03363
                      -2.66017                     108.93581                     -24.69095
                      -3.02740                     119.87786                     -27.34594
                      -3.41702                     130.81043                     -30.00102
                      -3.83173                     141.73178                     -32.65783
                      -4.19940                     150.82185                     -34.87478
                      -4.51071                     158.07985                     -36.67159
                      -4.85021                     165.29388                     -38.61587
                      -5.01619                     168.92177                     -39.47963
        </DataArray>
        <DataArray type="Float32" Name="RotationalVelocity" NumberOfComponents="3" format="ascii">
                       2.76604                      -0.00037                      -0.25079
                       2.76541                      -0.00022                      -0.25075
                       2.76369                       0.00038                      -0.25070
                       2.76149                       0.00134                      -0.25070
                       2.75833                       0.00291                      -0.25079
                       2.75424                       0.00526                      -0.25101
                       2.75015                       0.00800                      -0.25135
                       2.74627                       0.01108                      -0.25182
                       2.74273                       0.01449                      -0.25242
                       2.73956                       0.01825                      -0.25315
                       2.73675                       0.02240                      -0.25401
                       2.73426                       0.02699                      -0.25498
                       2.73201                       0.03207                      -0.25604
                       2.72994                       0.03767                      -0.25716
                       2.72800                       0.04382                      -0.25828
                       2.72647                       0.04934                      -0.25917
                       2.72532                       0.05401                      -0.25982
                       2.72427                       0.05886                      -0.26039
                       2.72380                       0.06135                      -0.26063
        </DataArray>
        <DataArray type="Float32" Name="TranslationalAcceleration" NumberOfComponents="3" format="ascii">
                       1.03192                       2.72238                      11.21490
                       1.22840                       3.24839                      13.54614
                       3.51745                       8.57100                      38.90692
                       5.61915                      13.05380                      62.28278
                       8.07196                      17.97674                      89.58157
                      10.84243                      24.51317                     120.29876
                      13.53213                      31.79005                     149.89794
                      16.22887                      39.02920                     179.31599
                      18.96565                      46.33855                     208.93189
                      21.75068                      53.73779                     238.87638
                      24.57498                      61.19034                     269.09932
                      27.41947                      68.67143                     299.43061
                      30.26406                      76.13656                     329.66348
                      33.09554                      83.54987                     359.62465
                      35.91563                      90.90013                     389.24765
                      38.27459                      96.99973                     413.74597
                      40.18717                     101.95215                     433.33130
                      42.15082                     107.36534                     453.00339
                      43.15832                     109.80891                     463.04932
        </DataArray>
        <DataArray type="Float32" Name="OrientationX" NumberOfComponents="3" format="ascii">
                       0.95966                       0.21390                      -0.18248
                       0.95970                       0.21399                      -0.18219
                       0.95977                       0.21443                      -0.18130
                       0.95984                       0.21517                      -0.18005
                       0.95990                       0.21655                      -0.17805
                       0.96740                       0.18870                      -0.16889
                       0.97208                       0.17043                      -0.16130
                       0.97551                       0.15649                      -0.15456
                       0.97848                       0.14344                      -0.14832
                       0.98084                       0.13215                      -0.14315
                       0.98229                       0.12460                      -0.13991
                       0.98304                       0.11986                      -0.13878
                       0.98285                       0.11942                      -0.14049
                       0.98136                       0.12522                      -0.14579
                       0.97921                       0.13220                      -0.15388
                       0.97702                       0.13777                      -0.16261
                       0.97499                       0.14196                      -0.17102
                       0.97216                       0.14846                      -0.18129
                       0.97031                       0.15310                      -0.18722
        </DataArray>
        <DataArray type="Float32" Name="OrientationY" NumberOfComponents="3" format="ascii">
                       0.24870                      -0.94852                       0.19608
                       0.24873                      -0.94851                       0.19611
                       0.24895                      -0.94845                       0.19615
                       0.24939                      -0.94833                       0.19616
                       0.25028                      -0.94809                       0.19616
                       0.22131                      -0.95414                       0.20158
                       0.20193                      -0.95770                       0.20504
                       0.18693                      -0.96019                       0.20760
                       0.17289                      -0.96232                       0.20987
                       0.16079                      -0.96402                       0.21171
                       0.15274                      -0.96506                       0.21289
                       0.14790                      -0.96566                       0.21358
                       0.14786                      -0.96567                       0.21360
                       0.15469                      -0.96481                       0.21262
                       0.16330                      -0.96368                       0.21129
                       0.17070                      -0.96268                       0.21003
                       0.17669                      -0.96184                       0.20890
                       0.18532                      -0.96060                       0.20712
                       0.19115                      -0.95974                       0.20584
        </DataArray>
        <DataArray type="Float32" Name="OrientationZ" NumberOfComponents="3" format="ascii">
                      -0.13115                      -0.23356                      -0.96346
                      -0.13084                      -0.23352                      -0.96351
                      -0.12990                      -0.23339                      -0.96367
                      -0.12853                      -0.23318                      -0.96390
                      -0.12633                      -0.23285                      -0.96427
                      -0.12311                      -0.23239                      -0.96480
                      -0.11953                      -0.23189                      -0.96537
                      -0.11592                      -0.23141                      -0.96593
                      -0.11262                      -0.23099                      -0.96642
                      -0.11002                      -0.23067                      -0.96679
                      -0.10849                      -0.23049                      -0.96701
                      -0.10842                      -0.23049                      -0.96702
                      -0.11016                      -0.23071                      -0.96677
                      -0.11404                      -0.23120                      -0.96620
                      -0.12036                      -0.23203                      -0.96523
                      -0.12760                      -0.23296                      -0.96408
                      -0.13484                      -0.23389                      -0.96287
                      -0.14340                      -0.23495                      -0.96137
                      -0.14817                      -0.23552                      -0.96051
        </DataArray>
        <DataArray type="Float32" Name="Force" NumberOfComponents="3" format="ascii">
                       0.46815                     -21.54822                       5.15990
                     152.26510                    -122.71602                       9.07057
                     248.53796                    -365.36134                      55.05675
                     261.53359                    -547.33908                      97.77506
                    1395.33087                     262.33025                    -246.37467
                    1240.26524                     172.55011                    -200.06639
                    1099.95595                      77.79273                    -155.04475
                    1714.20175                     139.72033                    -239.55898
                    2151.92412                     143.52047                    -285.53347
                    2368.60935                     116.05238                    -297.64375
                    3915.66787                     181.08615                    -483.13898
                    4140.11272                     151.01145                    -500.70644
                    3248.49743                      62.74685                    -385.32037
                    1822.11361                     -74.29436                    -197.07607
                     728.15087                    -129.25967                     -59.48785
                     117.97337                    -228.01014                      39.64233
                   -1205.98521                    -295.10927                     240.41013
                   -2398.75424                    -309.47621                     432.77176
                  -17688.47452                      58.86141                    2713.19787
        </DataArray>
        <DataArray type="Float32" Name="Moment" NumberOfComponents="3" format="ascii">
                       0.00000                       0.00000                       0.00000
                       0.00000                       0.00000                       0.00000
                       0.00000                       0.00000                       0.00000
                       0.00000                       0.00000                       0.00000
                     154.81696                     286.32293                    1181.66385
                     278.67765                     528.99210                    2183.83431
                     366.96049                     717.58998                    2963.42619
                     596.43425                    1202.94268                    4969.48267
                     859.84035                    1785.29791                    7377.55180
                     953.83429                    2027.64117                    8381.07103
                    1056.56807                    2277.90916                    9416.89165
                    1121.89109                    2420.49551                   10006.41837
                     860.58944                    1827.29883                    7552.88346
                     874.53816                    1793.31547                    7409.70033
                     878.09767                    1705.45489                    7042.46370
                     890.03533                    1629.82539                    6725.54502
                     829.63720                    1436.98220                    5925.69443
                     440.11279                     716.37796                    2951.72764
                     410.04509                     645.68799                    2659.24797
        </DataArray>
      </PointData>
      <Lines>
        <DataArray type="Int32" Name="connectivity" format="ascii">
      0      1
      1      2
      2      3
      3      4
      4      5
      5      6
      6      7
      7      8
      8      9
      9     10
     10     11
     11     12
     12     13
     13     14
     14     15
     15     16
     16     17
     17     18
        </DataArray>
        <DataArray type="Int32" Name="offsets" format="ascii">
      2
      4
      6
      8
     10
     12
     14
     16
     18
     20
     22
     24
     26
     28
     30
     32
     34
     36
        </DataArray>
      </Lines>
    </Piece>
  </PolyData>
</VTKFile>
