<?xml version="1.0"?>
<VTKFile type="PolyData" version="0.1" byte_order="LittleEndian">
  <PolyData>
    <Piece NumberOfPoints="     22" NumberOfVerts="  0" NumberOfLines="     21"
           NumberOfStrips="  0" NumberOfPolys="      0">
      <Points>
        <DataArray type="Float32" NumberOfComponents="3" format="ascii">
                       0.00020                      -0.00001                       2.19000
                       0.00198                      -0.00006                       6.57000
                       0.00592                      -0.00017                      10.95000
                       0.01219                      -0.00033                      15.32999
                       0.02084                      -0.00053                      19.70998
                       0.03180                      -0.00078                      24.08997
                       0.04500                      -0.00108                      28.46995
                       0.06035                      -0.00145                      32.84992
                       0.07780                      -0.00187                      37.22989
                       0.09737                      -0.00237                      41.60984
                       0.11910                      -0.00294                      45.98979
                       0.14308                      -0.00359                      50.36972
                       0.16944                      -0.00433                      54.74964
                       0.19827                      -0.00516                      59.12955
                       0.22962                      -0.00609                      63.50944
                       0.26342                      -0.00710                      67.88931
                       0.29941                      -0.00819                      72.26916
                       0.33707                      -0.00936                      76.64900
                       0.37551                      -0.01060                      81.02883
                       0.41338                      -0.01189                      85.40867
                       0.43152                      -0.01255                      87.59859
                       0.00000                       0.00000                       0.00000
        </DataArray>
      </Points>
      <PointData>
        <DataArray type="Float32" Name="TranslationalVelocity" NumberOfComponents="3" format="ascii">
                       0.00005                       0.00002                      -0.00000
                       0.00053                       0.00015                      -0.00000
                       0.00154                       0.00039                      -0.00000
                       0.00311                       0.00072                      -0.00000
                       0.00522                       0.00115                      -0.00001
                       0.00783                       0.00165                      -0.00001
                       0.01087                       0.00224                      -0.00002
                       0.01428                       0.00290                      -0.00004
                       0.01801                       0.00365                      -0.00005
                       0.02200                       0.00447                      -0.00007
                       0.02621                       0.00537                      -0.00009
                       0.03062                       0.00634                      -0.00011
                       0.03519                       0.00738                      -0.00014
                       0.03993                       0.00848                      -0.00017
                       0.04480                       0.00963                      -0.00021
                       0.04979                       0.01083                      -0.00024
                       0.05485                       0.01208                      -0.00029
                       0.05992                       0.01335                      -0.00033
                       0.06487                       0.01464                      -0.00037
                       0.06952                       0.01595                      -0.00041
                       0.07165                       0.01661                      -0.00043
                       0.00000                      -0.00000                       0.00000
        </DataArray>
        <DataArray type="Float32" Name="RotationalVelocity" NumberOfComponents="3" format="ascii">
                      -0.00002                       0.00005                       0.00000
                      -0.00004                       0.00017                       0.00000
                      -0.00007                       0.00030                       0.00000
                      -0.00009                       0.00042                       0.00000
                      -0.00011                       0.00054                       0.00000
                      -0.00012                       0.00065                       0.00000
                      -0.00014                       0.00074                       0.00000
                      -0.00016                       0.00082                       0.00000
                      -0.00018                       0.00088                       0.00000
                      -0.00020                       0.00094                       0.00000
                      -0.00021                       0.00098                       0.00000
                      -0.00023                       0.00103                       0.00000
                      -0.00024                       0.00106                       0.00000
                      -0.00026                       0.00110                       0.00000
                      -0.00027                       0.00113                       0.00000
                      -0.00028                       0.00115                       0.00000
                      -0.00029                       0.00116                       0.00000
                      -0.00029                       0.00115                       0.00000
                      -0.00030                       0.00110                       0.00000
                      -0.00030                       0.00101                       0.00000
                      -0.00030                       0.00094                       0.00000
                       0.00000                      -0.00000                       0.00000
        </DataArray>
        <DataArray type="Float32" Name="TranslationalAcceleration" NumberOfComponents="3" format="ascii">
                       0.00006                      -0.00015                      -0.00000
                       0.00060                      -0.00122                      -0.00000
                       0.00180                      -0.00315                      -0.00000
                       0.00372                      -0.00575                      -0.00001
                       0.00637                      -0.00884                      -0.00001
                       0.00975                      -0.01225                      -0.00002
                       0.01383                      -0.01581                      -0.00004
                       0.01860                      -0.01933                      -0.00006
                       0.02404                      -0.02261                      -0.00008
                       0.03018                      -0.02544                      -0.00011
                       0.03703                      -0.02760                      -0.00015
                       0.04464                      -0.02884                      -0.00020
                       0.05304                      -0.02893                      -0.00025
                       0.06227                      -0.02766                      -0.00032
                       0.07236                      -0.02485                      -0.00040
                       0.08329                      -0.02035                      -0.00049
                       0.09496                      -0.01412                      -0.00059
                       0.10721                      -0.00619                      -0.00070
                       0.11975                       0.00327                      -0.00081
                       0.13215                       0.01394                      -0.00092
                       0.13810                       0.01958                      -0.00097
                       0.00000                      -0.00000                       0.00000
        </DataArray>
        <DataArray type="Float32" Name="RotationalAcceleration" NumberOfComponents="3" format="ascii">
                       0.00013                       0.00006                       0.00000
                       0.00035                       0.00020                       0.00000
                       0.00052                       0.00035                       0.00000
                       0.00066                       0.00052                       0.00000
                       0.00075                       0.00069                       0.00000
                       0.00080                       0.00085                       0.00000
                       0.00082                       0.00101                       0.00000
                       0.00078                       0.00117                       0.00000
                       0.00071                       0.00132                       0.00000
                       0.00058                       0.00148                       0.00000
                       0.00040                       0.00165                       0.00000
                       0.00016                       0.00183                       0.00000
                      -0.00013                       0.00201                       0.00000
                      -0.00046                       0.00221                       0.00000
                      -0.00083                       0.00240                       0.00000
                      -0.00122                       0.00258                       0.00000
                      -0.00162                       0.00274                       0.00000
                      -0.00199                       0.00284                       0.00000
                      -0.00231                       0.00287                       0.00000
                      -0.00254                       0.00277                       0.00000
                      -0.00260                       0.00266                       0.00000
                       0.00000                      -0.00000                       0.00000
        </DataArray>
        <DataArray type="Float32" Name="OrientationX" NumberOfComponents="3" format="ascii">
                       1.00000                       0.00000                      -0.00019
                       1.00000                       0.00000                      -0.00064
                       1.00000                       0.00000                      -0.00116
                       1.00000                       0.00000                      -0.00170
                       1.00000                       0.00000                      -0.00224
                       1.00000                       0.00000                      -0.00276
                       0.99999                       0.00000                      -0.00326
                       0.99999                       0.00000                      -0.00375
                       0.99999                       0.00000                      -0.00423
                       0.99999                       0.00000                      -0.00471
                       0.99999                       0.00000                      -0.00521
                       0.99998                       0.00000                      -0.00574
                       0.99998                       0.00000                      -0.00630
                       0.99998                       0.00000                      -0.00687
                       0.99997                       0.00000                      -0.00744
                       0.99997                       0.00000                      -0.00798
                       0.99996                       0.00000                      -0.00843
                       0.99996                       0.00000                      -0.00873
                       0.99996                       0.00000                      -0.00877
                       0.99996                       0.00000                      -0.00844
                       0.99997                       0.00000                      -0.00810
                       1.00000                      -0.00000                       0.00000
        </DataArray>
        <DataArray type="Float32" Name="OrientationY" NumberOfComponents="3" format="ascii">
                       0.00000                       1.00000                       0.00001
                       0.00000                       1.00000                       0.00002
                       0.00000                       1.00000                       0.00003
                       0.00000                       1.00000                       0.00004
                       0.00000                       1.00000                       0.00005
                       0.00000                       1.00000                       0.00006
                       0.00000                       1.00000                       0.00008
                       0.00000                       1.00000                       0.00009
                       0.00000                       1.00000                       0.00010
                       0.00000                       1.00000                       0.00012
                       0.00000                       1.00000                       0.00014
                       0.00000                       1.00000                       0.00016
                       0.00000                       1.00000                       0.00018
                       0.00000                       1.00000                       0.00020
                       0.00000                       1.00000                       0.00022
                       0.00000                       1.00000                       0.00024
                       0.00000                       1.00000                       0.00026
                       0.00000                       1.00000                       0.00028
                       0.00000                       1.00000                       0.00029
                       0.00000                       1.00000                       0.00030
                       0.00000                       1.00000                       0.00030
                      -0.00000                       1.00000                      -0.00000
        </DataArray>
        <DataArray type="Float32" Name="OrientationZ" NumberOfComponents="3" format="ascii">
                       0.00019                      -0.00001                       1.00000
                       0.00064                      -0.00002                       1.00000
                       0.00116                      -0.00003                       1.00000
                       0.00170                      -0.00004                       1.00000
                       0.00224                      -0.00005                       1.00000
                       0.00276                      -0.00006                       1.00000
                       0.00326                      -0.00008                       0.99999
                       0.00375                      -0.00009                       0.99999
                       0.00423                      -0.00010                       0.99999
                       0.00471                      -0.00012                       0.99999
                       0.00521                      -0.00014                       0.99999
                       0.00574                      -0.00016                       0.99998
                       0.00630                      -0.00018                       0.99998
                       0.00687                      -0.00020                       0.99998
                       0.00744                      -0.00022                       0.99997
                       0.00798                      -0.00024                       0.99997
                       0.00843                      -0.00026                       0.99996
                       0.00873                      -0.00028                       0.99996
                       0.00877                      -0.00029                       0.99996
                       0.00844                      -0.00030                       0.99996
                       0.00810                      -0.00030                       0.99997
                       0.00000                      -0.00000                       1.00000
        </DataArray>
      </PointData>
      <Lines>
        <DataArray type="Int32" Name="connectivity" format="ascii">
      0      1
      1      2
      2      3
      3      4
      4      5
      5      6
      6      7
      7      8
      8      9
      9     10
     10     11
     11     12
     12     13
     13     14
     14     15
     15     16
     16     17
     17     18
     18     19
     19     20
     21      0
        </DataArray>
        <DataArray type="Int32" Name="offsets" format="ascii">
      2
      4
      6
      8
     10
     12
     14
     16
     18
     20
     22
     24
     26
     28
     30
     32
     34
     36
     38
     40
     42
        </DataArray>
      </Lines>
    </Piece>
  </PolyData>
</VTKFile>
