<?xml version="1.0"?>
<VTKFile type="PolyData" version="0.1" byte_order="LittleEndian">
  <PolyData>
    <Piece NumberOfPoints="     19" NumberOfVerts="  0" NumberOfLines="     18"
           NumberOfStrips="  0" NumberOfPolys="      0">
      <Points>
        <DataArray type="Float32" NumberOfComponents="3" format="ascii">
                      -4.59546                      -0.21805                      91.51277
                      -4.52926                      -0.40988                      92.86462
                      -4.41651                      -0.88751                      95.55629
                      -4.30848                      -1.41024                      98.24224
                      -4.16817                      -2.09171                     101.59606
                      -3.92359                      -2.77098                     105.63619
                      -3.62438                      -3.32545                     109.69076
                      -3.29318                      -3.88175                     113.74294
                      -2.92337                      -4.43842                     117.79210
                      -2.51250                      -4.99748                     121.83733
                      -2.05998                      -5.56250                     125.87766
                      -1.56457                      -6.13180                     129.91278
                      -1.02827                      -6.70500                     133.94250
                      -0.45525                      -7.28154                     137.96687
                       0.15030                      -7.86097                     141.98583
                       0.67402                      -8.34554                     145.33120
                       1.10092                      -8.72611                     148.00644
                       1.53664                      -9.05289                     150.68741
                       1.74791                      -9.25722                     152.02209
        </DataArray>
      </Points>
      <PointData>
        <DataArray type="Float32" Name="TranslationalVelocity" NumberOfComponents="3" format="ascii">
                      -0.07555                      -3.83537                      -0.53455
                      -0.12228                      -7.33576                      -1.02895
                      -0.23832                     -14.30392                      -2.26058
                      -0.36509                     -21.26080                      -3.60959
                      -0.53003                     -29.95628                      -5.37022
                      -0.69379                     -40.46087                      -7.12789
                      -0.82597                     -51.02894                      -8.56499
                      -0.95663                     -61.61137                     -10.00855
                      -1.08492                     -72.20713                     -11.45471
                      -1.21086                     -82.81315                     -12.90866
                      -1.33491                     -93.42549                     -14.37959
                      -1.45632                    -104.04199                     -15.86307
                      -1.57476                    -114.66013                     -17.35802
                      -1.68994                    -125.27773                     -18.86296
                      -1.80175                    -135.89277                     -20.37668
                      -1.89224                    -144.73600                     -21.64353
                      -1.96098                    -151.81147                     -22.63917
                      -2.01432                    -158.90590                     -23.49539
                      -2.05099                    -162.43718                     -24.03025
        </DataArray>
        <DataArray type="Float32" Name="RotationalVelocity" NumberOfComponents="3" format="ascii">
                       2.57698                      -0.00036                      -0.24089
                       2.57751                      -0.00036                      -0.24094
                       2.57891                      -0.00031                      -0.24108
                       2.58067                      -0.00018                      -0.24131
                       2.58316                       0.00009                      -0.24177
                       2.58631                       0.00056                      -0.24259
                       2.58939                       0.00117                      -0.24368
                       2.59221                       0.00192                      -0.24502
                       2.59469                       0.00280                      -0.24652
                       2.59679                       0.00379                      -0.24810
                       2.59851                       0.00486                      -0.24968
                       2.59990                       0.00600                      -0.25118
                       2.60102                       0.00717                      -0.25251
                       2.60191                       0.00835                      -0.25365
                       2.60264                       0.00947                      -0.25460
                       2.60314                       0.01034                      -0.25527
                       2.60345                       0.01096                      -0.25577
                       2.60366                       0.01149                      -0.25628
                       2.60373                       0.01172                      -0.25656
        </DataArray>
        <DataArray type="Float32" Name="TranslationalAcceleration" NumberOfComponents="3" format="ascii">
                      -0.89800                       1.37804                      -9.88330
                      -1.10484                       1.65903                     -11.97397
                      -3.15935                       5.37887                     -34.19270
                      -5.05274                       9.15886                     -54.60176
                      -7.27315                      13.84766                     -78.43812
                      -9.83105                      18.34563                    -105.72324
                     -12.36266                      21.91559                    -132.48448
                     -14.92370                      25.49999                    -159.22904
                     -17.55465                      29.13645                    -186.28111
                     -20.27552                      32.85515                    -213.73263
                     -23.09099                      36.67428                    -241.50962
                     -25.99620                      40.56282                    -269.44498
                     -28.98146                      44.49393                    -297.33891
                     -32.03755                      48.44416                    -325.02680
                     -35.16080                      52.40423                    -352.44408
                     -37.82103                      55.71936                    -375.15188
                     -39.99278                      58.34058                    -393.34849
                     -42.22021                      60.63309                    -411.78743
                     -43.35375                      62.08303                    -421.10358
        </DataArray>
        <DataArray type="Float32" Name="OrientationX" NumberOfComponents="3" format="ascii">
                       0.96896                      -0.23382                      -0.08023
                       0.96893                      -0.23376                      -0.08079
                       0.96881                      -0.23366                      -0.08259
                       0.96859                      -0.23359                      -0.08524
                       0.96819                      -0.23361                      -0.08959
                       0.97478                      -0.20316                      -0.09233
                       0.97848                      -0.18187                      -0.09749
                       0.98087                      -0.16440                      -0.10421
                       0.98276                      -0.14724                      -0.11186
                       0.98402                      -0.13127                      -0.12030
                       0.98446                      -0.11854                      -0.12955
                       0.98435                      -0.10823                      -0.13911
                       0.98360                      -0.10203                      -0.14874
                       0.98212                      -0.10221                      -0.15812
                       0.98065                      -0.10405                      -0.16583
                       0.97968                      -0.10604                      -0.17027
                       0.97915                      -0.10814                      -0.17197
                       0.97853                      -0.11356                      -0.17197
                       0.97811                      -0.11813                      -0.17129
        </DataArray>
        <DataArray type="Float32" Name="OrientationY" NumberOfComponents="3" format="ascii">
                       0.24236                       0.96247                       0.12213
                       0.24238                       0.96248                       0.12204
                       0.24251                       0.96247                       0.12179
                       0.24280                       0.96244                       0.12146
                       0.24340                       0.96236                       0.12094
                       0.21364                       0.96912                       0.12314
                       0.19330                       0.97319                       0.12462
                       0.17698                       0.97613                       0.12586
                       0.16111                       0.97870                       0.12723
                       0.14656                       0.98080                       0.12864
                       0.13536                       0.98226                       0.12981
                       0.12660                       0.98329                       0.13082
                       0.12191                       0.98381                       0.13137
                       0.12346                       0.98366                       0.13102
                       0.12639                       0.98337                       0.13045
                       0.12900                       0.98309                       0.12995
                       0.13130                       0.98284                       0.12953
                       0.13659                       0.98224                       0.12860
                       0.14096                       0.98172                       0.12786
        </DataArray>
        <DataArray type="Float32" Name="OrientationZ" NumberOfComponents="3" format="ascii">
                       0.04866                      -0.13779                       0.98927
                       0.04923                      -0.13783                       0.98923
                       0.05103                      -0.13802                       0.98911
                       0.05366                      -0.13834                       0.98893
                       0.05796                      -0.13890                       0.98861
                       0.06446                      -0.13976                       0.98809
                       0.07221                      -0.14078                       0.98740
                       0.08103                      -0.14190                       0.98656
                       0.09074                      -0.14306                       0.98555
                       0.10111                      -0.14421                       0.98437
                       0.11186                      -0.14533                       0.98304
                       0.12263                      -0.14638                       0.98160
                       0.13293                      -0.14735                       0.98011
                       0.14214                      -0.14820                       0.97869
                       0.14950                      -0.14888                       0.97749
                       0.15361                      -0.14927                       0.97679
                       0.15501                      -0.14940                       0.97655
                       0.15432                      -0.14933                       0.97667
                       0.15306                      -0.14920                       0.97689
        </DataArray>
        <DataArray type="Float32" Name="Force" NumberOfComponents="3" format="ascii">
                       0.22546                      17.42601                       2.41606
                     188.17762                     114.74725                       6.61813
                     277.12428                     324.10369                      30.85436
                     278.50393                     477.53402                      51.43009
                    1733.74926                    -462.79111                    -166.17565
                    1788.03501                    -357.36297                    -166.50454
                    1882.92254                    -279.86613                    -176.78760
                    2775.67929                    -371.35532                    -279.88544
                    3224.91194                    -337.90285                    -344.16890
                    3756.11563                    -321.15905                    -430.72270
                    5429.01147                    -374.88109                    -670.16207
                    6151.11386                    -354.20617                    -817.84488
                    6456.37991                    -361.31975                    -925.95427
                    6237.19300                    -305.10573                    -948.22940
                    5615.72733                    -226.61376                    -890.18361
                    4846.42783                    -146.85972                    -782.22542
                    3946.63339                     -74.12832                    -636.40766
                    2029.36673                      11.79646                    -318.74690
                   -8370.85488                      88.18710                    1322.96680
        </DataArray>
        <DataArray type="Float32" Name="Moment" NumberOfComponents="3" format="ascii">
                       0.00000                       0.00000                       0.00000
                       0.00000                       0.00000                       0.00000
                       0.00000                       0.00000                       0.00000
                       0.00000                       0.00000                       0.00000
                     -69.15772                     164.42027                   -1179.44106
                    -139.50417                     298.26510                   -2138.24335
                    -210.85272                     402.41779                   -2882.79519
                    -383.94020                     653.00527                   -4674.02599
                    -625.70630                     950.33668                   -6795.99235
                    -794.26311                    1082.50141                   -7733.51211
                    -983.41884                    1211.22098                   -8644.26122
                   -1151.00097                    1292.75752                   -9216.71204
                    -962.78703                     997.16789                   -7102.31109
                   -1027.30838                     994.54338                   -7077.36070
                   -1043.52409                     960.10962                   -6827.49122
                   -1015.38725                     909.02895                   -6461.69333
                    -908.48143                     805.88666                   -5727.74719
                    -452.58175                     403.28991                   -2866.52811
                    -421.13400                     378.39126                   -2689.87918
        </DataArray>
      </PointData>
      <Lines>
        <DataArray type="Int32" Name="connectivity" format="ascii">
      0      1
      1      2
      2      3
      3      4
      4      5
      5      6
      6      7
      7      8
      8      9
      9     10
     10     11
     11     12
     12     13
     13     14
     14     15
     15     16
     16     17
     17     18
        </DataArray>
        <DataArray type="Int32" Name="offsets" format="ascii">
      2
      4
      6
      8
     10
     12
     14
     16
     18
     20
     22
     24
     26
     28
     30
     32
     34
     36
        </DataArray>
      </Lines>
    </Piece>
  </PolyData>
</VTKFile>
