<?xml version="1.0"?>
<VTKFile type="PolyData" version="0.1" byte_order="LittleEndian">
  <PolyData>
    <Piece NumberOfPoints="     19" NumberOfVerts="  0" NumberOfLines="     18"
           NumberOfStrips="  0" NumberOfPolys="      0">
      <Points>
        <DataArray type="Float32" NumberOfComponents="3" format="ascii">
                      -4.59173                       1.48147                      89.96675
                      -4.65833                       2.84523                      89.90194
                      -4.79968                       5.57712                      89.86696
                      -4.93953                       8.31168                      89.87534
                      -5.10407                      11.73251                      89.90972
                      -5.23701                      15.83292                      89.79883
                      -5.32281                      19.92773                      89.55124
                      -5.36594                      24.02287                      89.29627
                      -5.35483                      28.11766                      89.03213
                      -5.28067                      32.21126                      88.76104
                      -5.13539                      36.30271                      88.48697
                      -4.91023                      40.39035                      88.20849
                      -4.59898                      44.47232                      87.92568
                      -4.19724                      48.54643                      87.63847
                      -3.70037                      52.60980                      87.34654
                      -3.21162                      55.98523                      87.09915
                      -2.77597                      58.67696                      86.89054
                      -2.30520                      61.35712                      86.62426
                      -2.05356                      62.69598                      86.53147
        </DataArray>
      </Points>
      <PointData>
        <DataArray type="Float32" Name="TranslationalVelocity" NumberOfComponents="3" format="ascii">
                       0.31833                       0.17285                       3.00197
                       0.58154                       0.31569                       5.73748
                       1.10989                       0.41312                      11.21715
                       1.64062                       0.42337                      16.70211
                       2.30811                       0.38645                      23.56355
                       3.11464                       0.63499                      31.78810
                       3.92864                       1.14869                      40.00143
                       4.75308                       1.66881                      48.21543
                       5.58931                       2.19631                      56.42861
                       6.43864                       2.72456                      64.63918
                       7.30221                       3.24345                      72.84500
                       8.18094                       3.75341                      81.04254
                       9.07558                       4.25225                      89.22784
                       9.98668                       4.73830                      97.39623
                      10.91454                       5.21021                     105.54169
                      11.70096                       5.59226                     112.30685
                      12.33807                       5.90712                     117.70078
                      12.98135                       6.32733                     123.07069
                      13.30655                       6.45176                     125.75282
        </DataArray>
        <DataArray type="Float32" Name="RotationalVelocity" NumberOfComponents="3" format="ascii">
                       2.00585                       0.00019                      -0.19293
                       2.00583                       0.00018                      -0.19307
                       2.00581                       0.00019                      -0.19358
                       2.00579                       0.00021                      -0.19433
                       2.00578                       0.00028                      -0.19558
                       2.00579                       0.00042                      -0.19748
                       2.00579                       0.00066                      -0.19977
                       2.00579                       0.00099                      -0.20243
                       2.00577                       0.00143                      -0.20545
                       2.00574                       0.00197                      -0.20885
                       2.00568                       0.00261                      -0.21263
                       2.00561                       0.00332                      -0.21677
                       2.00551                       0.00408                      -0.22123
                       2.00538                       0.00484                      -0.22595
                       2.00523                       0.00556                      -0.23082
                       2.00508                       0.00607                      -0.23486
                       2.00494                       0.00638                      -0.23800
                       2.00480                       0.00659                      -0.24095
                       2.00472                       0.00664                      -0.24233
        </DataArray>
        <DataArray type="Float32" Name="TranslationalAcceleration" NumberOfComponents="3" format="ascii">
                       0.09827                      -6.02856                       0.43568
                       0.06590                      -7.33063                       0.49042
                       0.14457                     -21.00460                       1.02766
                       0.19183                     -33.60076                       1.31481
                       0.23621                     -48.32764                       1.50846
                       0.35501                     -65.04282                       2.27248
                       0.55162                     -81.29032                       3.55318
                       0.78594                     -97.49181                       4.86258
                       1.05791                    -113.84883                       6.21970
                       1.35771                    -130.42368                       7.61779
                       1.66667                    -147.17745                       9.03509
                       1.96036                    -164.00706                      10.46536
                       2.20640                    -180.78702                      11.89419
                       2.36539                    -197.40851                      13.30781
                       2.39121                    -213.81719                      14.69518
                       2.26954                    -227.35167                      15.82751
                       2.06215                    -238.14474                      16.75211
                       1.75459                    -248.98177                      17.89169
                       1.53337                    -254.47459                      18.29274
        </DataArray>
        <DataArray type="Float32" Name="OrientationX" NumberOfComponents="3" format="ascii">
                       0.98954                       0.05490                       0.13343
                       0.98957                       0.05428                       0.13345
                       0.98966                       0.05229                       0.13354
                       0.98980                       0.04935                       0.13367
                       0.99000                       0.04446                       0.13389
                       0.99409                       0.03527                       0.10266
                       0.99646                       0.02446                       0.08045
                       0.99804                       0.01169                       0.06154
                       0.99911                      -0.00340                       0.04208
                       0.99952                      -0.02085                       0.02277
                       0.99916                      -0.04054                       0.00556
                       0.99800                      -0.06233                      -0.01046
                       0.99604                      -0.08569                      -0.02355
                       0.99347                      -0.10974                      -0.03126
                       0.99030                      -0.13366                      -0.03808
                       0.98734                      -0.15250                      -0.04358
                       0.98498                      -0.16600                      -0.04742
                       0.98303                      -0.17717                      -0.04761
                       0.98232                      -0.18159                      -0.04561
        </DataArray>
        <DataArray type="Float32" Name="OrientationY" NumberOfComponents="3" format="ascii">
                       0.13583                      -0.04274                      -0.98981
                       0.13585                      -0.04309                      -0.98979
                       0.13588                      -0.04404                      -0.98975
                       0.13591                      -0.04523                      -0.98969
                       0.13595                      -0.04696                      -0.98960
                       0.10436                      -0.05043                      -0.99326
                       0.08166                      -0.05321                      -0.99524
                       0.06210                      -0.05552                      -0.99652
                       0.04181                      -0.05737                      -0.99748
                       0.02151                      -0.05866                      -0.99805
                       0.00315                      -0.05938                      -0.99823
                      -0.01418                      -0.05950                      -0.99813
                      -0.02869                      -0.05917                      -0.99784
                      -0.03789                      -0.05882                      -0.99755
                      -0.04620                      -0.05823                      -0.99723
                      -0.05289                      -0.05755                      -0.99694
                      -0.05760                      -0.05703                      -0.99671
                      -0.05857                      -0.05715                      -0.99665
                      -0.05694                      -0.05764                      -0.99671
        </DataArray>
        <DataArray type="Float32" Name="OrientationZ" NumberOfComponents="3" format="ascii">
                      -0.04864                       0.99758                      -0.04975
                      -0.04798                       0.99760                      -0.05002
                      -0.04588                       0.99766                      -0.05069
                      -0.04279                       0.99776                      -0.05148
                      -0.03771                       0.99791                      -0.05254
                      -0.02986                       0.99810                      -0.05382
                      -0.02006                       0.99828                      -0.05502
                      -0.00823                       0.99839                      -0.05614
                       0.00580                       0.99835                      -0.05718
                       0.02214                       0.99806                      -0.05819
                       0.04080                       0.99741                      -0.05920
                       0.06159                       0.99628                      -0.06027
                       0.08411                       0.99456                      -0.06140
                       0.10764                       0.99222                      -0.06259
                       0.13107                       0.98931                      -0.06384
                       0.14953                       0.98663                      -0.06489
                       0.16275                       0.98448                      -0.06573
                       0.17385                       0.98252                      -0.06656
                       0.17837                       0.98168                      -0.06696
        </DataArray>
        <DataArray type="Float32" Name="Force" NumberOfComponents="3" format="ascii">
                      -0.36513                      -0.20715                      -3.79661
                     157.71092                       3.59415                     -79.85456
                     200.56068                      -1.18451                    -207.28944
                     181.81045                      -7.01890                    -293.29835
                    1787.25021                      89.09205                     428.88596
                    2024.88622                      76.45406                     315.56064
                    2273.31581                      57.75338                     239.38385
                    3077.26103                      36.75717                     224.98148
                    3438.65404                     -13.22919                     134.82559
                    4037.10745                     -86.38012                      66.27470
                    5297.46637                    -219.31093                     -38.74230
                    6058.94942                    -383.19624                    -143.97733
                    7105.66378                    -613.14953                    -206.33034
                    7660.85294                    -848.39616                    -288.96430
                    8143.77049                   -1101.32261                    -364.14931
                    8458.71415                   -1308.54433                    -423.13897
                    8379.25425                   -1414.05315                    -449.80886
                    6234.88481                   -1125.03556                    -335.69140
                    2370.54544                    -450.15028                    -281.57272
        </DataArray>
        <DataArray type="Float32" Name="Moment" NumberOfComponents="3" format="ascii">
                       0.00000                       0.00000                       0.00000
                       0.00000                       0.00000                       0.00000
                       0.00000                       0.00000                       0.00000
                       0.00000                       0.00000                       0.00000
                      31.22993                    -830.05153                      42.28466
                      43.11654                   -1451.75728                      75.06216
                      38.37889                   -1932.40205                     101.74210
                      23.90153                   -2983.17037                     160.46505
                     -25.25522                   -4202.81447                     231.73722
                    -106.77524                   -4782.23523                     271.19087
                    -216.53851                   -5285.11719                     309.18477
                    -348.28942                   -5635.12141                     340.95219
                    -385.74623                   -4566.66234                     286.25871
                    -494.11957                   -4562.78178                     296.46964
                    -585.89367                   -4430.97971                     298.10468
                    -638.94310                   -4224.67361                     291.95043
                    -621.73272                   -3768.62899                     265.41315
                    -336.20469                   -1903.87065                     136.21045
                    -323.92190                   -1786.25964                     128.61224
        </DataArray>
      </PointData>
      <Lines>
        <DataArray type="Int32" Name="connectivity" format="ascii">
      0      1
      1      2
      2      3
      3      4
      4      5
      5      6
      6      7
      7      8
      8      9
      9     10
     10     11
     11     12
     12     13
     13     14
     14     15
     15     16
     16     17
     17     18
        </DataArray>
        <DataArray type="Int32" Name="offsets" format="ascii">
      2
      4
      6
      8
     10
     12
     14
     16
     18
     20
     22
     24
     26
     28
     30
     32
     34
     36
        </DataArray>
      </Lines>
    </Piece>
  </PolyData>
</VTKFile>
