<?xml version="1.0"?>
<VTKFile type="PolyData" version="0.1" byte_order="LittleEndian">
  <PolyData>
    <Piece NumberOfPoints="     19" NumberOfVerts="  0" NumberOfLines="     18"
           NumberOfStrips="  0" NumberOfPolys="      0">
      <Points>
        <DataArray type="Float32" NumberOfComponents="3" format="ascii">
                      -4.62506                       0.86859                      91.23926
                      -4.58244                       1.67133                      92.34462
                      -4.51082                       3.20030                      94.61160
                      -4.44209                       4.69358                      96.90494
                      -4.35170                       6.53955                      99.78713
                      -4.18112                       8.87244                     103.15718
                      -3.96903                      11.31117                     106.44756
                      -3.72695                      13.75157                     109.73459
                      -3.44463                      16.19427                     113.01656
                      -3.11461                      18.63682                     116.29395
                      -2.73004                      21.07539                     119.56814
                      -2.28305                      23.51036                     122.83699
                      -1.76823                      25.94106                     126.09918
                      -1.18182                      28.36700                     129.35316
                      -0.51972                      30.78773                     132.59673
                       0.09127                      32.80095                     135.28986
                       0.61498                      34.41547                     137.43257
                       1.16452                      36.07265                     139.53609
                       1.45248                      36.86675                     140.60906
        </DataArray>
      </Points>
      <PointData>
        <DataArray type="Float32" Name="TranslationalVelocity" NumberOfComponents="3" format="ascii">
                      -0.11092                      -1.07450                       0.75638
                      -0.04927                      -2.04485                       1.45872
                       0.06818                      -4.03423                       2.79673
                       0.18363                      -6.04733                       4.10398
                       0.32819                      -8.57912                       5.72081
                       0.51543                     -11.54709                       7.76558
                       0.71729                     -14.45125                       9.90475
                       0.92676                     -17.35763                      12.04687
                       1.14560                     -20.26564                      14.19215
                       1.37531                     -23.17631                      16.33798
                       1.61707                     -26.09139                      18.48040
                       1.87221                     -29.00965                      20.61909
                       2.14157                     -31.93034                      22.75274
                       2.42559                     -34.85240                      24.88016
                       2.72414                     -37.77432                      27.00018
                       2.98375                     -40.20772                      28.76054
                       3.19814                     -42.14838                      30.17031
                       3.42124                     -44.05797                      31.61576
                       3.53158                     -45.03314                      32.30725
        </DataArray>
        <DataArray type="Float32" Name="RotationalVelocity" NumberOfComponents="3" format="ascii">
                       0.87460                      -0.00352                      -0.08163
                       0.87471                      -0.00347                      -0.08168
                       0.87501                      -0.00326                      -0.08185
                       0.87539                      -0.00292                      -0.08211
                       0.87594                      -0.00235                      -0.08258
                       0.87665                      -0.00141                      -0.08336
                       0.87738                      -0.00020                      -0.08439
                       0.87808                       0.00130                      -0.08566
                       0.87871                       0.00313                      -0.08717
                       0.87926                       0.00529                      -0.08892
                       0.87972                       0.00779                      -0.09087
                       0.88008                       0.01058                      -0.09297
                       0.88035                       0.01360                      -0.09515
                       0.88054                       0.01674                      -0.09733
                       0.88065                       0.01984                      -0.09936
                       0.88068                       0.02222                      -0.10085
                       0.88068                       0.02388                      -0.10182
                       0.88065                       0.02519                      -0.10252
                       0.88063                       0.02569                      -0.10275
        </DataArray>
        <DataArray type="Float32" Name="TranslationalAcceleration" NumberOfComponents="3" format="ascii">
                      -0.26116                      -0.75071                      -0.85341
                      -0.15723                      -0.94851                      -1.02624
                      -0.43350                      -2.67270                      -2.97956
                      -0.66742                      -4.24114                      -4.80589
                      -0.92148                      -6.06921                      -6.95750
                      -1.18745                      -8.23719                      -9.32753
                      -1.43724                     -10.43546                     -11.55887
                      -1.69395                     -12.64173                     -13.77883
                      -1.96564                     -14.88234                     -16.01644
                      -2.25407                     -17.16306                     -18.28215
                      -2.55634                     -19.47536                     -20.57270
                      -2.86639                     -21.80554                     -22.87339
                      -3.17716                     -24.13633                     -25.16767
                      -3.48230                     -26.45283                     -27.44225
                      -3.77799                     -28.74750                     -29.69268
                      -4.01718                     -30.64576                     -31.55644
                      -4.20532                     -32.16813                     -33.04521
                      -4.38970                     -33.73321                     -34.52031
                      -4.48731                     -34.50122                     -35.29284
        </DataArray>
        <DataArray type="Float32" Name="OrientationX" NumberOfComponents="3" format="ascii">
                       0.98382                      -0.16081                       0.07895
                       0.98381                      -0.16105                       0.07861
                       0.98378                      -0.16179                       0.07753
                       0.98372                      -0.16287                       0.07590
                       0.98364                      -0.16465                       0.07314
                       0.98858                      -0.14218                       0.04994
                       0.99137                      -0.12747                       0.03057
                       0.99320                      -0.11588                       0.01140
                       0.99450                      -0.10429                      -0.01014
                       0.99508                      -0.09317                      -0.03381
                       0.99474                      -0.08400                      -0.05856
                       0.99350                      -0.07591                      -0.08484
                       0.99131                      -0.07013                      -0.11127
                       0.98837                      -0.06847                      -0.13577
                       0.98484                      -0.06702                      -0.15999
                       0.98162                      -0.06540                      -0.17931
                       0.97908                      -0.06402                      -0.19315
                       0.97702                      -0.06502                      -0.20300
                       0.97630                      -0.06696                      -0.20579
        </DataArray>
        <DataArray type="Float32" Name="OrientationY" NumberOfComponents="3" format="ascii">
                       0.17635                       0.79175                      -0.58483
                       0.17633                       0.79163                      -0.58500
                       0.17627                       0.79132                      -0.58544
                       0.17616                       0.79093                      -0.58600
                       0.17594                       0.79038                      -0.58680
                       0.14408                       0.79460                      -0.58979
                       0.12073                       0.79708                      -0.59168
                       0.10002                       0.79898                      -0.59298
                       0.07793                       0.80086                      -0.59376
                       0.05498                       0.80266                      -0.59389
                       0.03298                       0.80425                      -0.59337
                       0.01100                       0.80577                      -0.59213
                      -0.00916                       0.80711                      -0.59033
                      -0.02485                       0.80815                      -0.58845
                      -0.04016                       0.80918                      -0.58618
                      -0.05272                       0.81001                      -0.58404
                      -0.06189                       0.81057                      -0.58236
                      -0.06687                       0.81079                      -0.58151
                      -0.06699                       0.81070                      -0.58161
        </DataArray>
        <DataArray type="Float32" Name="OrientationZ" NumberOfComponents="3" format="ascii">
                       0.03154                       0.58929                       0.80730
                       0.03198                       0.58939                       0.80722
                       0.03337                       0.58961                       0.80700
                       0.03541                       0.58983                       0.80675
                       0.03881                       0.59007                       0.80642
                       0.04417                       0.59025                       0.80601
                       0.05105                       0.59026                       0.80560
                       0.05961                       0.59008                       0.80514
                       0.07004                       0.58970                       0.80458
                       0.08247                       0.58911                       0.80383
                       0.09694                       0.58832                       0.80279
                       0.11331                       0.58735                       0.80136
                       0.13121                       0.58622                       0.79946
                       0.15001                       0.58498                       0.79706
                       0.16875                       0.58372                       0.79422
                       0.18344                       0.58276                       0.79167
                       0.19385                       0.58213                       0.78965
                       0.20240                       0.58172                       0.78781
                       0.20578                       0.58161                       0.78701
        </DataArray>
        <DataArray type="Float32" Name="Force" NumberOfComponents="3" format="ascii">
                      -0.02481                       0.36525                      -0.26565
                     162.22163                      24.14071                     -24.04979
                     184.69845                      57.18624                     -49.39172
                     150.02460                      70.78353                     -58.28020
                    1320.76444                    -326.86113                     175.20118
                    1392.50929                    -301.15302                     143.80508
                    1741.85648                    -394.81953                     178.44578
                    1992.12970                    -489.11770                     210.70251
                    2236.80124                    -546.24857                     205.81505
                    2611.55486                    -596.76123                     170.23126
                    2980.34944                    -692.44955                     149.31302
                    3375.02394                    -750.37285                      75.46786
                    4273.55914                    -885.31731                     -48.30876
                    4597.66020                    -943.90452                    -167.91752
                    4846.06985                    -988.43921                    -298.24524
                    4981.14953                   -1008.23277                    -407.15654
                    4867.46266                    -977.65514                    -469.77389
                    3534.36734                    -712.56706                    -378.99933
                    1334.64796                     -93.06858                    -280.23504
        </DataArray>
        <DataArray type="Float32" Name="Moment" NumberOfComponents="3" format="ascii">
                       0.00000                       0.00000                       0.00000
                       0.00000                       0.00000                       0.00000
                       0.00000                       0.00000                       0.00000
                       0.00000                       0.00000                       0.00000
                     -23.37359                    -354.64767                    -485.43927
                     -32.26416                    -430.19891                    -588.48798
                     -38.55507                    -445.01714                    -608.27474
                     -51.52375                    -509.63709                    -695.91263
                     -53.80769                    -453.24479                    -618.16281
                     -65.26573                    -467.07040                    -636.10219
                     -69.50964                    -423.26373                    -575.47391
                     -86.74892                    -451.84725                    -613.16470
                    -136.39342                    -613.08879                    -830.22693
                    -156.64075                    -615.12452                    -831.13495
                    -169.25843                    -589.87939                    -795.24576
                    -174.15594                    -557.45559                    -750.20730
                    -164.08696                    -496.36690                    -667.15390
                     -86.32551                    -249.79233                    -335.38915
                     -80.61040                    -229.30916                    -307.75962
        </DataArray>
      </PointData>
      <Lines>
        <DataArray type="Int32" Name="connectivity" format="ascii">
      0      1
      1      2
      2      3
      3      4
      4      5
      5      6
      6      7
      7      8
      8      9
      9     10
     10     11
     11     12
     12     13
     13     14
     14     15
     15     16
     16     17
     17     18
        </DataArray>
        <DataArray type="Int32" Name="offsets" format="ascii">
      2
      4
      6
      8
     10
     12
     14
     16
     18
     20
     22
     24
     26
     28
     30
     32
     34
     36
        </DataArray>
      </Lines>
    </Piece>
  </PolyData>
</VTKFile>
