<?xml version="1.0"?>
<VTKFile type="PolyData" version="0.1" byte_order="LittleEndian">
  <PolyData>
    <Piece NumberOfPoints="     19" NumberOfVerts="  0" NumberOfLines="     18"
           NumberOfStrips="  0" NumberOfPolys="      0">
      <Points>
        <DataArray type="Float32" NumberOfComponents="3" format="ascii">
                      -4.90036                      -0.67345                      88.69761
                      -5.07307                      -1.28336                      87.48672
                      -5.44173                      -2.41759                      85.02503
                      -5.81851                      -3.51066                      82.54363
                      -6.28926                      -4.85128                      79.42873
                      -6.78177                      -6.58583                      75.74456
                      -7.22501                      -8.43317                      72.11075
                      -7.64427                     -10.27832                      68.47293
                      -8.03091                     -12.12260                      64.83104
                      -8.37952                     -13.96403                      61.18390
                      -8.68547                     -15.79922                      57.52984
                      -8.94252                     -17.62955                      53.86955
                      -9.14679                     -19.45520                      50.20345
                      -9.29577                     -21.27645                      46.53228
                      -9.38614                     -23.09360                      42.85703
                      -9.41579                     -24.60513                      39.79224
                      -9.41208                     -25.81997                      37.34344
                      -9.38417                     -27.08327                      34.91891
                      -9.36392                     -27.67709                      33.68893
        </DataArray>
      </Points>
      <PointData>
        <DataArray type="Float32" Name="TranslationalVelocity" NumberOfComponents="3" format="ascii">
                       0.20964                       1.03864                      -0.50262
                       0.16033                       1.99437                      -0.97699
                       0.06777                       3.93813                      -1.85877
                      -0.02193                       5.89711                      -2.70818
                      -0.13245                       8.35494                      -3.74949
                      -0.27438                      11.25564                      -5.09654
                      -0.42494                      14.11186                      -6.53058
                      -0.57622                      16.96776                      -7.96207
                      -0.72836                      19.82293                      -9.39213
                      -0.88114                      22.67805                     -10.81939
                      -1.03411                      25.53430                     -12.24140
                      -1.18700                      28.39091                     -13.65939
                      -1.33928                      31.24748                     -15.07368
                      -1.49024                      34.10341                     -16.48458
                      -1.63897                      36.95782                     -17.89241
                      -1.76036                      39.33450                     -19.06352
                      -1.85583                      41.23130                     -20.00478
                      -1.95248                      43.10733                     -20.98353
                      -1.99705                      44.05851                     -21.44355
        </DataArray>
        <DataArray type="Float32" Name="RotationalVelocity" NumberOfComponents="3" format="ascii">
                       0.77910                       0.00438                      -0.07214
                       0.77901                       0.00438                      -0.07213
                       0.77878                       0.00439                      -0.07212
                       0.77850                       0.00442                      -0.07213
                       0.77810                       0.00449                      -0.07217
                       0.77760                       0.00459                      -0.07227
                       0.77709                       0.00472                      -0.07245
                       0.77663                       0.00485                      -0.07268
                       0.77621                       0.00495                      -0.07296
                       0.77585                       0.00501                      -0.07325
                       0.77556                       0.00499                      -0.07353
                       0.77533                       0.00487                      -0.07376
                       0.77515                       0.00462                      -0.07391
                       0.77501                       0.00421                      -0.07393
                       0.77491                       0.00364                      -0.07379
                       0.77486                       0.00304                      -0.07352
                       0.77483                       0.00246                      -0.07320
                       0.77481                       0.00179                      -0.07276
                       0.77481                       0.00143                      -0.07250
        </DataArray>
        <DataArray type="Float32" Name="TranslationalAcceleration" NumberOfComponents="3" format="ascii">
                      -0.19087                       0.50659                       0.71748
                       0.01377                       0.62065                       0.90922
                       0.07694                       1.73059                       2.63553
                       0.17636                       2.72293                       4.25105
                       0.33262                       3.86007                       6.15884
                       0.53842                       5.20920                       8.28933
                       0.74599                       6.57790                      10.32326
                       0.94842                       7.93503                      12.35302
                       1.13973                       9.30093                      14.40259
                       1.31893                      10.68235                      16.47937
                       1.48885                      12.07668                      18.57869
                       1.65470                      13.47879                      20.68683
                       1.82314                      14.88073                      22.78834
                       2.00097                      16.27571                      24.87065
                       2.19392                      17.66119                      26.92897
                       2.36912                      18.81137                      28.63111
                       2.51855                      19.73858                      29.98992
                       2.67430                      20.70449                      31.34265
                       2.75514                      21.17314                      32.04236
        </DataArray>
        <DataArray type="Float32" Name="OrientationX" NumberOfComponents="3" format="ascii">
                       0.95505                       0.18662                      -0.23035
                       0.95509                       0.18679                      -0.23002
                       0.95524                       0.18732                      -0.22896
                       0.95547                       0.18809                      -0.22738
                       0.95583                       0.18938                      -0.22477
                       0.96446                       0.16340                      -0.20766
                       0.97034                       0.14564                      -0.19295
                       0.97525                       0.13091                      -0.17817
                       0.98007                       0.11566                      -0.16151
                       0.98461                       0.10036                      -0.14310
                       0.98854                       0.08660                      -0.12369
                       0.99197                       0.07341                      -0.10295
                       0.99469                       0.06224                      -0.08192
                       0.99654                       0.05521                      -0.06218
                       0.99793                       0.04825                      -0.04262
                       0.99875                       0.04206                      -0.02704
                       0.99918                       0.03727                      -0.01589
                       0.99934                       0.03553                      -0.00792
                       0.99932                       0.03646                      -0.00563
        </DataArray>
        <DataArray type="Float32" Name="OrientationY" NumberOfComponents="3" format="ascii">
                       0.26846                      -0.87403                       0.40496
                       0.26846                      -0.87404                       0.40495
                       0.26845                      -0.87406                       0.40492
                       0.26842                      -0.87408                       0.40489
                       0.26839                      -0.87411                       0.40485
                       0.23770                      -0.87978                       0.41169
                       0.21535                      -0.88340                       0.41620
                       0.19566                      -0.88626                       0.41982
                       0.17468                      -0.88897                       0.42335
                       0.15287                      -0.89143                       0.42660
                       0.13198                      -0.89348                       0.42928
                       0.11103                      -0.89525                       0.43150
                       0.09177                      -0.89668                       0.43307
                       0.07681                      -0.89767                       0.43392
                       0.06200                      -0.89854                       0.43448
                       0.04964                      -0.89917                       0.43477
                       0.04048                      -0.89956                       0.43493
                       0.03543                      -0.89971                       0.43504
                       0.03528                      -0.89968                       0.43513
        </DataArray>
        <DataArray type="Float32" Name="OrientationZ" NumberOfComponents="3" format="ascii">
                      -0.12576                      -0.44859                      -0.88484
                      -0.12541                      -0.44851                      -0.88493
                      -0.12427                      -0.44826                      -0.88522
                      -0.12259                      -0.44789                      -0.88564
                      -0.11980                      -0.44730                      -0.88633
                      -0.11542                      -0.44642                      -0.88735
                      -0.10983                      -0.44541                      -0.88857
                      -0.10294                      -0.44430                      -0.88995
                      -0.09461                      -0.44312                      -0.89146
                      -0.08475                      -0.44191                      -0.89305
                      -0.07334                      -0.44068                      -0.89466
                      -0.06049                      -0.43947                      -0.89622
                      -0.04650                      -0.43829                      -0.89763
                      -0.03186                      -0.43719                      -0.89880
                      -0.01734                      -0.43622                      -0.89967
                      -0.00602                      -0.43557                      -0.90013
                       0.00192                      -0.43521                      -0.90033
                       0.00833                      -0.43504                      -0.90037
                       0.01080                      -0.43503                      -0.90035
        </DataArray>
        <DataArray type="Float32" Name="Force" NumberOfComponents="3" format="ascii">
                       0.14011                      -3.02269                       1.51252
                     121.48513                     -36.31537                       1.19410
                     155.60661                     -73.56928                      15.44589
                     135.20039                     -84.53164                      24.12371
                    1087.70645                     310.92051                    -304.58895
                    1144.47653                     293.13572                    -297.36768
                    1417.70585                     373.86827                    -364.54394
                    1569.62290                     426.77800                    -397.49761
                    1767.10579                     474.14837                    -427.21138
                    2047.04293                     507.02344                    -450.20885
                    2349.49897                     577.63542                    -483.70545
                    2673.33915                     613.93747                    -489.21572
                    3355.62486                     702.03120                    -526.01674
                    3611.37804                     729.92237                    -493.18154
                    3798.64124                     741.48435                    -443.06661
                    3889.52028                     735.19375                    -391.90155
                    3777.22046                     671.80377                    -325.65301
                    2718.69038                     450.90170                    -198.42344
                    1000.13517                      29.98839                      -2.30341
        </DataArray>
        <DataArray type="Float32" Name="Moment" NumberOfComponents="3" format="ascii">
                       0.00000                       0.00000                       0.00000
                       0.00000                       0.00000                       0.00000
                       0.00000                       0.00000                       0.00000
                       0.00000                       0.00000                       0.00000
                      57.12047                     214.05358                     422.48399
                      67.68194                     263.41619                     520.15431
                      66.69381                     272.95419                     539.30705
                      71.40753                     312.05648                     617.01435
                      59.85235                     284.85414                     563.72223
                      54.76337                     291.28592                     577.04722
                      44.32849                     272.82535                     541.12132
                      39.98648                     298.86989                     593.57222
                      38.87520                     379.00903                     753.82913
                      26.06442                     372.81277                     742.63291
                      13.48136                     359.56888                     717.33127
                       4.17887                     341.77026                     682.62333
                      -1.68080                     304.69549                     609.07410
                      -3.07048                     154.59370                     309.23205
                      -3.52776                     139.01796                     278.14708
        </DataArray>
      </PointData>
      <Lines>
        <DataArray type="Int32" Name="connectivity" format="ascii">
      0      1
      1      2
      2      3
      3      4
      4      5
      5      6
      6      7
      7      8
      8      9
      9     10
     10     11
     11     12
     12     13
     13     14
     14     15
     15     16
     16     17
     17     18
        </DataArray>
        <DataArray type="Int32" Name="offsets" format="ascii">
      2
      4
      6
      8
     10
     12
     14
     16
     18
     20
     22
     24
     26
     28
     30
     32
     34
     36
        </DataArray>
      </Lines>
    </Piece>
  </PolyData>
</VTKFile>
