<?xml version="1.0"?>
<VTKFile type="PolyData" version="0.1" byte_order="LittleEndian">
  <PolyData>
    <Piece NumberOfPoints="     19" NumberOfVerts="  0" NumberOfLines="     18"
           NumberOfStrips="  0" NumberOfPolys="      0">
      <Points>
        <DataArray type="Float32" NumberOfComponents="3" format="ascii">
                      -4.49560                       1.15897                      90.98049
                      -4.47331                       2.22269                      91.83872
                      -4.43873                       4.29091                      93.62925
                      -4.40317                       6.33198                      95.45424
                      -4.34810                       8.86828                      97.75535
                      -4.21290                      12.00458                     100.39915
                      -4.02606                      15.22366                     102.93682
                      -3.79493                      18.44435                     105.46908
                      -3.50836                      21.66660                     107.99378
                      -3.15820                      24.88781                     110.51177
                      -2.73735                      28.10420                     113.02516
                      -2.23808                      31.31503                     115.53159
                      -1.65541                      34.51861                     118.02985
                      -0.98635                      37.71325                     120.51852
                      -0.22784                      40.89691                     122.99570
                       0.47325                      43.54009                     125.04956
                       1.07477                      45.65265                     126.67905
                       1.70909                      47.79288                     128.25820
                       2.03905                      48.83438                     129.07735
        </DataArray>
      </Points>
      <PointData>
        <DataArray type="Float32" Name="TranslationalVelocity" NumberOfComponents="3" format="ascii">
                       0.26232                      -2.04661                       2.56332
                       0.48698                      -3.93121                       4.89333
                       0.92488                      -7.86187                       9.42503
                       1.35881                     -11.87035                      13.89930
                       1.90135                     -16.93024                      19.46258
                       2.57793                     -22.76423                      26.34727
                       3.28029                     -28.38187                      33.41994
                       3.99315                     -34.00258                      40.50218
                       4.71810                     -39.62389                      47.59298
                       5.45609                     -45.24920                      54.68550
                       6.20759                     -50.88437                      61.77001
                       6.97350                     -56.52574                      68.84346
                       7.75421                     -62.17153                      75.90071
                       8.54981                     -67.81937                      82.93673
                       9.35990                     -73.46603                      89.94598
                      10.04577                     -78.16767                      95.76270
                      10.60180                     -81.91076                     100.40999
                      11.17074                     -85.55294                     105.11685
                      11.45116                     -87.44334                     107.40664
        </DataArray>
        <DataArray type="Float32" Name="RotationalVelocity" NumberOfComponents="3" format="ascii">
                       2.19011                       0.00048                      -0.21072
                       2.19042                       0.00055                      -0.21084
                       2.19129                       0.00080                      -0.21125
                       2.19240                       0.00116                      -0.21189
                       2.19399                       0.00173                      -0.21300
                       2.19602                       0.00251                      -0.21476
                       2.19799                       0.00337                      -0.21697
                       2.19979                       0.00430                      -0.21959
                       2.20133                       0.00535                      -0.22258
                       2.20257                       0.00655                      -0.22589
                       2.20350                       0.00796                      -0.22947
                       2.20415                       0.00960                      -0.23323
                       2.20457                       0.01148                      -0.23707
                       2.20481                       0.01358                      -0.24089
                       2.20493                       0.01582                      -0.24452
                       2.20499                       0.01770                      -0.24729
                       2.20503                       0.01913                      -0.24924
                       2.20509                       0.02041                      -0.25088
                       2.20513                       0.02096                      -0.25156
        </DataArray>
        <DataArray type="Float32" Name="TranslationalAcceleration" NumberOfComponents="3" format="ascii">
                      -0.47549                      -5.68431                      -4.48479
                      -0.53663                      -6.88887                      -5.41117
                      -1.56684                     -19.44201                     -15.83619
                      -2.53119                     -30.84735                     -25.62291
                      -3.67235                     -44.08025                     -37.20078
                      -4.92727                     -59.55738                     -49.88000
                      -6.11310                     -75.05658                     -61.75542
                      -7.31119                     -90.55611                     -73.59809
                      -8.53940                    -106.24672                     -85.54823
                      -9.80636                    -122.17542                     -97.65552
                     -11.11413                    -138.28832                    -109.90098
                     -12.45845                    -154.48891                    -122.20027
                     -13.83482                    -170.65646                    -134.45964
                     -15.24125                    -186.68833                    -146.60041
                     -16.68141                    -202.53606                    -158.58850
                     -17.91715                    -215.62916                    -168.48737
                     -18.93261                    -226.11368                    -176.36519
                     -19.96009                    -236.84114                    -184.09349
                     -20.51307                    -242.14663                    -188.17252
        </DataArray>
        <DataArray type="Float32" Name="OrientationX" NumberOfComponents="3" format="ascii">
                       0.98750                      -0.11078                       0.11213
                       0.98749                      -0.11129                       0.11172
                       0.98745                      -0.11296                       0.11041
                       0.98737                      -0.11544                       0.10847
                       0.98723                      -0.11956                       0.10530
                       0.99144                      -0.10642                       0.07569
                       0.99358                      -0.10047                       0.05193
                       0.99473                      -0.09820                       0.02953
                       0.99524                      -0.09732                       0.00547
                       0.99496                      -0.09829                      -0.01970
                       0.99376                      -0.10229                      -0.04440
                       0.99168                      -0.10855                      -0.06919
                       0.98873                      -0.11780                      -0.09243
                       0.98507                      -0.13098                      -0.11175
                       0.98093                      -0.14441                      -0.13004
                       0.97736                      -0.15470                      -0.14433
                       0.97466                      -0.16194                      -0.15429
                       0.97241                      -0.16971                      -0.16005
                       0.97154                      -0.17406                      -0.16066
        </DataArray>
        <DataArray type="Float32" Name="OrientationY" NumberOfComponents="3" format="ascii">
                       0.15677                       0.61632                      -0.77173
                       0.15677                       0.61608                      -0.77193
                       0.15677                       0.61542                      -0.77245
                       0.15679                       0.61459                      -0.77311
                       0.15684                       0.61336                      -0.77407
                       0.12547                       0.61540                      -0.77816
                       0.10312                       0.61627                      -0.78075
                       0.08413                       0.61682                      -0.78260
                       0.06469                       0.61750                      -0.78391
                       0.04555                       0.61832                      -0.78461
                       0.02867                       0.61913                      -0.78476
                       0.01314                       0.62007                      -0.78443
                       0.00071                       0.62097                      -0.78383
                      -0.00624                       0.62146                      -0.78342
                      -0.01223                       0.62199                      -0.78293
                      -0.01701                       0.62250                      -0.78243
                      -0.02031                       0.62287                      -0.78206
                      -0.02009                       0.62263                      -0.78226
                      -0.01797                       0.62212                      -0.78272
        </DataArray>
        <DataArray type="Float32" Name="OrientationZ" NumberOfComponents="3" format="ascii">
                       0.01638                       0.77966                       0.62599
                       0.01708                       0.77978                       0.62582
                       0.01931                       0.78006                       0.62541
                       0.02259                       0.78036                       0.62493
                       0.02796                       0.78070                       0.62428
                       0.03623                       0.78099                       0.62349
                       0.04645                       0.78110                       0.62268
                       0.05864                       0.78096                       0.62183
                       0.07291                       0.78053                       0.62085
                       0.08930                       0.77976                       0.61968
                       0.10776                       0.77860                       0.61820
                       0.12805                       0.77700                       0.61634
                       0.14973                       0.77493                       0.61406
                       0.17206                       0.77242                       0.61136
                       0.19395                       0.76959                       0.60836
                       0.21088                       0.76717                       0.60578
                       0.22275                       0.76538                       0.60380
                       0.23241                       0.76389                       0.60204
                       0.23619                       0.76333                       0.60128
        </DataArray>
        <DataArray type="Float32" Name="Force" NumberOfComponents="3" format="ascii">
                      -0.46376                       3.87959                      -4.81986
                     164.91191                      53.86881                     -71.60335
                     218.53279                     147.08991                    -190.03853
                     203.90993                     212.95442                    -272.86963
                    1798.78921                    -310.96151                     307.29712
                    1998.64379                    -257.23648                     205.11011
                    2229.02430                    -235.66389                     128.55929
                    3099.06450                    -301.28084                      85.46105
                    3498.59145                    -308.10723                     -23.68818
                    4125.12888                    -359.89075                    -141.22209
                    5536.61238                    -484.80167                    -353.36333
                    6326.41561                    -592.71104                    -565.40947
                    7375.15289                    -805.90097                    -778.50610
                    7892.18531                    -966.16622                    -996.96837
                    8303.09083                   -1131.30337                   -1211.96489
                    8507.42948                   -1249.86680                   -1374.53235
                    8273.10045                   -1275.36430                   -1431.48158
                    6000.61590                    -969.17490                   -1083.87698
                     849.94758                     -53.63978                    -267.09637
        </DataArray>
        <DataArray type="Float32" Name="Moment" NumberOfComponents="3" format="ascii">
                       0.00000                       0.00000                       0.00000
                       0.00000                       0.00000                       0.00000
                       0.00000                       0.00000                       0.00000
                       0.00000                       0.00000                       0.00000
                     -25.88372                    -719.88675                    -576.95862
                     -60.12839                   -1291.39100                   -1033.67715
                    -103.73847                   -1739.63395                   -1390.27943
                    -205.38646                   -2730.49218                   -2178.05767
                    -364.07065                   -3895.67412                   -3100.66409
                    -508.03466                   -4439.98477                   -3524.93698
                    -680.59159                   -4928.71164                   -3901.71837
                    -863.70028                   -5259.60689                   -4150.44312
                    -803.41809                   -4178.26983                   -3285.85677
                    -924.96293                   -4177.61389                   -3273.63391
                   -1014.49620                   -4054.30892                   -3165.76887
                   -1052.30048                   -3858.47844                   -3004.50410
                    -990.69858                   -3432.46147                   -2667.52303
                    -521.31744                   -1728.16204                   -1340.86661
                    -496.49406                   -1618.40939                   -1254.91330
        </DataArray>
      </PointData>
      <Lines>
        <DataArray type="Int32" Name="connectivity" format="ascii">
      0      1
      1      2
      2      3
      3      4
      4      5
      5      6
      6      7
      7      8
      8      9
      9     10
     10     11
     11     12
     12     13
     13     14
     14     15
     15     16
     16     17
     17     18
        </DataArray>
        <DataArray type="Int32" Name="offsets" format="ascii">
      2
      4
      6
      8
     10
     12
     14
     16
     18
     20
     22
     24
     26
     28
     30
     32
     34
     36
        </DataArray>
      </Lines>
    </Piece>
  </PolyData>
</VTKFile>
