<?xml version="1.0"?>
<VTKFile type="PolyData" version="0.1" byte_order="LittleEndian">
  <PolyData>
    <Piece NumberOfPoints="     19" NumberOfVerts="  0" NumberOfLines="     18"
           NumberOfStrips="  0" NumberOfPolys="      0">
      <Points>
        <DataArray type="Float32" NumberOfComponents="3" format="ascii">
                      -4.82234                       1.16598                      90.95819
                      -4.80456                       2.22590                      91.82131
                      -4.78308                       4.28637                      93.62159
                      -4.76595                       6.31974                      95.45633
                      -4.74297                       8.84668                      97.76939
                      -4.66189                      11.97328                     100.42809
                      -4.55236                      15.18481                     102.98114
                      -4.43144                      18.40044                     105.52916
                      -4.29794                      21.62117                     108.07085
                      -4.15503                      24.84562                     110.60811
                      -4.00786                      28.07137                     113.14423
                      -3.86140                      31.29926                     115.67830
                      -3.72359                      34.52925                     118.21045
                      -3.60427                      37.76133                     120.74063
                      -3.51279                      40.99542                     123.26852
                      -3.46809                      43.69222                     125.37286
                      -3.45774                      45.85556                     127.04832
                      -3.47119                      48.05395                     128.67874
                      -3.49479                      49.12782                     129.52552
        </DataArray>
      </Points>
      <PointData>
        <DataArray type="Float32" Name="TranslationalVelocity" NumberOfComponents="3" format="ascii">
                       0.29371                      -2.63371                       3.24649
                       0.56065                      -5.04245                       6.19888
                       1.08115                     -10.06427                      11.94014
                       1.59740                     -15.18372                      17.60858
                       2.24379                     -21.64272                      24.65733
                       3.05176                     -29.08758                      33.38579
                       3.89261                     -36.25197                      42.35963
                       4.74841                     -43.41216                      51.35316
                       5.62152                     -50.56443                      60.36849
                       6.51361                     -57.71262                      69.40083
                       7.42600                     -64.86386                      78.44236
                       8.36063                     -72.01344                      87.49444
                       9.31908                     -79.15887                      96.55618
                      10.30276                     -86.29656                     105.62722
                      11.31288                     -93.42261                     114.70737
                      12.17615                     -99.34770                     122.28225
                      12.88153                    -104.05927                     128.36126
                      13.60689                    -108.63880                     134.54150
                      13.96880                    -111.01299                     137.56206
        </DataArray>
        <DataArray type="Float32" Name="RotationalVelocity" NumberOfComponents="3" format="ascii">
                       2.78508                       0.00023                      -0.25153
                       2.78549                       0.00035                      -0.25169
                       2.78661                       0.00078                      -0.25222
                       2.78805                       0.00145                      -0.25302
                       2.79013                       0.00253                      -0.25434
                       2.79279                       0.00417                      -0.25632
                       2.79544                       0.00619                      -0.25864
                       2.79792                       0.00866                      -0.26120
                       2.80016                       0.01167                      -0.26394
                       2.80213                       0.01533                      -0.26678
                       2.80383                       0.01971                      -0.26970
                       2.80531                       0.02483                      -0.27265
                       2.80661                       0.03065                      -0.27562
                       2.80776                       0.03699                      -0.27860
                       2.80880                       0.04358                      -0.28161
                       2.80956                       0.04895                      -0.28415
                       2.81009                       0.05291                      -0.28623
                       2.81052                       0.05632                      -0.28836
                       2.81069                       0.05775                      -0.28946
        </DataArray>
        <DataArray type="Float32" Name="TranslationalAcceleration" NumberOfComponents="3" format="ascii">
                      -0.64458                      -9.11105                      -7.31524
                      -0.79198                     -11.00637                      -8.89094
                      -2.31984                     -31.04571                     -26.01571
                      -3.75382                     -49.24414                     -42.08270
                      -5.44400                     -70.35752                     -61.07710
                      -7.28220                     -95.09411                     -81.88462
                      -8.98900                    -119.91275                    -101.37075
                     -10.67514                    -144.76296                    -120.77448
                     -12.36455                    -169.95333                    -140.33104
                     -14.06824                    -195.56426                    -160.13023
                     -15.78614                    -221.51707                    -180.15087
                     -17.50733                    -247.66858                    -200.26688
                     -19.21656                    -273.84005                    -220.33455
                     -20.89731                    -299.88559                    -240.23162
                     -22.53592                    -325.75176                    -259.90781
                     -23.86322                    -347.23824                    -276.17621
                     -24.89559                    -364.52699                    -289.13570
                     -25.87592                    -382.29510                    -301.86796
                     -26.38946                    -391.11974                    -308.57609
        </DataArray>
        <DataArray type="Float32" Name="OrientationX" NumberOfComponents="3" format="ascii">
                       0.98678                      -0.11173                       0.11739
                       0.98677                      -0.11196                       0.11724
                       0.98673                      -0.11274                       0.11688
                       0.98664                      -0.11395                       0.11644
                       0.98646                      -0.11604                       0.11587
                       0.99087                      -0.09969                       0.09075
                       0.99327                      -0.08985                       0.07312
                       0.99481                      -0.08287                       0.05902
                       0.99602                      -0.07630                       0.04598
                       0.99690                      -0.07045                       0.03507
                       0.99740                      -0.06632                       0.02825
                       0.99769                      -0.06306                       0.02514
                       0.99774                      -0.06135                       0.02725
                       0.99740                      -0.06218                       0.03645
                       0.99687                      -0.06207                       0.04890
                       0.99632                      -0.06041                       0.06088
                       0.99576                      -0.05786                       0.07153
                       0.99480                      -0.05581                       0.08519
                       0.99408                      -0.05531                       0.09356
        </DataArray>
        <DataArray type="Float32" Name="OrientationY" NumberOfComponents="3" format="ascii">
                       0.16154                       0.61971                      -0.76802
                       0.16156                       0.61952                      -0.76818
                       0.16176                       0.61900                      -0.76855
                       0.16217                       0.61833                      -0.76901
                       0.16301                       0.61733                      -0.76963
                       0.13318                       0.61945                      -0.77366
                       0.11325                       0.62025                      -0.77618
                       0.09786                       0.62059                      -0.77801
                       0.08355                       0.62086                      -0.77946
                       0.07135                       0.62103                      -0.78053
                       0.06342                       0.62098                      -0.78125
                       0.05893                       0.62080                      -0.78175
                       0.05950                       0.62037                      -0.78205
                       0.06721                       0.61956                      -0.78206
                       0.07688                       0.61872                      -0.78184
                       0.08523                       0.61808                      -0.78148
                       0.09200                       0.61767                      -0.78104
                       0.10144                       0.61725                      -0.78020
                       0.10770                       0.61705                      -0.77952
        </DataArray>
        <DataArray type="Float32" Name="OrientationZ" NumberOfComponents="3" format="ascii">
                       0.01306                       0.77684                       0.62957
                       0.01337                       0.77696                       0.62941
                       0.01430                       0.77726                       0.62902
                       0.01563                       0.77761                       0.62855
                       0.01778                       0.77810                       0.62789
                       0.02091                       0.77868                       0.62707
                       0.02438                       0.77924                       0.62625
                       0.02785                       0.77975                       0.62548
                       0.03093                       0.78020                       0.62476
                       0.03321                       0.78061                       0.62413
                       0.03427                       0.78101                       0.62357
                       0.03369                       0.78143                       0.62308
                       0.03107                       0.78191                       0.62262
                       0.02604                       0.78248                       0.62213
                       0.01827                       0.78316                       0.62155
                       0.00958                       0.78379                       0.62095
                       0.00101                       0.78431                       0.62037
                      -0.00904                       0.78478                       0.61971
                      -0.01462                       0.78498                       0.61935
        </DataArray>
        <DataArray type="Float32" Name="Force" NumberOfComponents="3" format="ascii">
                      -0.85126                       7.65303                      -9.42554
                     174.31008                      74.54564                     -95.69297
                     248.16158                     218.86199                    -275.75974
                     239.99233                     330.52104                    -413.97785
                    1566.55952                    -187.24439                     186.64865
                    1542.28637                    -127.71432                     106.06617
                    1477.01275                     -71.28665                      30.30002
                    2203.25143                    -106.88854                      33.60837
                    2632.61499                     -96.42271                     -11.59646
                    2903.94291                     -76.89071                     -59.98064
                    4448.42516                     -95.80749                    -126.89805
                    4657.90051                     -67.39358                    -169.67829
                    3649.03457                     -10.28686                    -170.60540
                    2020.36086                      72.70094                    -175.39676
                    1003.68497                      77.01305                    -125.31597
                      83.93091                     140.15172                    -174.24732
                   -1670.59839                     151.36064                    -181.51561
                   -2943.76122                     102.55020                    -163.84738
                  -19568.11983                    -904.73459                     690.33573
        </DataArray>
        <DataArray type="Float32" Name="Moment" NumberOfComponents="3" format="ascii">
                       0.00000                       0.00000                       0.00000
                       0.00000                       0.00000                       0.00000
                       0.00000                       0.00000                       0.00000
                       0.00000                       0.00000                       0.00000
                     -22.97796                    -997.57093                    -807.89880
                     -49.16213                   -1811.57454                   -1466.46122
                     -77.71536                   -2454.20896                   -1985.66711
                    -147.46502                   -4076.04877                   -3296.21459
                    -239.89362                   -5969.46596                   -4825.22009
                    -294.08822                   -6812.61625                   -5504.91832
                    -342.09186                   -7672.88340                   -6199.07366
                    -359.36223                   -8185.58172                   -6613.79741
                    -252.45375                   -6216.69727                   -5024.82428
                    -209.43119                   -6117.24402                   -4947.95912
                    -142.36142                   -5841.39069                   -4730.03836
                     -74.31272                   -5578.32029                   -4522.58506
                     -11.81913                   -4912.73226                   -3987.80736
                      25.52428                   -2452.33696                   -1993.47113
                      38.34764                   -2186.92740                   -1779.13094
        </DataArray>
      </PointData>
      <Lines>
        <DataArray type="Int32" Name="connectivity" format="ascii">
      0      1
      1      2
      2      3
      3      4
      4      5
      5      6
      6      7
      7      8
      8      9
      9     10
     10     11
     11     12
     12     13
     13     14
     14     15
     15     16
     16     17
     17     18
        </DataArray>
        <DataArray type="Int32" Name="offsets" format="ascii">
      2
      4
      6
      8
     10
     12
     14
     16
     18
     20
     22
     24
     26
     28
     30
     32
     34
     36
        </DataArray>
      </Lines>
    </Piece>
  </PolyData>
</VTKFile>
