<?xml version="1.0"?>
<VTKFile type="PolyData" version="0.1" byte_order="LittleEndian">
  <PolyData>
    <Piece NumberOfPoints="     19" NumberOfVerts="  0" NumberOfLines="     18"
           NumberOfStrips="  0" NumberOfPolys="      0">
      <Points>
        <DataArray type="Float32" NumberOfComponents="3" format="ascii">
                      -4.98740                      -0.81217                      88.76616
                      -5.15148                      -1.54560                      87.62425
                      -5.50451                      -2.93171                      85.29162
                      -5.86669                      -4.27902                      82.93486
                      -6.32014                      -5.93898                      79.97297
                      -6.79249                      -8.04999                      76.48510
                      -7.21880                     -10.26797                      73.05932
                      -7.63036                     -12.48491                      69.63049
                      -8.02491                     -14.70256                      66.19944
                      -8.40478                     -16.91967                      62.76568
                      -8.77429                     -19.13368                      59.32812
                      -9.13673                     -21.34649                      55.88847
                      -9.49832                     -23.55885                      52.44810
                      -9.86687                     -25.77157                      49.00875
                     -10.24945                     -27.98520                      45.57202
                     -10.58704                     -29.83117                      42.71174
                     -10.87250                     -31.31556                      40.43098
                     -11.16657                     -32.84714                      38.18211
                     -11.33120                     -33.57851                      37.03842
        </DataArray>
      </Points>
      <PointData>
        <DataArray type="Float32" Name="TranslationalVelocity" NumberOfComponents="3" format="ascii">
                      -0.21007                       3.51909                      -2.24527
                      -0.39304                       6.72231                      -4.27638
                      -0.73939                      13.26733                      -8.11332
                      -1.07619                      19.87700                     -11.84061
                      -1.49127                      28.17587                     -16.42919
                      -2.02161                      37.92102                     -22.25777
                      -2.58605                      47.46913                     -28.37198
                      -3.16441                      57.00670                     -34.47173
                      -3.76444                      66.53017                     -40.56067
                      -4.39232                      76.04133                     -46.63460
                      -5.05171                      85.54467                     -52.68636
                      -5.74387                      95.03753                     -58.72189
                      -6.46491                     104.51974                     -64.74489
                      -7.20478                     113.99155                     -70.76035
                      -7.94586                     123.45424                     -76.77401
                      -8.54468                     131.33403                     -81.78980
                      -8.99887                     137.62365                     -85.82683
                      -9.42687                     143.83265                     -89.99871
                      -9.61362                     146.99648                     -91.99366
        </DataArray>
        <DataArray type="Float32" Name="RotationalVelocity" NumberOfComponents="3" format="ascii">
                       2.76948                      -0.00139                      -0.25191
                       2.76895                      -0.00128                      -0.25191
                       2.76749                      -0.00117                      -0.25179
                       2.76558                      -0.00103                      -0.25164
                       2.76272                      -0.00059                      -0.25156
                       2.75877                       0.00073                      -0.25186
                       2.75445                       0.00325                      -0.25281
                       2.74989                       0.00711                      -0.25452
                       2.74524                       0.01233                      -0.25699
                       2.74059                       0.01864                      -0.26007
                       2.73610                       0.02559                      -0.26349
                       2.73196                       0.03243                      -0.26676
                       2.72843                       0.03813                      -0.26925
                       2.72587                       0.04135                      -0.27012
                       2.72473                       0.04041                      -0.26831
                       2.72527                       0.03517                      -0.26395
                       2.72703                       0.02691                      -0.25787
                       2.73026                       0.01420                      -0.24895
                       2.73252                       0.00592                      -0.24326
        </DataArray>
        <DataArray type="Float32" Name="TranslationalAcceleration" NumberOfComponents="3" format="ascii">
                       0.92167                       6.31272                       9.67039
                       1.09295                       7.56410                      11.74297
                       3.15149                      20.99477                      33.99192
                       5.03231                      32.94831                      54.66680
                       7.18458                      46.56604                      78.95993
                       9.50578                      62.76158                     106.03748
                      11.66836                      79.22566                     131.87074
                      13.83020                      95.54433                     157.57023
                      16.07313                     111.96509                     183.42645
                      18.44357                     128.57008                     209.52661
                      20.94127                     145.32475                     235.81473
                      23.50480                     162.15825                     262.13493
                      26.00359                     178.95739                     288.32719
                      28.22602                     195.61277                     314.29179
                      29.86813                     212.05349                     340.06059
                      30.47798                     225.58976                     361.54706
                      30.27555                     236.39844                     378.89059
                      29.23789                     247.55968                     396.41410
                      28.37476                     252.90968                     405.57094
        </DataArray>
        <DataArray type="Float32" Name="OrientationX" NumberOfComponents="3" format="ascii">
                       0.95373                       0.17096                      -0.24731
                       0.95377                       0.17118                      -0.24702
                       0.95384                       0.17198                      -0.24618
                       0.95391                       0.17324                      -0.24502
                       0.95396                       0.17543                      -0.24326
                       0.96230                       0.15265                      -0.22511
                       0.96754                       0.13839                      -0.21147
                       0.97142                       0.12796                      -0.19994
                       0.97482                       0.11825                      -0.18905
                       0.97758                       0.10989                      -0.17959
                       0.97937                       0.10446                      -0.17296
                       0.98042                       0.10103                      -0.16902
                       0.98047                       0.10076                      -0.16890
                       0.97912                       0.10521                      -0.17394
                       0.97719                       0.10985                      -0.18177
                       0.97529                       0.11280                      -0.18996
                       0.97356                       0.11440                      -0.19772
                       0.97106                       0.11750                      -0.20794
                       0.96937                       0.12007                      -0.21427
        </DataArray>
        <DataArray type="Float32" Name="OrientationY" NumberOfComponents="3" format="ascii">
                       0.27581                      -0.82494                       0.49336
                       0.27583                      -0.82495                       0.49333
                       0.27603                      -0.82497                       0.49318
                       0.27645                      -0.82496                       0.49297
                       0.27731                      -0.82488                       0.49262
                       0.24849                      -0.82992                       0.49948
                       0.22921                      -0.83296                       0.50363
                       0.21428                      -0.83514                       0.50658
                       0.20028                      -0.83705                       0.50915
                       0.18818                      -0.83859                       0.51122
                       0.18006                      -0.83960                       0.51249
                       0.17506                      -0.84023                       0.51320
                       0.17476                      -0.84034                       0.51312
                       0.18117                      -0.83973                       0.51189
                       0.18923                      -0.83890                       0.51033
                       0.19607                      -0.83819                       0.50892
                       0.20154                      -0.83762                       0.50772
                       0.20957                      -0.83678                       0.50585
                       0.21509                      -0.83619                       0.50450
        </DataArray>
        <DataArray type="Float32" Name="OrientationZ" NumberOfComponents="3" format="ascii">
                      -0.11967                      -0.53875                      -0.83393
                      -0.11933                      -0.53865                      -0.83403
                      -0.11827                      -0.53837                      -0.83437
                      -0.11673                      -0.53799                      -0.83483
                      -0.11424                      -0.53740                      -0.83556
                      -0.11058                      -0.53659                      -0.83657
                      -0.10645                      -0.53575                      -0.83764
                      -0.10216                      -0.53494                      -0.83869
                      -0.09804                      -0.53420                      -0.83966
                      -0.09443                      -0.53356                      -0.84047
                      -0.09168                      -0.53307                      -0.84109
                      -0.09017                      -0.53274                      -0.84146
                      -0.09023                      -0.53261                      -0.84154
                      -0.09221                      -0.53272                      -0.84126
                      -0.09643                      -0.53308                      -0.84055
                      -0.10182                      -0.53359                      -0.83959
                      -0.10753                      -0.53414                      -0.83853
                      -0.11457                      -0.53479                      -0.83718
                      -0.11860                      -0.53514                      -0.83640
        </DataArray>
        <DataArray type="Float32" Name="Force" NumberOfComponents="3" format="ascii">
                       1.26618                     -21.82121                      13.91557
                     167.56321                    -121.20719                      54.32631
                     284.60141                    -345.29396                     182.68950
                     302.87064                    -500.21180                     280.68896
                    1486.40736                     252.44649                    -366.29437
                    1361.73652                     165.09136                    -286.63872
                    1218.81776                      78.90756                    -205.89408
                    1838.99628                     129.14666                    -307.44046
                    2257.65009                     126.82130                    -345.53061
                    2480.42813                     103.30044                    -345.41834
                    4043.84793                     157.97080                    -542.81663
                    4319.74270                     136.71030                    -551.17063
                    3487.36737                      66.13152                    -416.69638
                    2160.65303                     -44.70425                    -208.17533
                     352.96621                    -180.97941                      76.09498
                     995.23281                    -110.46895                     -49.56812
                    -428.25260                    -210.32657                     190.66330
                   -1753.71250                    -218.91639                     381.57636
                  -17158.72993                     231.06360                    2286.20576
        </DataArray>
        <DataArray type="Float32" Name="Moment" NumberOfComponents="3" format="ascii">
                       0.00000                       0.00000                       0.00000
                       0.00000                       0.00000                       0.00000
                       0.00000                       0.00000                       0.00000
                       0.00000                       0.00000                       0.00000
                     150.82660                     711.97446                    1102.73392
                     271.94829                    1327.09761                    2056.29673
                     348.85557                    1769.67747                    2743.31493
                     534.43899                    2826.93547                    4384.33056
                     760.15984                    4192.84536                    6505.69564
                     829.40053                    4752.62150                    7377.18865
                     898.32857                    5304.27735                    8235.97658
                     938.13015                    5634.40612                    8750.03483
                     708.34853                    4251.90673                    6603.02499
                     712.16862                    4182.27509                    6493.48699
                     705.56079                    3960.08161                    6145.66335
                     697.27348                    3704.05815                    5744.94324
                     650.03982                    3267.24070                    5064.26113
                     345.35515                    1627.78221                    2521.12539
                     329.81691                    1500.97052                    2323.68392
        </DataArray>
      </PointData>
      <Lines>
        <DataArray type="Int32" Name="connectivity" format="ascii">
      0      1
      1      2
      2      3
      3      4
      4      5
      5      6
      6      7
      7      8
      8      9
      9     10
     10     11
     11     12
     12     13
     13     14
     14     15
     15     16
     16     17
     17     18
        </DataArray>
        <DataArray type="Int32" Name="offsets" format="ascii">
      2
      4
      6
      8
     10
     12
     14
     16
     18
     20
     22
     24
     26
     28
     30
     32
     34
     36
        </DataArray>
      </Lines>
    </Piece>
  </PolyData>
</VTKFile>
