<?xml version="1.0"?>
<VTKFile type="PolyData" version="0.1" byte_order="LittleEndian">
  <PolyData>
    <Piece NumberOfPoints="     19" NumberOfVerts="  0" NumberOfLines="     18"
           NumberOfStrips="  0" NumberOfPolys="      0">
      <Points>
        <DataArray type="Float32" NumberOfComponents="3" format="ascii">
                      -5.02068                      -0.81942                      88.77001
                      -5.18343                      -1.56301                      87.63451
                      -5.53423                      -2.96992                      85.31398
                      -5.89478                      -4.33828                      82.96908
                      -6.34728                      -6.02477                      80.02202
                      -6.82033                      -8.16716                      76.55337
                      -7.24988                     -10.41620                      73.14826
                      -7.66792                     -12.66453                      69.74065
                      -8.07291                     -14.91397                      66.33147
                      -8.46809                     -17.16335                      62.92033
                      -8.85886                     -19.41020                      59.50630
                      -9.24981                     -21.65650                      56.09134
                      -9.64870                     -23.90311                      52.67719
                     -10.06518                     -26.15092                      49.26604
                     -10.50842                     -28.40063                      45.86011
                     -10.90836                     -30.27756                      43.02811
                     -11.25216                     -31.78729                      40.77205
                     -11.61300                     -33.34457                      38.55037
                     -11.81467                     -34.08921                      37.42094
        </DataArray>
      </Points>
      <PointData>
        <DataArray type="Float32" Name="TranslationalVelocity" NumberOfComponents="3" format="ascii">
                      -0.20222                       3.54111                      -2.29465
                      -0.39124                       6.76667                      -4.37990
                      -0.74633                      13.36017                      -8.32387
                      -1.09079                      20.01987                     -12.15743
                      -1.51830                      28.38193                     -16.87795
                      -2.07040                      38.19729                     -22.86702
                      -2.66242                      47.81183                     -29.14489
                      -3.26910                      57.41895                     -35.41122
                      -3.89021                      67.01703                     -41.67205
                      -4.52316                      76.60964                     -47.92551
                      -5.16380                      86.20253                     -54.16635
                      -5.80806                      95.79317                     -60.40188
                      -6.45094                     105.38018                     -66.63604
                      -7.08717                     114.96097                     -72.87264
                      -7.71143                     124.53209                     -79.11447
                      -8.21860                     132.49655                     -84.32213
                      -8.61597                     138.84596                     -88.51072
                      -9.01462                     145.10190                     -92.83063
                      -9.20094                     148.28573                     -94.89569
        </DataArray>
        <DataArray type="Float32" Name="RotationalVelocity" NumberOfComponents="3" format="ascii">
                       2.80494                       0.00064                      -0.25336
                       2.80440                       0.00048                      -0.25307
                       2.80293                       0.00042                      -0.25264
                       2.80105                       0.00091                      -0.25229
                       2.79838                       0.00246                      -0.25172
                       2.79498                       0.00574                      -0.25067
                       2.79169                       0.01028                      -0.24922
                       2.78868                       0.01547                      -0.24753
                       2.78608                       0.02058                      -0.24590
                       2.78392                       0.02480                      -0.24465
                       2.78218                       0.02740                      -0.24411
                       2.78079                       0.02782                      -0.24453
                       2.77966                       0.02576                      -0.24599
                       2.77872                       0.02137                      -0.24837
                       2.77786                       0.01529                      -0.25124
                       2.77716                       0.00981                      -0.25348
                       2.77661                       0.00593                      -0.25472
                       2.77606                       0.00332                      -0.25496
                       2.77579                       0.00279                      -0.25454
        </DataArray>
        <DataArray type="Float32" Name="TranslationalAcceleration" NumberOfComponents="3" format="ascii">
                       0.92615                       6.47932                       9.93578
                       1.05859                       7.82019                      12.01689
                       2.87159                      21.71495                      34.81566
                       4.45502                      34.10238                      56.00170
                       6.38760                      48.25562                      80.85131
                       8.85021                      65.14382                     108.44179
                      11.61182                      82.36950                     134.65944
                      14.64810                      99.49298                     160.70446
                      17.77047                     116.74115                     186.94655
                      20.75605                     134.16975                     213.54537
                      23.42911                     151.72179                     240.49182
                      25.74707                     169.32074                     267.62901
                      27.88455                     186.87046                     294.73022
                      30.31779                     204.31103                     321.54216
                      33.90844                     221.66692                     347.83372
                      38.80058                     236.17641                     369.20968
                      44.67158                     247.98002                     385.89855
                      53.11278                     260.43305                     402.02666
                      58.42325                     266.53368                     410.17696
        </DataArray>
        <DataArray type="Float32" Name="OrientationX" NumberOfComponents="3" format="ascii">
                       0.95376                       0.16954                      -0.24818
                       0.95379                       0.16974                      -0.24793
                       0.95385                       0.17045                      -0.24723
                       0.95389                       0.17159                      -0.24628
                       0.95389                       0.17359                      -0.24486
                       0.96217                       0.15067                      -0.22700
                       0.96733                       0.13617                      -0.21383
                       0.97113                       0.12541                      -0.20295
                       0.97443                       0.11526                      -0.19288
                       0.97707                       0.10631                      -0.18446
                       0.97871                       0.10011                      -0.17917
                       0.97956                       0.09571                      -0.17692
                       0.97934                       0.09424                      -0.17889
                       0.97763                       0.09727                      -0.18649
                       0.97519                       0.10032                      -0.19734
                       0.97273                       0.10187                      -0.20839
                       0.97042                       0.10233                      -0.21866
                       0.96720                       0.10431                      -0.23162
                       0.96508                       0.10634                      -0.23938
        </DataArray>
        <DataArray type="Float32" Name="OrientationY" NumberOfComponents="3" format="ascii">
                       0.27613                      -0.82034                       0.50079
                       0.27615                      -0.82036                       0.50075
                       0.27635                      -0.82039                       0.50059
                       0.27676                      -0.82040                       0.50035
                       0.27763                      -0.82035                       0.49995
                       0.24882                      -0.82536                       0.50683
                       0.22956                      -0.82838                       0.51097
                       0.21465                      -0.83055                       0.51392
                       0.20069                      -0.83243                       0.51650
                       0.18864                      -0.83396                       0.51859
                       0.18058                      -0.83495                       0.51985
                       0.17566                      -0.83557                       0.52055
                       0.17548                      -0.83569                       0.52042
                       0.18211                      -0.83512                       0.51905
                       0.19051                      -0.83434                       0.51728
                       0.19778                      -0.83367                       0.51564
                       0.20372                      -0.83313                       0.51419
                       0.21236                      -0.83235                       0.51195
                       0.21824                      -0.83182                       0.51034
        </DataArray>
        <DataArray type="Float32" Name="OrientationZ" NumberOfComponents="3" format="ascii">
                      -0.11869                      -0.54617                      -0.82923
                      -0.11839                      -0.54607                      -0.82933
                      -0.11750                      -0.54580                      -0.82963
                      -0.11619                      -0.54544                      -0.83006
                      -0.11408                      -0.54488                      -0.83072
                      -0.11099                      -0.54413                      -0.83162
                      -0.10756                      -0.54337                      -0.83257
                      -0.10411                      -0.54264                      -0.83349
                      -0.10103                      -0.54201                      -0.83428
                      -0.09870                      -0.54149                      -0.83489
                      -0.09756                      -0.54114                      -0.83525
                      -0.09801                      -0.54098                      -0.83530
                      -0.10045                      -0.54106                      -0.83496
                      -0.10526                      -0.54140                      -0.83415
                      -0.11276                      -0.54204                      -0.83275
                      -0.12120                      -0.54279                      -0.83108
                      -0.12956                      -0.54353                      -0.82933
                      -0.13939                      -0.54434                      -0.82720
                      -0.14486                      -0.54476                      -0.82598
        </DataArray>
        <DataArray type="Float32" Name="Force" NumberOfComponents="3" format="ascii">
                       1.29887                     -22.11658                      14.38108
                     168.52844                    -122.42144                      56.57014
                     287.50938                    -350.11769                     189.85041
                     306.55683                    -508.10526                     291.64661
                    1464.76638                     239.79169                    -359.08875
                    1327.53054                     153.52333                    -278.30288
                    1171.08337                      66.52290                    -195.15021
                    1784.10105                     114.88675                    -298.57269
                    2222.51834                     114.07552                    -344.34395
                    2434.06688                      87.60008                    -345.57676
                    4015.57521                     133.85425                    -557.38592
                    4241.77486                     103.17180                    -565.94044
                    3247.15175                      21.10246                    -404.89600
                    1782.68831                     -90.89411                    -165.40580
                    2038.97765                      13.36005                    -285.16950
                     252.63499                    -186.62050                      86.07087
                   -1318.68824                    -239.92745                     364.36940
                   -2573.63474                    -219.15036                     578.51514
                  -18502.43457                     538.73842                    2889.65591
        </DataArray>
        <DataArray type="Float32" Name="Moment" NumberOfComponents="3" format="ascii">
                       0.00000                       0.00000                       0.00000
                       0.00000                       0.00000                       0.00000
                       0.00000                       0.00000                       0.00000
                       0.00000                       0.00000                       0.00000
                     151.98727                     728.29592                    1106.31468
                     277.85596                    1369.31845                    2080.77114
                     360.02881                    1832.08133                    2785.02966
                     557.42513                    2932.25244                    4459.14770
                     802.89579                    4354.91988                    6624.88890
                     888.98860                    4937.59971                    7513.21295
                     980.96114                    5513.96686                    8391.29771
                    1046.58748                    5856.32783                    8911.88533
                     808.49848                    4413.15049                    6713.93537
                     831.37895                    4328.51580                    6581.70967
                     842.07264                    4089.02640                    6212.43455
                     848.77126                    3830.80359                    5814.71023
                     799.79713                    3373.56076                    5115.94251
                     430.38642                    1685.41416                    2553.11655
                     411.84493                    1550.88309                    2347.89667
        </DataArray>
      </PointData>
      <Lines>
        <DataArray type="Int32" Name="connectivity" format="ascii">
      0      1
      1      2
      2      3
      3      4
      4      5
      5      6
      6      7
      7      8
      8      9
      9     10
     10     11
     11     12
     12     13
     13     14
     14     15
     15     16
     16     17
     17     18
        </DataArray>
        <DataArray type="Int32" Name="offsets" format="ascii">
      2
      4
      6
      8
     10
     12
     14
     16
     18
     20
     22
     24
     26
     28
     30
     32
     34
     36
        </DataArray>
      </Lines>
    </Piece>
  </PolyData>
</VTKFile>
