<?xml version="1.0"?>
<VTKFile type="PolyData" version="0.1" byte_order="LittleEndian">
  <PolyData>
    <Piece NumberOfPoints="     19" NumberOfVerts="  0" NumberOfLines="     18"
           NumberOfStrips="  0" NumberOfPolys="      0">
      <Points>
        <DataArray type="Float32" NumberOfComponents="3" format="ascii">
                      -4.43849                       0.98106                      91.17475
                      -4.39885                       1.87646                      92.20675
                      -4.33033                       3.59587                      94.33331
                      -4.26091                       5.28206                      96.48915
                      -4.16307                       7.37067                      99.20114
                      -3.97333                       9.98680                     102.35660
                      -3.72764                      12.70105                     105.42281
                      -3.43292                      15.41567                     108.48443
                      -3.07582                      18.13062                     111.53898
                      -2.64575                      20.84284                     114.58628
                      -2.13296                      23.54785                     117.62696
                      -1.52697                      26.24496                     120.65757
                      -0.82011                      28.93233                     123.67540
                      -0.00682                      31.60816                     126.67733
                       0.91830                      34.27038                     129.65934
                       1.77722                      36.47696                     132.12559
                       2.51728                      38.24008                     134.07986
                       3.30016                      40.03722                     135.98469
                       3.71004                      40.90116                     136.95855
        </DataArray>
      </Points>
      <PointData>
        <DataArray type="Float32" Name="TranslationalVelocity" NumberOfComponents="3" format="ascii">
                       0.24418                      -1.88374                       1.65404
                       0.39091                      -3.61532                       3.15080
                       0.67344                      -7.18258                       6.02589
                       0.95167                     -10.80095                       8.84681
                       1.29844                     -15.35786                      12.34319
                       1.73617                     -20.67763                      16.72629
                       2.19538                     -25.86305                      21.27843
                       2.66156                     -31.05522                      25.83605
                       3.13571                     -36.25240                      30.39879
                       3.61813                     -41.45608                      34.96103
                       4.10859                     -46.66889                      39.51461
                       4.60714                     -51.88665                      44.05760
                       5.11324                     -57.10581                      48.58609
                       5.62593                     -62.32175                      53.09623
                       6.14367                     -67.52826                      57.58376
                       6.57758                     -71.85410                      61.30300
                       6.92629                     -75.29430                      64.27440
                       7.28226                     -78.66012                      67.30281
                       7.45390                     -80.38306                      68.75837
        </DataArray>
        <DataArray type="Float32" Name="RotationalVelocity" NumberOfComponents="3" format="ascii">
                       1.67142                       0.00158                      -0.16196
                       1.67168                       0.00162                      -0.16203
                       1.67239                       0.00178                      -0.16230
                       1.67331                       0.00202                      -0.16274
                       1.67466                       0.00236                      -0.16357
                       1.67644                       0.00277                      -0.16502
                       1.67827                       0.00314                      -0.16697
                       1.68003                       0.00344                      -0.16938
                       1.68165                       0.00368                      -0.17217
                       1.68308                       0.00389                      -0.17524
                       1.68428                       0.00410                      -0.17846
                       1.68525                       0.00435                      -0.18166
                       1.68601                       0.00467                      -0.18467
                       1.68658                       0.00508                      -0.18730
                       1.68700                       0.00557                      -0.18934
                       1.68729                       0.00601                      -0.19046
                       1.68749                       0.00637                      -0.19085
                       1.68770                       0.00668                      -0.19074
                       1.68782                       0.00682                      -0.19048
        </DataArray>
        <DataArray type="Float32" Name="TranslationalAcceleration" NumberOfComponents="3" format="ascii">
                      -0.46131                      -2.90008                      -3.10442
                      -0.41060                      -3.47465                      -3.74691
                      -1.17374                      -9.75038                     -10.89635
                      -1.86690                     -15.41464                     -17.57747
                      -2.66977                     -21.95192                     -25.46441
                      -3.55221                     -29.65081                     -34.20671
                      -4.39658                     -37.40939                     -42.50999
                      -5.25684                     -45.14426                     -50.82313
                      -6.14535                     -52.95377                     -59.24798
                      -7.06287                     -60.86243                     -67.81832
                      -8.00157                     -68.84396                     -76.51632
                      -8.94727                     -76.85515                     -85.28010
                      -9.88435                     -84.84153                     -94.03749
                     -10.79903                     -92.75973                    -102.72407
                     -11.68289                    -100.59597                    -111.30319
                     -12.39567                    -107.08649                    -118.37667
                     -12.95310                    -112.30725                    -123.99676
                     -13.49484                    -117.70769                    -129.53442
                     -13.77804                    -120.36197                    -132.40997
        </DataArray>
        <DataArray type="Float32" Name="OrientationX" NumberOfComponents="3" format="ascii">
                       0.98537                      -0.14551                       0.08872
                       0.98535                      -0.14595                       0.08821
                       0.98529                      -0.14739                       0.08650
                       0.98519                      -0.14951                       0.08395
                       0.98500                      -0.15303                       0.07970
                       0.98948                      -0.13496                       0.05211
                       0.99175                      -0.12493                       0.02856
                       0.99292                      -0.11870                       0.00510
                       0.99332                      -0.11344                      -0.02102
                       0.99273                      -0.10970                      -0.04949
                       0.99090                      -0.10890                      -0.07906
                       0.98778                      -0.11019                      -0.11019
                       0.98331                      -0.11460                      -0.14133
                       0.97765                      -0.12352                      -0.17013
                       0.97105                      -0.13291                      -0.19849
                       0.96514                      -0.14010                      -0.22109
                       0.96049                      -0.14531                      -0.23739
                       0.95643                      -0.15200                      -0.24928
                       0.95479                      -0.15633                      -0.25287
        </DataArray>
        <DataArray type="Float32" Name="OrientationY" NumberOfComponents="3" format="ascii">
                       0.16791                       0.73980                      -0.65154
                       0.16790                       0.73962                      -0.65174
                       0.16783                       0.73914                      -0.65231
                       0.16773                       0.73853                      -0.65302
                       0.16752                       0.73765                      -0.65407
                       0.13572                       0.74114                      -0.65749
                       0.11260                       0.74310                      -0.65964
                       0.09240                       0.74458                      -0.66111
                       0.07120                       0.74616                      -0.66195
                       0.04963                       0.74782                      -0.66205
                       0.02958                       0.74940                      -0.66145
                       0.01015                       0.75110                      -0.66011
                      -0.00688                       0.75275                      -0.65827
                      -0.01898                       0.75404                      -0.65655
                      -0.03040                       0.75542                      -0.65453
                      -0.03967                       0.75664                      -0.65263
                      -0.04633                       0.75753                      -0.65115
                      -0.04915                       0.75779                      -0.65064
                      -0.04839                       0.75753                      -0.65101
        </DataArray>
        <DataArray type="Float32" Name="OrientationZ" NumberOfComponents="3" format="ascii">
                       0.02917                       0.65690                       0.75341
                       0.02988                       0.65701                       0.75329
                       0.03220                       0.65723                       0.75300
                       0.03563                       0.65743                       0.75267
                       0.04130                       0.65761                       0.75223
                       0.05011                       0.65764                       0.75166
                       0.06119                       0.65742                       0.75104
                       0.07467                       0.65690                       0.75027
                       0.09077                       0.65603                       0.74925
                       0.10964                       0.65478                       0.74782
                       0.13128                       0.65310                       0.74581
                       0.15551                       0.65093                       0.74304
                       0.18182                       0.64826                       0.73940
                       0.20939                       0.64511                       0.73484
                       0.23694                       0.64162                       0.72951
                       0.25873                       0.63864                       0.72471
                       0.27445                       0.63642                       0.72087
                       0.28780                       0.63455                       0.71730
                       0.29333                       0.63381                       0.71571
        </DataArray>
        <DataArray type="Float32" Name="Force" NumberOfComponents="3" format="ascii">
                      -0.21169                       2.51499                      -2.18463
                     159.43704                      46.30325                     -46.70153
                     199.25418                     119.01059                    -112.33050
                     178.76027                     163.83106                    -151.42919
                    1820.53265                    -502.12823                     338.51652
                    2259.50308                    -501.29639                     287.60651
                    2607.91416                    -481.02836                     208.67512
                    3410.80046                    -552.98806                     145.51852
                    3723.70010                    -530.31122                      14.80254
                    4335.15365                    -583.95296                    -121.65918
                    5438.08798                    -700.83493                    -339.66790
                    6207.54988                    -808.32464                    -586.15874
                    7368.55474                   -1056.28893                    -879.22791
                    7980.92535                   -1224.70886                   -1191.55847
                    8485.86513                   -1398.59692                   -1518.39171
                    8757.39022                   -1519.69491                   -1779.92374
                    8567.81296                   -1536.56290                   -1898.92061
                    6297.69002                   -1174.72923                   -1483.21016
                    3164.21131                    -450.66655                    -898.25012
        </DataArray>
        <DataArray type="Float32" Name="Moment" NumberOfComponents="3" format="ascii">
                       0.00000                       0.00000                       0.00000
                       0.00000                       0.00000                       0.00000
                       0.00000                       0.00000                       0.00000
                       0.00000                       0.00000                       0.00000
                     -22.62891                    -359.84573                    -412.06860
                     -59.15860                    -775.68580                    -887.25199
                     -96.95104                   -1041.86937                   -1190.02557
                    -170.69691                   -1504.17584                   -1715.09578
                    -290.55227                   -2107.10205                   -2397.58219
                    -397.20631                   -2384.82129                   -2706.96328
                    -515.29388                   -2581.97484                   -2922.48771
                    -650.35189                   -2746.92908                   -3099.29926
                    -648.15475                   -2335.62826                   -2626.01478
                    -748.42263                   -2333.76700                   -2614.15625
                    -824.48651                   -2262.05786                   -2524.23283
                    -858.87851                   -2149.10213                   -2390.86349
                    -812.12859                   -1909.29179                   -2119.31923
                    -430.26870                    -961.59510                   -1065.31430
                    -389.83025                    -853.63621                    -944.94839
        </DataArray>
      </PointData>
      <Lines>
        <DataArray type="Int32" Name="connectivity" format="ascii">
      0      1
      1      2
      2      3
      3      4
      4      5
      5      6
      6      7
      7      8
      8      9
      9     10
     10     11
     11     12
     12     13
     13     14
     14     15
     15     16
     16     17
     17     18
        </DataArray>
        <DataArray type="Int32" Name="offsets" format="ascii">
      2
      4
      6
      8
     10
     12
     14
     16
     18
     20
     22
     24
     26
     28
     30
     32
     34
     36
        </DataArray>
      </Lines>
    </Piece>
  </PolyData>
</VTKFile>
