<?xml version="1.0"?>
<VTKFile type="PolyData" version="0.1" byte_order="LittleEndian">
  <PolyData>
    <Piece NumberOfPoints="     19" NumberOfVerts="  0" NumberOfLines="     18"
           NumberOfStrips="  0" NumberOfPolys="      0">
      <Points>
        <DataArray type="Float32" NumberOfComponents="3" format="ascii">
                      -4.78847                       0.84631                      88.81578
                      -4.95372                       1.62870                      87.70706
                      -5.29804                       3.27024                      85.54537
                      -5.64523                       4.94799                      83.40893
                      -6.07453                       7.06674                      80.75179
                      -6.52765                       9.49246                      77.47183
                      -6.94045                      11.81152                      74.11148
                      -7.32755                      14.12848                      70.74624
                      -7.68265                      16.44227                      67.37496
                      -8.00295                      18.75483                      63.99901
                      -8.28697                      21.06945                      60.62088
                      -8.53245                      23.38511                      57.24007
                      -8.73975                      25.70183                      53.85710
                      -8.91088                      28.01948                      50.47261
                      -9.04723                      30.33785                      47.08732
                      -9.13748                      32.27000                      44.26619
                      -9.19806                      33.80895                      42.00526
                      -9.24915                      35.30224                      39.71358
                      -9.27538                      36.08264                      38.59197
        </DataArray>
      </Points>
      <PointData>
        <DataArray type="Float32" Name="TranslationalVelocity" NumberOfComponents="3" format="ascii">
                       0.17819                       3.09412                       2.13152
                       0.36350                       5.89860                       4.08297
                       0.75217                      11.36975                       8.17573
                       1.14878                      16.77553                      12.35626
                       1.64801                      23.49323                      17.63139
                       2.21638                      31.75928                      23.66450
                       2.75542                      40.20607                      29.42581
                       3.28933                      48.64892                      35.17558
                       3.81800                      57.08979                      40.91157
                       4.34249                      65.52550                      46.63905
                       4.86465                      73.95066                      52.36680
                       5.38576                      82.36733                      58.09299
                       5.90775                      90.77563                      63.81845
                       6.43288                      99.17573                      69.54358
                       6.96374                     107.56728                      75.26855
                       7.41266                     114.55366                      80.03875
                       7.77575                     120.14949                      83.83776
                       8.13567                     125.81862                      87.52373
                       8.32484                     128.59327                      89.44996
        </DataArray>
        <DataArray type="Float32" Name="RotationalVelocity" NumberOfComponents="3" format="ascii">
                       2.49473                      -0.00055                      -0.23618
                       2.49431                      -0.00055                      -0.23615
                       2.49314                      -0.00049                      -0.23595
                       2.49163                      -0.00032                      -0.23566
                       2.48945                       0.00010                      -0.23525
                       2.48661                       0.00086                      -0.23475
                       2.48375                       0.00179                      -0.23424
                       2.48103                       0.00272                      -0.23365
                       2.47857                       0.00340                      -0.23287
                       2.47643                       0.00360                      -0.23175
                       2.47462                       0.00307                      -0.23018
                       2.47315                       0.00163                      -0.22806
                       2.47199                      -0.00084                      -0.22535
                       2.47111                      -0.00435                      -0.22211
                       2.47048                      -0.00880                      -0.21850
                       2.47012                      -0.01303                      -0.21542
                       2.46996                      -0.01659                      -0.21310
                       2.46990                      -0.02011                      -0.21109
                       2.46991                      -0.02179                      -0.21027
        </DataArray>
        <DataArray type="Float32" Name="TranslationalAcceleration" NumberOfComponents="3" format="ascii">
                       0.69067                      -5.31754                       7.68241
                       0.88108                      -6.45555                       9.31167
                       2.49986                     -18.94877                      26.30435
                       3.99472                     -30.68999                      41.73426
                       5.78270                     -44.56009                      59.59510
                       7.97134                     -59.60022                      80.32760
                      10.29666                     -73.52653                     100.92516
                      12.78635                     -87.33175                     121.42767
                      15.47279                    -101.18738                     142.10460
                      18.35117                    -115.16462                     163.03781
                      21.37992                    -129.25844                     184.17732
                      24.48277                    -143.38786                     205.41489
                      27.54721                    -157.46424                     226.61038
                      30.42541                    -171.41899                     247.64673
                      32.93480                    -185.24025                     268.47821
                      34.57625                    -196.70774                     285.73021
                      35.50533                    -205.87760                     299.57222
                      36.00539                    -214.89741                     313.73717
                      36.06859                    -219.70307                     320.77835
        </DataArray>
        <DataArray type="Float32" Name="OrientationX" NumberOfComponents="3" format="ascii">
                       0.97699                       0.21324                       0.00451
                       0.97704                       0.21299                       0.00488
                       0.97719                       0.21229                       0.00609
                       0.97738                       0.21132                       0.00790
                       0.97768                       0.20982                       0.01093
                       0.98324                       0.18228                      -0.00279
                       0.98679                       0.16170                      -0.00996
                       0.98953                       0.14368                      -0.01399
                       0.99197                       0.12532                      -0.01709
                       0.99404                       0.10738                      -0.01889
                       0.99563                       0.09160                      -0.01836
                       0.99687                       0.07740                      -0.01627
                       0.99772                       0.06636                      -0.01196
                       0.99815                       0.06060                      -0.00458
                       0.99840                       0.05653                       0.00254
                       0.99851                       0.05406                       0.00734
                       0.99854                       0.05309                       0.01013
                       0.99836                       0.05564                       0.01333
                       0.99815                       0.05882                       0.01534
        </DataArray>
        <DataArray type="Float32" Name="OrientationY" NumberOfComponents="3" format="ascii">
                       0.17582                      -0.79322                      -0.58301
                       0.17586                      -0.79335                      -0.58281
                       0.17605                      -0.79368                      -0.58231
                       0.17639                      -0.79408                      -0.58166
                       0.17702                      -0.79462                      -0.58072
                       0.14694                      -0.80150                      -0.57966
                       0.12622                      -0.80593                      -0.57840
                       0.10935                      -0.80929                      -0.57715
                       0.09269                      -0.81221                      -0.57595
                       0.07707                      -0.81462                      -0.57485
                       0.06452                      -0.81636                      -0.57393
                       0.05413                      -0.81763                      -0.57319
                       0.04757                      -0.81842                      -0.57266
                       0.04708                      -0.81870                      -0.57229
                       0.04782                      -0.81886                      -0.57200
                       0.04854                      -0.81896                      -0.57180
                       0.04935                      -0.81900                      -0.57167
                       0.05326                      -0.81885                      -0.57153
                       0.05702                      -0.81865                      -0.57145
        </DataArray>
        <DataArray type="Float32" Name="OrientationZ" NumberOfComponents="3" format="ascii">
                      -0.12074                       0.57038                      -0.81246
                      -0.12027                       0.57029                      -0.81259
                      -0.11879                       0.57009                      -0.81295
                      -0.11665                       0.56990                      -0.81339
                      -0.11316                       0.56969                      -0.81403
                      -0.10789                       0.56954                      -0.81485
                      -0.10156                       0.56950                      -0.81569
                      -0.09425                       0.56957                      -0.81652
                      -0.08606                       0.56974                      -0.81731
                      -0.07711                       0.56997                      -0.81804
                      -0.06756                       0.57024                      -0.81870
                      -0.05767                       0.57052                      -0.81926
                      -0.04779                       0.57078                      -0.81971
                      -0.03843                       0.57102                      -0.82004
                      -0.03025                       0.57120                      -0.82025
                      -0.02490                       0.57130                      -0.82036
                      -0.02205                       0.57133                      -0.82042
                      -0.02089                       0.57131                      -0.82047
                      -0.02106                       0.57127                      -0.82049
        </DataArray>
        <DataArray type="Float32" Name="Force" NumberOfComponents="3" format="ascii">
                      -0.52542                      -8.01929                      -5.55186
                     136.46039                     -61.21691                     -63.17203
                     211.18658                    -203.08080                    -173.40229
                     213.74305                    -322.99579                    -257.30774
                    1410.44696                     318.14571                      27.03255
                    1465.57017                     250.62356                     -18.42204
                    1518.42850                     189.46823                     -56.37616
                    2265.01102                     253.09888                     -84.35776
                    2729.13054                     234.30854                    -123.57432
                    3203.38690                     209.72594                    -155.46320
                    4770.53605                     228.14926                    -234.45271
                    5467.98414                     181.03082                    -258.67264
                    5827.53965                     153.08884                    -233.17694
                    5806.32204                      91.77841                    -208.38221
                    5524.17702                      32.57878                    -181.34495
                    5076.36687                     -15.98455                    -165.46986
                    4426.37819                     -49.06642                    -153.36727
                    2547.13308                     -59.91860                    -106.62893
                   -4844.45885                      39.55846                     152.15264
        </DataArray>
        <DataArray type="Float32" Name="Moment" NumberOfComponents="3" format="ascii">
                       0.00000                       0.00000                       0.00000
                       0.00000                       0.00000                       0.00000
                       0.00000                       0.00000                       0.00000
                       0.00000                       0.00000                       0.00000
                     124.07710                    -625.89526                     892.32126
                     218.86743                   -1158.40177                    1652.52040
                     275.84939                   -1551.60435                    2215.08249
                     402.37142                   -2439.23957                    3485.23824
                     541.39656                   -3594.62547                    5140.95864
                     551.66470                   -4087.92332                    5852.52261
                     537.40383                   -4544.15344                    6512.86615
                     489.07396                   -4842.95184                    6949.03437
                     311.06698                   -3714.28775                    5335.60105
                     249.90779                   -3706.91251                    5330.73608
                     190.72930                   -3588.54353                    5165.36062
                     149.14362                   -3405.18452                    4904.44643
                     117.47664                   -3025.01476                    4358.31359
                      55.84887                   -1517.73069                    2186.97496
                      52.71103                   -1421.15941                    2047.78118
        </DataArray>
      </PointData>
      <Lines>
        <DataArray type="Int32" Name="connectivity" format="ascii">
      0      1
      1      2
      2      3
      3      4
      4      5
      5      6
      6      7
      7      8
      8      9
      9     10
     10     11
     11     12
     12     13
     13     14
     14     15
     15     16
     16     17
     17     18
        </DataArray>
        <DataArray type="Int32" Name="offsets" format="ascii">
      2
      4
      6
      8
     10
     12
     14
     16
     18
     20
     22
     24
     26
     28
     30
     32
     34
     36
        </DataArray>
      </Lines>
    </Piece>
  </PolyData>
</VTKFile>
