<?xml version="1.0"?>
<VTKFile type="PolyData" version="0.1" byte_order="LittleEndian">
  <PolyData>
    <Piece NumberOfPoints="     19" NumberOfVerts="  0" NumberOfLines="     18"
           NumberOfStrips="  0" NumberOfPolys="      0">
      <Points>
        <DataArray type="Float32" NumberOfComponents="3" format="ascii">
                      -4.90419                      -0.72263                      88.72213
                      -5.07468                      -1.37613                      87.53388
                      -5.43917                      -2.59910                      85.11441
                      -5.81185                      -3.78166                      82.67377
                      -6.27749                      -5.23459                      79.60886
                      -6.76330                      -7.10163                      75.98912
                      -7.19930                      -9.07936                      72.42371
                      -7.61112                     -11.05495                      68.85418
                      -7.99013                     -13.02965                      65.28050
                      -8.33090                     -15.00154                      61.70146
                      -8.62886                     -16.96727                      58.11527
                      -8.87776                     -18.92819                      54.52266
                      -9.07375                     -20.88443                      50.92409
                      -9.21435                     -22.83626                      47.32031
                      -9.29627                     -24.78392                      43.71231
                      -9.31885                     -26.40411                      40.70348
                      -9.30947                     -27.70567                      38.29967
                      -9.27575                     -29.05470                      35.92185
                      -9.25271                     -29.69200                      34.71388
        </DataArray>
      </Points>
      <PointData>
        <DataArray type="Float32" Name="TranslationalVelocity" NumberOfComponents="3" format="ascii">
                       0.23004                       1.02578                      -0.53904
                       0.17642                       1.96973                      -1.05051
                       0.07502                       3.89261                      -2.00723
                      -0.02358                       5.83207                      -2.93197
                      -0.14513                       8.26651                      -4.06773
                      -0.29978                      11.13570                      -5.52718
                      -0.46247                      13.95744                      -7.07283
                      -0.62556                      16.77948                      -8.61620
                      -0.78941                      19.60142                     -10.15840
                      -0.95421                      22.42400                     -11.69807
                      -1.12006                      25.24849                     -13.23273
                      -1.28739                      28.07403                     -14.76359
                      -1.45657                      30.90012                     -16.29089
                      -1.62793                      33.72603                     -17.81493
                      -1.80181                      36.55072                     -19.33597
                      -1.94889                      38.90269                     -20.60147
                      -2.06851                      40.77944                     -21.61821
                      -2.19287                      42.63373                     -22.67209
                      -2.25305                      43.57512                     -23.16996
        </DataArray>
        <DataArray type="Float32" Name="RotationalVelocity" NumberOfComponents="3" format="ascii">
                       0.78410                       0.00526                      -0.07254
                       0.78402                       0.00526                      -0.07253
                       0.78383                       0.00526                      -0.07251
                       0.78359                       0.00528                      -0.07250
                       0.78327                       0.00531                      -0.07251
                       0.78288                       0.00537                      -0.07254
                       0.78252                       0.00545                      -0.07260
                       0.78220                       0.00557                      -0.07271
                       0.78194                       0.00574                      -0.07285
                       0.78174                       0.00599                      -0.07302
                       0.78158                       0.00632                      -0.07322
                       0.78146                       0.00674                      -0.07344
                       0.78136                       0.00727                      -0.07366
                       0.78128                       0.00788                      -0.07388
                       0.78120                       0.00856                      -0.07408
                       0.78113                       0.00916                      -0.07424
                       0.78108                       0.00964                      -0.07435
                       0.78103                       0.01011                      -0.07444
                       0.78100                       0.01033                      -0.07448
        </DataArray>
        <DataArray type="Float32" Name="TranslationalAcceleration" NumberOfComponents="3" format="ascii">
                      -0.15811                       0.53883                       0.68677
                       0.02489                       0.66570                       0.88888
                       0.10639                       1.86334                       2.58042
                       0.21842                       2.94166                       4.16676
                       0.38271                       4.18698                       6.04266
                       0.58624                       5.66742                       8.13389
                       0.78081                       7.17092                      10.12484
                       0.96399                       8.66781                      12.11046
                       1.13516                      10.17680                      14.11448
                       1.30075                      11.70212                      16.14495
                       1.47342                      13.23827                      18.19838
                       1.67096                      14.77734                      20.26231
                       1.91567                      16.30946                      22.32260
                       2.23355                      17.82725                      24.36769
                       2.65332                      19.32962                      26.39343
                       3.10573                      20.57551                      28.07204
                       3.54446                      21.58083                      29.41367
                       4.05972                      22.62887                      30.74874
                       4.35236                      23.14156                      31.44073
        </DataArray>
        <DataArray type="Float32" Name="OrientationX" NumberOfComponents="3" format="ascii">
                       0.95446                       0.18141                      -0.23686
                       0.95450                       0.18160                      -0.23653
                       0.95466                       0.18217                      -0.23547
                       0.95488                       0.18301                      -0.23391
                       0.95524                       0.18440                      -0.23132
                       0.96396                       0.15910                      -0.21324
                       0.96990                       0.14191                      -0.19786
                       0.97487                       0.12774                      -0.18251
                       0.97974                       0.11312                      -0.16526
                       0.98433                       0.09851                      -0.14626
                       0.98830                       0.08546                      -0.12632
                       0.99178                       0.07303                      -0.10508
                       0.99453                       0.06262                      -0.08362
                       0.99639                       0.05629                      -0.06360
                       0.99779                       0.05002                      -0.04378
                       0.99862                       0.04438                      -0.02796
                       0.99906                       0.03997                      -0.01664
                       0.99922                       0.03849                      -0.00860
                       0.99920                       0.03949                      -0.00634
        </DataArray>
        <DataArray type="Float32" Name="OrientationY" NumberOfComponents="3" format="ascii">
                       0.27130                      -0.85805                       0.43605
                       0.27130                      -0.85806                       0.43604
                       0.27129                      -0.85808                       0.43600
                       0.27126                      -0.85811                       0.43597
                       0.27122                      -0.85814                       0.43594
                       0.24054                      -0.86367                       0.44297
                       0.21819                      -0.86721                       0.44760
                       0.19849                      -0.87001                       0.45132
                       0.17750                      -0.87266                       0.45493
                       0.15567                      -0.87508                       0.45827
                       0.13477                      -0.87710                       0.46101
                       0.11380                      -0.87887                       0.46329
                       0.09451                      -0.88030                       0.46490
                       0.07953                      -0.88132                       0.46577
                       0.06469                      -0.88223                       0.46636
                       0.05230                      -0.88289                       0.46667
                       0.04312                      -0.88330                       0.46682
                       0.03805                      -0.88347                       0.46694
                       0.03788                      -0.88343                       0.46703
        </DataArray>
        <DataArray type="Float32" Name="OrientationZ" NumberOfComponents="3" format="ascii">
                      -0.12413                      -0.48045                      -0.86819
                      -0.12378                      -0.48037                      -0.86829
                      -0.12263                      -0.48011                      -0.86859
                      -0.12094                      -0.47975                      -0.86903
                      -0.11812                      -0.47916                      -0.86974
                      -0.11370                      -0.47830                      -0.87081
                      -0.10807                      -0.47730                      -0.87207
                      -0.10113                      -0.47621                      -0.87350
                      -0.09275                      -0.47505                      -0.87506
                      -0.08285                      -0.47385                      -0.87670
                      -0.07140                      -0.47264                      -0.87836
                      -0.05852                      -0.47144                      -0.87996
                      -0.04450                      -0.47026                      -0.88141
                      -0.02984                      -0.46915                      -0.88262
                      -0.01529                      -0.46816                      -0.88351
                      -0.00398                      -0.46749                      -0.88399
                       0.00396                      -0.46710                      -0.88419
                       0.01037                      -0.46691                      -0.88425
                       0.01284                      -0.46689                      -0.88422
        </DataArray>
        <DataArray type="Float32" Name="Force" NumberOfComponents="3" format="ascii">
                       0.15623                      -3.09117                       1.68829
                     122.15789                     -36.60237                       2.84067
                     157.46318                     -73.68687                      18.53849
                     136.97301                     -84.26898                      27.55332
                    1162.23893                     332.54097                    -341.79021
                    1232.90912                     314.59565                    -334.93655
                    1504.31419                     398.25694                    -406.52293
                    1638.66130                     448.31452                    -437.30396
                    1830.92200                     495.91026                    -467.66672
                    2106.61921                     526.99401                    -489.42769
                    2410.47071                     599.37985                    -525.60774
                    2731.82690                     634.33675                    -529.83163
                    3414.25464                     723.18455                    -568.26246
                    3671.81834                     750.77512                    -533.96000
                    3864.71668                     763.43243                    -482.42218
                    3950.88868                     757.89637                    -429.30170
                    3855.59498                     705.17534                    -364.91642
                    2782.45022                     475.44211                    -224.59499
                    1020.57899                      34.07984                      -2.97328
        </DataArray>
        <DataArray type="Float32" Name="Moment" NumberOfComponents="3" format="ascii">
                       0.00000                       0.00000                       0.00000
                       0.00000                       0.00000                       0.00000
                       0.00000                       0.00000                       0.00000
                       0.00000                       0.00000                       0.00000
                      61.49580                     250.35012                     452.68846
                      70.64649                     298.97262                     540.86717
                      67.08782                     298.91569                     541.09224
                      68.87518                     328.20858                     594.56073
                      56.24819                     292.53734                     530.41687
                      52.19124                     304.26250                     552.26051
                      42.99962                     291.31058                     529.39673
                      39.01422                     323.12666                     588.01927
                      37.59201                     410.76244                     748.60785
                      24.63912                     404.12426                     737.65229
                      11.94841                     389.71096                     712.43662
                       2.61021                     370.23058                     677.63310
                      -3.14370                     330.18600                     604.84584
                      -3.84296                     167.74890                     307.49591
                      -4.24563                     151.35416                     277.51518
        </DataArray>
      </PointData>
      <Lines>
        <DataArray type="Int32" Name="connectivity" format="ascii">
      0      1
      1      2
      2      3
      3      4
      4      5
      5      6
      6      7
      7      8
      8      9
      9     10
     10     11
     11     12
     12     13
     13     14
     14     15
     15     16
     16     17
     17     18
        </DataArray>
        <DataArray type="Int32" Name="offsets" format="ascii">
      2
      4
      6
      8
     10
     12
     14
     16
     18
     20
     22
     24
     26
     28
     30
     32
     34
     36
        </DataArray>
      </Lines>
    </Piece>
  </PolyData>
</VTKFile>
