<?xml version="1.0"?>
<VTKFile type="PolyData" version="0.1" byte_order="LittleEndian">
  <PolyData>
    <Piece NumberOfPoints="     19" NumberOfVerts="  0" NumberOfLines="     18"
           NumberOfStrips="  0" NumberOfPolys="      0">
      <Points>
        <DataArray type="Float32" NumberOfComponents="3" format="ascii">
                      -4.74773                       0.71553                      91.33515
                      -4.69826                       1.36529                      92.53685
                      -4.61515                       2.58184                      94.98631
                      -4.53646                       3.75972                      97.45758
                      -4.43527                       5.20978                     100.55956
                      -4.25302                       7.07796                     104.21000
                      -4.03404                       9.06189                     107.79583
                      -3.79742                      11.04894                     111.37925
                      -3.54047                      13.04042                     114.95933
                      -3.26475                      15.03442                     118.53717
                      -2.97373                      17.02761                     122.11477
                      -2.67045                      19.02130                     125.69155
                      -2.36088                      21.01566                     129.26770
                      -2.05282                      23.01107                     132.84333
                      -1.75353                      25.00786                     136.41844
                      -1.51920                      26.67351                     139.39732
                      -1.34592                      28.01425                     141.77622
                      -1.18503                      29.40439                     144.12809
                      -1.11789                      30.06407                     145.32403
        </DataArray>
      </Points>
      <PointData>
        <DataArray type="Float32" Name="TranslationalVelocity" NumberOfComponents="3" format="ascii">
                       0.16608                      -3.64888                       1.97358
                       0.32953                      -6.97487                       3.76521
                       0.63721                     -13.75383                       7.12149
                       0.93805                     -20.59781                      10.37359
                       1.31384                     -29.19909                      14.38098
                       1.80644                     -39.35238                      19.55019
                       2.34022                     -49.35284                      25.04782
                       2.88826                     -59.36767                      30.56247
                       3.45183                     -69.39404                      36.09714
                       4.03112                     -79.43332                      41.64568
                       4.62580                     -89.48863                      47.19780
                       5.23662                     -99.55583                      52.75608
                       5.86404                    -109.63217                      58.32009
                       6.50867                    -119.71447                      63.89021
                       7.17133                    -129.79969                      69.46692
                       7.73858                    -138.20377                      74.12105
                       8.20411                    -144.91445                      77.86894
                       8.69142                    -151.54908                      81.75675
                       8.92978                    -154.92002                      83.60258
        </DataArray>
        <DataArray type="Float32" Name="RotationalVelocity" NumberOfComponents="3" format="ascii">
                       2.75668                      -0.00015                      -0.25147
                       2.75738                       0.00003                      -0.25161
                       2.75929                       0.00067                      -0.25208
                       2.76172                       0.00162                      -0.25281
                       2.76520                       0.00314                      -0.25403
                       2.76969                       0.00530                      -0.25586
                       2.77416                       0.00771                      -0.25799
                       2.77839                       0.01030                      -0.26029
                       2.78225                       0.01306                      -0.26266
                       2.78570                       0.01600                      -0.26500
                       2.78873                       0.01917                      -0.26722
                       2.79140                       0.02259                      -0.26926
                       2.79375                       0.02628                      -0.27112
                       2.79583                       0.03023                      -0.27281
                       2.79765                       0.03438                      -0.27439
                       2.79896                       0.03790                      -0.27572
                       2.79982                       0.04067                      -0.27686
                       2.80045                       0.04333                      -0.27814
                       2.80067                       0.04459                      -0.27886
        </DataArray>
        <DataArray type="Float32" Name="TranslationalAcceleration" NumberOfComponents="3" format="ascii">
                      -1.09609                      -5.55052                     -10.23871
                      -1.21310                      -6.66029                     -12.20794
                      -3.49148                     -18.43720                     -35.26719
                      -5.58343                     -28.93995                     -56.65998
                      -8.01041                     -40.99242                     -81.79419
                     -10.68161                     -55.64899                    -109.93572
                     -13.20312                     -70.86109                    -136.94526
                     -15.69562                     -86.10024                    -163.95530
                     -18.20465                    -101.53922                    -191.31026
                     -20.75323                    -117.19789                    -219.13138
                     -23.34623                    -132.99565                    -247.37385
                     -25.97319                    -148.83879                    -275.86818
                     -28.61586                    -164.61603                    -304.41105
                     -31.25288                    -180.24892                    -332.82671
                     -33.86511                    -195.72951                    -361.03520
                     -36.01277                    -208.58587                    -384.43499
                     -37.70769                    -218.98804                    -403.15574
                     -39.36791                    -229.94653                    -421.85987
                     -40.21045                    -235.25328                    -431.49593
        </DataArray>
        <DataArray type="Float32" Name="OrientationX" NumberOfComponents="3" format="ascii">
                       0.98158                      -0.18192                       0.05835
                       0.98156                      -0.18211                       0.05804
                       0.98148                      -0.18283                       0.05713
                       0.98134                      -0.18398                       0.05585
                       0.98107                      -0.18600                       0.05384
                       0.98615                      -0.16193                       0.03581
                       0.98893                      -0.14672                       0.02199
                       0.99072                      -0.13553                       0.01006
                       0.99213                      -0.12517                      -0.00141
                       0.99314                      -0.11633                      -0.01162
                       0.99367                      -0.11070                      -0.01921
                       0.99393                      -0.10734                      -0.02428
                       0.99388                      -0.10745                      -0.02570
                       0.99339                      -0.11263                      -0.02209
                       0.99287                      -0.11816                      -0.01559
                       0.99251                      -0.12190                      -0.00832
                       0.99227                      -0.12410                      -0.00112
                       0.99176                      -0.12781                       0.00873
                       0.99131                      -0.13070                       0.01493
        </DataArray>
        <DataArray type="Float32" Name="OrientationY" NumberOfComponents="3" format="ascii">
                       0.18757                       0.85963                      -0.47525
                       0.18758                       0.85953                      -0.47542
                       0.18776                       0.85926                      -0.47584
                       0.18813                       0.85888                      -0.47637
                       0.18891                       0.85830                      -0.47711
                       0.15912                       0.86301                      -0.47947
                       0.13912                       0.86562                      -0.48098
                       0.12355                       0.86738                      -0.48206
                       0.10894                       0.86891                      -0.48283
                       0.09627                       0.87013                      -0.48332
                       0.08767                       0.87087                      -0.48364
                       0.08227                       0.87126                      -0.48387
                       0.08166                       0.87118                      -0.48413
                       0.08790                       0.87036                      -0.48450
                       0.09585                       0.86935                      -0.48482
                       0.10260                       0.86849                      -0.48498
                       0.10799                       0.86782                      -0.48500
                       0.11598                       0.86686                      -0.48487
                       0.12150                       0.86620                      -0.48470
        </DataArray>
        <DataArray type="Float32" Name="OrientationZ" NumberOfComponents="3" format="ascii">
                       0.03629                       0.47744                       0.87791
                       0.03669                       0.47754                       0.87784
                       0.03791                       0.47776                       0.87767
                       0.03968                       0.47799                       0.87747
                       0.04253                       0.47826                       0.87719
                       0.04673                       0.47852                       0.87683
                       0.05153                       0.47871                       0.87646
                       0.05661                       0.47883                       0.87608
                       0.06166                       0.47888                       0.87571
                       0.06633                       0.47889                       0.87537
                       0.07027                       0.47889                       0.87506
                       0.07309                       0.47893                       0.87480
                       0.07441                       0.47907                       0.87462
                       0.07380                       0.47936                       0.87451
                       0.07084                       0.47987                       0.87448
                       0.06635                       0.48049                       0.87449
                       0.06116                       0.48113                       0.87451
                       0.05441                       0.48189                       0.87454
                       0.05042                       0.48230                       0.87455
        </DataArray>
        <DataArray type="Float32" Name="Force" NumberOfComponents="3" format="ascii">
                      -0.62030                      12.55000                      -6.79952
                     179.95679                     103.75805                     -63.95189
                     260.74086                     304.68674                    -176.99323
                     256.61917                     458.83054                    -261.22459
                    1613.63775                    -313.85693                      92.53591
                    1598.04847                    -225.69701                      37.67289
                    1562.28244                    -145.51917                     -12.60806
                    2327.79724                    -210.49830                     -35.71680
                    2763.47454                    -198.79240                     -86.18731
                    3096.05595                    -179.56656                    -136.64496
                    4698.10471                    -238.63300                    -247.01557
                    5043.23052                    -218.59662                    -302.00116
                    4359.51066                    -157.81842                    -284.64879
                    3021.93001                     -33.14047                    -236.87161
                    1256.59466                     115.30506                    -164.71932
                    1944.34747                     -50.46368                    -119.98660
                     510.91162                     166.50232                    -126.52260
                    -983.93956                     201.55757                     -48.56249
                  -16894.68883                     -72.79317                    1014.71246
        </DataArray>
        <DataArray type="Float32" Name="Moment" NumberOfComponents="3" format="ascii">
                       0.00000                       0.00000                       0.00000
                       0.00000                       0.00000                       0.00000
                       0.00000                       0.00000                       0.00000
                       0.00000                       0.00000                       0.00000
                     -54.51312                    -611.65432                   -1123.96940
                    -112.64855                   -1150.27394                   -2112.80675
                    -167.65761                   -1552.94277                   -2851.00225
                    -294.47643                   -2483.31236                   -4556.63450
                    -476.27493                   -3688.26214                   -6764.04917
                    -584.35175                   -4206.98428                   -7711.60534
                    -692.27405                   -4705.13963                   -8621.21507
                    -768.30165                   -5020.43656                   -9196.22906
                    -594.84806                   -3818.34315                   -6993.32517
                    -583.98793                   -3778.95478                   -6921.61601
                    -533.63882                   -3595.71997                   -6588.00910
                    -467.44983                   -3361.22282                   -6161.23131
                    -381.13797                   -2971.02807                   -5448.91512
                    -169.53744                   -1483.70593                   -2723.03896
                    -145.19601                   -1370.20568                   -2515.76991
        </DataArray>
      </PointData>
      <Lines>
        <DataArray type="Int32" Name="connectivity" format="ascii">
      0      1
      1      2
      2      3
      3      4
      4      5
      5      6
      6      7
      7      8
      8      9
      9     10
     10     11
     11     12
     12     13
     13     14
     14     15
     15     16
     16     17
     17     18
        </DataArray>
        <DataArray type="Int32" Name="offsets" format="ascii">
      2
      4
      6
      8
     10
     12
     14
     16
     18
     20
     22
     24
     26
     28
     30
     32
     34
     36
        </DataArray>
      </Lines>
    </Piece>
  </PolyData>
</VTKFile>
