<?xml version="1.0"?>
<VTKFile type="PolyData" version="0.1" byte_order="LittleEndian">
  <PolyData>
    <Piece NumberOfPoints="     19" NumberOfVerts="  0" NumberOfLines="     18"
           NumberOfStrips="  0" NumberOfPolys="      0">
      <Points>
        <DataArray type="Float32" NumberOfComponents="3" format="ascii">
                      -4.47959                      -0.26688                      91.51527
                      -4.41139                      -0.50038                      92.86032
                      -4.29308                      -1.06091                      95.53517
                      -4.17714                      -1.66649                      98.20254
                      -4.02269                      -2.45196                     101.53179
                      -3.75244                      -3.25791                     105.54552
                      -3.41415                      -3.94141                     109.57571
                      -3.02442                      -4.62897                     113.60066
                      -2.56930                      -5.31944                     117.61819
                      -2.03789                      -6.01501                     121.62528
                      -1.42033                      -6.71923                     125.61834
                      -0.70568                      -7.43014                     129.59410
                       0.11398                      -8.14683                     133.54891
                       1.04439                      -8.86795                     137.47895
                       2.09094                      -9.59169                     141.37960
                       3.05436                     -10.19506                     144.60389
                       3.88063                     -10.66894                     147.16656
                       4.75587                     -11.08677                     149.72172
                       5.20909                     -11.33556                     150.98464
        </DataArray>
      </Points>
      <PointData>
        <DataArray type="Float32" Name="TranslationalVelocity" NumberOfComponents="3" format="ascii">
                       0.03410                      -2.38426                      -0.40320
                      -0.00047                      -4.56666                      -0.78029
                      -0.08407                      -8.90634                      -1.68597
                      -0.17430                     -13.23698                      -2.66535
                      -0.29063                     -18.64929                      -3.93732
                      -0.40741                     -25.19602                      -5.24505
                      -0.50313                     -31.78997                      -6.35651
                      -0.59801                     -38.39344                      -7.47643
                      -0.69289                     -45.00454                      -8.60279
                      -0.78953                     -51.61936                      -9.73889
                      -0.89027                     -58.23273                     -10.89009
                      -0.99681                     -64.84017                     -12.05266
                      -1.11116                     -71.43632                     -13.22441
                      -1.23537                     -78.01542                     -14.40224
                      -1.37141                     -84.57084                     -15.58213
                      -1.49540                     -90.01033                     -16.56305
                      -1.60034                     -94.34695                     -17.33110
                      -1.70172                     -98.68286                     -18.00524
                      -1.76313                    -100.83095                     -18.40609
        </DataArray>
        <DataArray type="Float32" Name="RotationalVelocity" NumberOfComponents="3" format="ascii">
                       1.61434                       0.00101                      -0.15429
                       1.61474                       0.00104                      -0.15434
                       1.61578                       0.00118                      -0.15450
                       1.61708                       0.00145                      -0.15479
                       1.61894                       0.00194                      -0.15540
                       1.62131                       0.00269                      -0.15661
                       1.62362                       0.00352                      -0.15843
                       1.62570                       0.00431                      -0.16091
                       1.62742                       0.00494                      -0.16406
                       1.62871                       0.00527                      -0.16785
                       1.62953                       0.00521                      -0.17218
                       1.62990                       0.00463                      -0.17688
                       1.62988                       0.00347                      -0.18175
                       1.62958                       0.00169                      -0.18649
                       1.62915                      -0.00073                      -0.19074
                       1.62883                      -0.00317                      -0.19362
                       1.62871                      -0.00539                      -0.19527
                       1.62878                      -0.00778                      -0.19613
                       1.62892                      -0.00903                      -0.19622
        </DataArray>
        <DataArray type="Float32" Name="TranslationalAcceleration" NumberOfComponents="3" format="ascii">
                      -0.20768                       0.57705                      -3.89471
                      -0.40322                       0.67697                      -4.70335
                      -1.17440                       2.17677                     -13.42826
                      -1.91079                       3.69463                     -21.44482
                      -2.80131                       5.56977                     -30.81120
                      -3.85103                       7.37065                     -41.53342
                      -4.89820                       8.80274                     -52.05192
                      -5.95116                      10.24119                     -62.56952
                      -7.01586                      11.70279                     -73.21413
                      -8.09372                      13.20007                     -84.02003
                      -9.18342                      14.73967                     -94.95418
                     -10.28302                      16.30779                    -105.94503
                     -11.39155                      17.89153                    -116.90652
                     -12.51077                      19.47874                    -127.76490
                     -13.64693                      21.06174                    -138.48382
                     -14.61612                      22.37745                    -147.32588
                     -15.41380                      23.40922                    -154.38409
                     -16.24349                      24.30142                    -161.50967
                     -16.66872                      24.86369                    -165.09676
        </DataArray>
        <DataArray type="Float32" Name="OrientationX" NumberOfComponents="3" format="ascii">
                       0.96811                      -0.23402                      -0.08943
                       0.96807                      -0.23390                      -0.09016
                       0.96795                      -0.23348                      -0.09252
                       0.96776                      -0.23285                      -0.09603
                       0.96741                      -0.23182                      -0.10187
                       0.97411                      -0.19957                      -0.10618
                       0.97785                      -0.17543                      -0.11416
                       0.98017                      -0.15371                      -0.12506
                       0.98173                      -0.13050                      -0.13845
                       0.98225                      -0.10631                      -0.15454
                       0.98131                      -0.08292                      -0.17363
                       0.97894                      -0.05939                      -0.19532
                       0.97491                      -0.03752                      -0.21940
                       0.96920                      -0.01998                      -0.24545
                       0.96244                      -0.00279                      -0.27148
                       0.95638                       0.01129                      -0.29191
                       0.95159                       0.02159                      -0.30661
                       0.94715                       0.02753                      -0.31962
                       0.94517                       0.02804                      -0.32536
        </DataArray>
        <DataArray type="Float32" Name="OrientationY" NumberOfComponents="3" format="ascii">
                       0.24543                       0.95756                       0.15116
                       0.24543                       0.95758                       0.15104
                       0.24540                       0.95764                       0.15071
                       0.24535                       0.95771                       0.15029
                       0.24528                       0.95783                       0.14965
                       0.21426                       0.96485                       0.15216
                       0.19186                       0.96927                       0.15397
                       0.17239                       0.97264                       0.15570
                       0.15196                       0.97570                       0.15785
                       0.13113                       0.97829                       0.16046
                       0.11172                       0.98023                       0.16331
                       0.09280                       0.98164                       0.16663
                       0.07610                       0.98248                       0.17011
                       0.06408                       0.98283                       0.17302
                       0.05255                       0.98296                       0.17617
                       0.04303                       0.98291                       0.17900
                       0.03607                       0.98279                       0.18115
                       0.03286                       0.98275                       0.18202
                       0.03338                       0.98280                       0.18165
        </DataArray>
        <DataArray type="Float32" Name="OrientationZ" NumberOfComponents="3" format="ascii">
                       0.05026                      -0.16829                       0.98446
                       0.05101                      -0.16835                       0.98441
                       0.05341                      -0.16859                       0.98424
                       0.05698                      -0.16901                       0.98397
                       0.06289                      -0.16976                       0.98348
                       0.07209                      -0.17097                       0.98264
                       0.08364                      -0.17246                       0.98146
                       0.09770                      -0.17417                       0.97986
                       0.11448                      -0.17601                       0.97771
                       0.13413                      -0.17787                       0.97487
                       0.15665                      -0.17966                       0.97118
                       0.18184                      -0.18125                       0.96648
                       0.20917                      -0.18254                       0.96069
                       0.23778                      -0.18342                       0.95384
                       0.26636                      -0.18381                       0.94619
                       0.28894                      -0.18375                       0.93955
                       0.30525                      -0.18344                       0.93444
                       0.31911                      -0.18290                       0.92990
                       0.32486                      -0.18255                       0.92798
        </DataArray>
        <DataArray type="Float32" Name="Force" NumberOfComponents="3" format="ascii">
                       0.11818                       7.28265                       1.23890
                     168.78896                      65.44739                       2.44330
                     218.58779                     162.23336                      15.87926
                     201.32382                     219.29205                      25.85273
                    1791.06175                    -712.14520                    -236.42515
                    2367.48869                    -798.12356                    -310.42324
                    2740.68526                    -746.72805                    -361.64927
                    3565.58395                    -807.78620                    -494.23714
                    3875.30329                    -707.33991                    -575.32500
                    4499.02716                    -684.06599                    -736.56759
                    5604.94924                    -681.66646                   -1021.03641
                    6406.86126                    -627.63777                   -1312.60407
                    7565.49774                    -656.30077                   -1758.58105
                    8210.25935                    -575.58146                   -2142.97451
                    8751.21963                    -475.69381                   -2541.04375
                    9009.40115                    -361.75147                   -2827.21281
                    8726.24865                    -242.10877                   -2885.64278
                    6328.74317                    -121.94258                   -2187.49808
                    2918.51803                     165.07727                    -989.96270
        </DataArray>
        <DataArray type="Float32" Name="Moment" NumberOfComponents="3" format="ascii">
                       0.00000                       0.00000                       0.00000
                       0.00000                       0.00000                       0.00000
                       0.00000                       0.00000                       0.00000
                       0.00000                       0.00000                       0.00000
                     -29.91929                      80.07571                    -467.85556
                     -83.92183                     195.94905                   -1143.84324
                    -131.31302                     264.23215                   -1540.71157
                    -219.99885                     378.92715                   -2206.46411
                    -358.66646                     527.04211                   -3063.90165
                    -474.13078                     594.24476                   -3447.92512
                    -596.77862                     639.63303                   -3703.03175
                    -736.83730                     679.02138                   -3921.20818
                    -724.80283                     578.96695                   -3334.20549
                    -825.82872                     578.05567                   -3319.21172
                    -900.97964                     560.32579                   -3207.82128
                    -932.03706                     531.96818                   -3038.16394
                    -875.92552                     471.55383                   -2688.38238
                    -461.52030                     236.88353                   -1348.44902
                    -410.61964                     206.73434                   -1176.07834
        </DataArray>
      </PointData>
      <Lines>
        <DataArray type="Int32" Name="connectivity" format="ascii">
      0      1
      1      2
      2      3
      3      4
      4      5
      5      6
      6      7
      7      8
      8      9
      9     10
     10     11
     11     12
     12     13
     13     14
     14     15
     15     16
     16     17
     17     18
        </DataArray>
        <DataArray type="Int32" Name="offsets" format="ascii">
      2
      4
      6
      8
     10
     12
     14
     16
     18
     20
     22
     24
     26
     28
     30
     32
     34
     36
        </DataArray>
      </Lines>
    </Piece>
  </PolyData>
</VTKFile>
