<?xml version="1.0"?>
<VTKFile type="PolyData" version="0.1" byte_order="LittleEndian">
  <PolyData>
    <Piece NumberOfPoints="     19" NumberOfVerts="  0" NumberOfLines="     18"
           NumberOfStrips="  0" NumberOfPolys="      0">
      <Points>
        <DataArray type="Float32" NumberOfComponents="3" format="ascii">
                      -4.89163                       1.48517                      90.19016
                      -4.93702                       2.84159                      90.35384
                      -5.04025                       5.54323                      90.77541
                      -5.14735                       8.24026                      91.24025
                      -5.27984                      11.60977                      91.84512
                      -5.38943                      15.67302                      92.41995
                      -5.47480                      19.75299                      92.85857
                      -5.55098                      23.83435                      93.28944
                      -5.61730                      27.91732                      93.71104
                      -5.67743                      32.00158                      94.12583
                      -5.73705                      36.08658                      94.53810
                      -5.80179                      40.17222                      94.94681
                      -5.88025                      44.25808                      95.35232
                      -5.98296                      48.34351                      95.75473
                      -6.11992                      52.42767                      96.15398
                      -6.27115                      55.82939                      96.48381
                      -6.42139                      58.54980                      96.73772
                      -6.59992                      61.27403                      96.93475
                      -6.70678                      62.63065                      97.07352
        </DataArray>
      </Points>
      <PointData>
        <DataArray type="Float32" Name="TranslationalVelocity" NumberOfComponents="3" format="ascii">
                       0.38275                      -0.47127                       4.17751
                       0.72646                      -0.91890                       7.98217
                       1.41190                      -2.07536                      15.56035
                       2.09712                      -3.35234                      23.12616
                       2.95459                      -5.01590                      32.57940
                       3.99122                      -6.60123                      43.98052
                       5.03671                      -7.81063                      55.43049
                       6.09014                      -9.00074                      66.88645
                       7.15504                     -10.16741                      78.34906
                       8.23541                     -11.31668                      89.81749
                       9.33552                     -12.45896                     101.29022
                      10.45994                     -13.58965                     112.76718
                      11.61315                     -14.70711                     124.24739
                      12.79937                     -15.80828                     135.72942
                      14.02240                     -16.88950                     147.21145
                      15.07281                     -17.77028                     156.77821
                      15.93355                     -18.43720                     164.43134
                      16.81347                     -18.93467                     172.09767
                      17.26046                     -19.29069                     175.91656
        </DataArray>
        <DataArray type="Float32" Name="RotationalVelocity" NumberOfComponents="3" format="ascii">
                       2.80484                       0.00036                      -0.25344
                       2.80488                       0.00037                      -0.25350
                       2.80504                       0.00044                      -0.25372
                       2.80527                       0.00054                      -0.25403
                       2.80562                       0.00074                      -0.25457
                       2.80607                       0.00109                      -0.25551
                       2.80655                       0.00167                      -0.25692
                       2.80702                       0.00254                      -0.25895
                       2.80750                       0.00383                      -0.26181
                       2.80798                       0.00561                      -0.26565
                       2.80848                       0.00795                      -0.27062
                       2.80901                       0.01087                      -0.27677
                       2.80959                       0.01433                      -0.28408
                       2.81020                       0.01822                      -0.29239
                       2.81082                       0.02232                      -0.30141
                       2.81132                       0.02568                      -0.30915
                       2.81168                       0.02816                      -0.31523
                       2.81198                       0.03029                      -0.32096
                       2.81209                       0.03116                      -0.32360
        </DataArray>
        <DataArray type="Float32" Name="TranslationalAcceleration" NumberOfComponents="3" format="ascii">
                      -0.18922                     -11.84396                      -1.38049
                      -0.16964                     -14.29221                      -1.64339
                      -0.55706                     -40.80935                      -5.42529
                      -0.95867                     -65.14603                      -9.29201
                      -1.46697                     -93.53189                     -14.07632
                      -1.95995                    -125.93534                     -18.44790
                      -2.34271                    -157.62630                     -21.65145
                      -2.69580                    -189.24716                     -24.76186
                      -3.00158                    -221.19936                     -27.79807
                      -3.24539                    -253.60980                     -30.77842
                      -3.41928                    -286.40838                     -33.71709
                      -3.52245                    -319.41166                     -36.58265
                      -3.57102                    -352.39473                     -39.36137
                      -3.60219                    -385.17045                     -42.05787
                      -3.67969                    -417.66767                     -44.71108
                      -3.85118                    -444.61598                     -46.94243
                      -4.10356                    -466.22515                     -48.73276
                      -4.49129                    -488.11636                     -50.21326
                      -4.77807                    -499.19307                     -51.33841
        </DataArray>
        <DataArray type="Float32" Name="OrientationX" NumberOfComponents="3" format="ascii">
                       0.98929                       0.01591                       0.14510
                       0.98929                       0.01567                       0.14509
                       0.98929                       0.01492                       0.14522
                       0.98926                       0.01381                       0.14553
                       0.98918                       0.01198                       0.14621
                       0.99313                       0.01294                       0.11630
                       0.99528                       0.01238                       0.09626
                       0.99667                       0.01134                       0.08080
                       0.99773                       0.01062                       0.06651
                       0.99846                       0.01055                       0.05445
                       0.99884                       0.01135                       0.04681
                       0.99899                       0.01356                       0.04280
                       0.99888                       0.01743                       0.04406
                       0.99834                       0.02310                       0.05269
                       0.99748                       0.03142                       0.06355
                       0.99650                       0.04059                       0.07312
                       0.99548                       0.04954                       0.08102
                       0.99400                       0.05963                       0.09171
                       0.99300                       0.06503                       0.09865
        </DataArray>
        <DataArray type="Float32" Name="OrientationY" NumberOfComponents="3" format="ascii">
                       0.14215                       0.12101                      -0.98242
                       0.14218                       0.12072                      -0.98245
                       0.14242                       0.11999                      -0.98251
                       0.14288                       0.11907                      -0.98255
                       0.14381                       0.11776                      -0.98257
                       0.11404                       0.11570                      -0.98672
                       0.09424                       0.11381                      -0.98902
                       0.07903                       0.11214                      -0.99054
                       0.06493                       0.11069                      -0.99173
                       0.05297                       0.10949                      -0.99258
                       0.04531                       0.10852                      -0.99306
                       0.04110                       0.10776                      -0.99333
                       0.04195                       0.10719                      -0.99335
                       0.04994                       0.10688                      -0.99302
                       0.05987                       0.10679                      -0.99248
                       0.06843                       0.10692                      -0.99191
                       0.07535                       0.10721                      -0.99138
                       0.08492                       0.10791                      -0.99053
                       0.09123                       0.10850                      -0.98990
        </DataArray>
        <DataArray type="Float32" Name="OrientationZ" NumberOfComponents="3" format="ascii">
                      -0.03319                       0.99252                       0.11745
                      -0.03291                       0.99256                       0.11720
                      -0.03208                       0.99266                       0.11657
                      -0.03090                       0.99279                       0.11582
                      -0.02899                       0.99297                       0.11476
                      -0.02622                       0.99320                       0.11343
                      -0.02320                       0.99342                       0.11211
                      -0.02029                       0.99363                       0.11087
                      -0.01789                       0.99380                       0.10975
                      -0.01643                       0.99393                       0.10876
                      -0.01635                       0.99403                       0.10788
                      -0.01808                       0.99408                       0.10710
                      -0.02204                       0.99409                       0.10634
                      -0.02857                       0.99400                       0.10555
                      -0.03797                       0.99378                       0.10464
                      -0.04808                       0.99344                       0.10376
                      -0.05780                       0.99300                       0.10299
                      -0.06896                       0.99237                       0.10220
                      -0.07507                       0.99197                       0.10181
        </DataArray>
        <DataArray type="Float32" Name="Force" NumberOfComponents="3" format="ascii">
                      -0.96108                       1.22668                     -10.63785
                     169.24833                      19.70875                    -119.18096
                     237.12519                      48.75396                    -347.68399
                     225.53316                      69.04600                    -525.37714
                    1466.10843                      18.03175                     207.56535
                    1429.47502                      23.73903                     115.35055
                    1303.45031                      27.47654                      20.94221
                    1946.70663                      35.29961                      30.14003
                    2375.80362                      42.68643                     -10.58204
                    2587.24805                      48.40106                     -62.25553
                    4103.30143                      79.22356                    -125.32695
                    4242.76317                      94.34564                    -175.29992
                    3019.98385                      87.15803                    -194.84060
                    1364.02687                      63.32602                    -216.04832
                    1362.70573                      68.96241                    -155.09164
                    -849.80452                     -14.00157                    -218.09481
                   -2703.92875                    -129.18254                    -203.84275
                   -3830.25823                    -242.98103                    -144.50747
                  -20074.95617                   -1651.03725                    1331.78033
        </DataArray>
        <DataArray type="Float32" Name="Moment" NumberOfComponents="3" format="ascii">
                       0.00000                       0.00000                       0.00000
                       0.00000                       0.00000                       0.00000
                       0.00000                       0.00000                       0.00000
                       0.00000                       0.00000                       0.00000
                      36.36888                   -1254.29468                    -147.92253
                      61.82097                   -2368.41654                    -278.69500
                      73.65325                   -3207.07005                    -376.47184
                     103.19262                   -5173.53874                    -605.90045
                     134.67476                   -7719.29088                    -902.30364
                     139.98355                   -8804.95720                   -1027.97496
                     155.36729                   -9869.71091                   -1152.14500
                     182.99997                  -10512.75867                   -1228.79340
                     169.21886                   -7945.80854                    -931.54501
                     216.17008                   -7785.97897                    -917.35634
                     273.04154                   -7359.31160                    -873.29400
                     325.94243                   -6910.84604                    -826.35931
                     346.84460                   -6100.37254                    -734.78939
                     208.64533                   -3067.42882                    -372.56521
                     206.60795                   -2786.37806                    -339.97227
        </DataArray>
      </PointData>
      <Lines>
        <DataArray type="Int32" Name="connectivity" format="ascii">
      0      1
      1      2
      2      3
      3      4
      4      5
      5      6
      6      7
      7      8
      8      9
      9     10
     10     11
     11     12
     12     13
     13     14
     14     15
     15     16
     16     17
     17     18
        </DataArray>
        <DataArray type="Int32" Name="offsets" format="ascii">
      2
      4
      6
      8
     10
     12
     14
     16
     18
     20
     22
     24
     26
     28
     30
     32
     34
     36
        </DataArray>
      </Lines>
    </Piece>
  </PolyData>
</VTKFile>
