<?xml version="1.0"?>
<VTKFile type="PolyData" version="0.1" byte_order="LittleEndian">
  <PolyData>
    <Piece NumberOfPoints="     19" NumberOfVerts="  0" NumberOfLines="     18"
           NumberOfStrips="  0" NumberOfPolys="      0">
      <Points>
        <DataArray type="Float32" NumberOfComponents="3" format="ascii">
                      -5.04160                      -0.14967                      88.53458
                      -5.22359                      -0.28165                      87.18615
                      -5.60916                      -0.45111                      84.48246
                      -6.00287                      -0.57557                      81.77493
                      -6.49610                      -0.70379                      78.38741
                      -7.02440                      -0.99887                      74.32773
                      -7.51517                      -1.42166                      70.27556
                      -7.99551                      -1.84520                      66.22176
                      -8.46420                      -2.27140                      62.16629
                      -8.92467                      -2.69866                      58.10938
                      -9.38253                      -3.12388                      54.05140
                      -9.84284                      -3.54931                      49.99325
                     -10.31381                      -3.97600                      45.93624
                     -10.80562                      -4.40525                      41.88210
                     -11.32805                      -4.83835                      37.83275
                     -11.79754                      -5.20361                      34.46391
                     -12.19975                      -5.50709                      31.77441
                     -12.62330                      -5.86849                      29.09457
                     -12.85601                      -6.00999                      27.75412
        </DataArray>
      </Points>
      <PointData>
        <DataArray type="Float32" Name="TranslationalVelocity" NumberOfComponents="3" format="ascii">
                      -0.03967                       4.20567                      -0.42011
                      -0.07180                       8.03478                      -0.79053
                      -0.11071                      15.71399                      -1.26637
                      -0.13665                      23.40038                      -1.61626
                      -0.16090                      33.00800                      -1.97733
                      -0.22644                      44.49141                      -2.80537
                      -0.32921                      55.92761                      -3.98822
                      -0.44274                      67.34876                      -5.16989
                      -0.57344                      78.75525                      -6.35511
                      -0.72684                      90.14834                      -7.53892
                      -0.90761                     101.52964                      -8.71222
                      -1.12075                     112.89915                      -9.88073
                      -1.36953                     124.25640                     -11.04678
                      -1.65536                     135.59981                     -12.21340
                      -1.97726                     146.92673                     -13.38350
                      -2.27112                     156.34988                     -14.36446
                      -2.52119                     163.87358                     -15.17631
                      -2.79284                     171.36976                     -16.14478
                      -2.92154                     175.12180                     -16.51862
        </DataArray>
        <DataArray type="Float32" Name="RotationalVelocity" NumberOfComponents="3" format="ascii">
                       2.80608                      -0.00060                      -0.25341
                       2.80549                      -0.00083                      -0.25332
                       2.80386                      -0.00132                      -0.25305
                       2.80175                      -0.00170                      -0.25274
                       2.79869                      -0.00185                      -0.25236
                       2.79469                      -0.00124                      -0.25194
                       2.79063                       0.00051                      -0.25158
                       2.78669                       0.00361                      -0.25123
                       2.78298                       0.00816                      -0.25078
                       2.77954                       0.01417                      -0.25013
                       2.77636                       0.02150                      -0.24919
                       2.77341                       0.02991                      -0.24787
                       2.77066                       0.03900                      -0.24615
                       2.76811                       0.04823                      -0.24406
                       2.76578                       0.05691                      -0.24173
                       2.76408                       0.06315                      -0.23976
                       2.76295                       0.06704                      -0.23831
                       2.76212                       0.06957                      -0.23711
                       2.76184                       0.07021                      -0.23666
        </DataArray>
        <DataArray type="Float32" Name="TranslationalAcceleration" NumberOfComponents="3" format="ascii">
                       1.03572                       1.20445                      11.78038
                       1.28142                       1.41515                      14.25250
                       3.57504                       3.27720                      40.85027
                       5.65244                       4.55599                      65.31902
                       8.15122                       5.73558                      93.84561
                      11.17317                       8.08881                     126.06273
                      14.28949                      11.34914                     157.22425
                      17.42191                      14.55697                     188.19518
                      20.39939                      17.72922                     219.40359
                      23.02728                      20.83150                     251.01177
                      25.15267                      23.81250                     282.98109
                      26.73148                      26.67638                     315.13448
                      27.89457                      29.44972                     347.22792
                      29.01514                      32.21193                     379.01582
                      30.77710                      35.11106                     410.31739
                      33.54178                      37.81019                     435.97780
                      37.16103                      40.34365                     456.26511
                      42.58535                      43.70655                     476.41313
                      46.21786                      45.27827                     486.51223
        </DataArray>
        <DataArray type="Float32" Name="OrientationX" NumberOfComponents="3" format="ascii">
                       0.96243                       0.22484                      -0.15225
                       0.96246                       0.22489                      -0.15197
                       0.96252                       0.22520                      -0.15113
                       0.96257                       0.22577                      -0.14993
                       0.96261                       0.22689                      -0.14799
                       0.96971                       0.19801                      -0.14302
                       0.97409                       0.17893                      -0.13835
                       0.97726                       0.16433                      -0.13401
                       0.97997                       0.15077                      -0.13014
                       0.98206                       0.13919                      -0.12725
                       0.98326                       0.13168                      -0.12597
                       0.98374                       0.12735                      -0.12668
                       0.98326                       0.12776                      -0.12991
                       0.98144                       0.13493                      -0.13624
                       0.97886                       0.14371                      -0.14556
                       0.97619                       0.15108                      -0.15565
                       0.97367                       0.15689                      -0.16539
                       0.97027                       0.16522                      -0.17684
                       0.96811                       0.17087                      -0.18323
        </DataArray>
        <DataArray type="Float32" Name="OrientationY" NumberOfComponents="3" format="ascii">
                       0.23682                      -0.96935                       0.06548
                       0.23685                      -0.96934                       0.06552
                       0.23708                      -0.96928                       0.06557
                       0.23754                      -0.96916                       0.06561
                       0.23847                      -0.96893                       0.06564
                       0.20950                      -0.97528                       0.07021
                       0.19022                      -0.97901                       0.07316
                       0.17539                      -0.98161                       0.07534
                       0.16162                      -0.98382                       0.07725
                       0.14989                      -0.98556                       0.07879
                       0.14234                      -0.98660                       0.07972
                       0.13812                      -0.98716                       0.08021
                       0.13884                      -0.98707                       0.08007
                       0.14653                      -0.98605                       0.07898
                       0.15610                      -0.98469                       0.07755
                       0.16435                      -0.98346                       0.07617
                       0.17103                      -0.98241                       0.07493
                       0.18034                      -0.98089                       0.07302
                       0.18650                      -0.97984                       0.07166
        </DataArray>
        <DataArray type="Float32" Name="OrientationZ" NumberOfComponents="3" format="ascii">
                      -0.13286                      -0.09908                      -0.98617
                      -0.13258                      -0.09905                      -0.98621
                      -0.13172                      -0.09894                      -0.98634
                      -0.13049                      -0.09877                      -0.98652
                      -0.12850                      -0.09847                      -0.98681
                      -0.12558                      -0.09805                      -0.98723
                      -0.12236                      -0.09758                      -0.98768
                      -0.11916                      -0.09713                      -0.98811
                      -0.11639                      -0.09674                      -0.98848
                      -0.11445                      -0.09645                      -0.98874
                      -0.11379                      -0.09632                      -0.98882
                      -0.11483                      -0.09640                      -0.98870
                      -0.11801                      -0.09676                      -0.98829
                      -0.12368                      -0.09748                      -0.98752
                      -0.13219                      -0.09863                      -0.98631
                      -0.14156                      -0.09994                      -0.98487
                      -0.15073                      -0.10124                      -0.98338
                      -0.16139                      -0.10274                      -0.98153
                      -0.16729                      -0.10355                      -0.98046
        </DataArray>
        <DataArray type="Float32" Name="Force" NumberOfComponents="3" format="ascii">
                       0.18544                     -20.68395                       2.05305
                     147.73027                    -119.72866                      -7.83117
                     237.18448                    -362.63019                       4.75231
                     246.82986                    -550.16305                      22.61009
                    1298.94332                     267.21139                    -195.98613
                    1142.62580                     167.49800                    -162.17204
                     960.86458                      61.29297                    -125.19117
                    1504.03523                     119.07694                    -193.33544
                    1905.96555                     123.72506                    -236.83134
                    2027.97684                      87.12414                    -243.48479
                    3497.37323                     153.86164                    -417.87349
                    3581.70679                     114.75373                    -427.48664
                    2376.49787                     -11.74096                    -282.55655
                     797.22726                    -166.80281                     -83.09052
                     893.18927                    -128.34542                    -106.79416
                   -1112.43092                    -309.77453                     191.00621
                   -2763.37539                    -422.60944                     465.94684
                   -3735.86266                    -431.07732                     657.46413
                  -19615.24276                    -137.44015                    3359.20301
        </DataArray>
        <DataArray type="Float32" Name="Moment" NumberOfComponents="3" format="ascii">
                       0.00000                       0.00000                       0.00000
                       0.00000                       0.00000                       0.00000
                       0.00000                       0.00000                       0.00000
                       0.00000                       0.00000                       0.00000
                     154.30238                     118.99567                    1184.91572
                     294.14457                     232.14555                    2312.24259
                     390.46223                     316.33625                    3151.74397
                     617.70279                     513.92653                    5121.89353
                     905.52092                     771.45681                    7690.45270
                    1012.81027                     877.55457                    8749.67147
                    1128.04528                     983.15099                    9803.12164
                    1211.07626                    1045.89867                   10427.78985
                     933.55403                     784.49165                    7819.24347
                     958.06275                     767.97364                    7650.61479
                     971.96458                     728.67649                    7253.44975
                     977.83671                     684.17450                    6804.57248
                     918.98414                     603.54859                    5997.60154
                     494.71477                     303.18923                    3009.87441
                     467.16107                     276.07243                    2739.16794
        </DataArray>
      </PointData>
      <Lines>
        <DataArray type="Int32" Name="connectivity" format="ascii">
      0      1
      1      2
      2      3
      3      4
      4      5
      5      6
      6      7
      7      8
      8      9
      9     10
     10     11
     11     12
     12     13
     13     14
     14     15
     15     16
     16     17
     17     18
        </DataArray>
        <DataArray type="Int32" Name="offsets" format="ascii">
      2
      4
      6
      8
     10
     12
     14
     16
     18
     20
     22
     24
     26
     28
     30
     32
     34
     36
        </DataArray>
      </Lines>
    </Piece>
  </PolyData>
</VTKFile>
