<?xml version="1.0"?>
<VTKFile type="PolyData" version="0.1" byte_order="LittleEndian">
  <PolyData>
    <Piece NumberOfPoints="     19" NumberOfVerts="  0" NumberOfLines="     18"
           NumberOfStrips="  0" NumberOfPolys="      0">
      <Points>
        <DataArray type="Float32" NumberOfComponents="3" format="ascii">
                      -4.76425                      -0.52049                      91.42163
                      -4.70832                      -0.99654                      92.70186
                      -4.61949                      -2.03766                      95.23070
                      -4.53847                      -3.12164                      97.74445
                      -4.43640                      -4.50335                     100.87724
                      -4.24233                      -6.03074                     104.68182
                      -4.00177                      -7.43997                     108.52813
                      -3.74351                      -8.85032                     112.37338
                      -3.46500                     -10.26007                     116.21802
                      -3.16838                     -11.67071                     120.06160
                      -2.85793                     -13.08513                     123.90330
                      -2.53722                     -14.50121                     127.74405
                      -2.21297                     -15.91797                     131.58454
                      -1.89385                     -17.33418                     135.42563
                      -1.58810                     -18.74868                     139.26796
                      -1.35276                     -19.92495                     142.47169
                      -1.18123                     -20.85634                     145.03879
                      -1.02087                     -21.73424                     147.62601
                      -0.95869                     -22.21041                     148.90652
        </DataArray>
      </Points>
      <PointData>
        <DataArray type="Float32" Name="TranslationalVelocity" NumberOfComponents="3" format="ascii">
                      -0.13680                      -3.94817                      -1.44705
                      -0.25690                      -7.53596                      -2.77590
                      -0.51928                     -14.62072                      -5.68345
                      -0.79127                     -21.66623                      -8.71300
                      -1.13492                     -30.45499                     -12.57875
                      -1.50817                     -41.15853                     -16.85838
                      -1.84368                     -52.00497                     -20.81322
                      -2.17151                     -62.86699                     -24.77685
                      -2.49207                     -73.74531                     -28.74385
                      -2.80756                     -84.63645                     -32.71770
                      -3.12143                     -95.53491                     -36.70558
                      -3.43677                    -106.44025                     -40.70052
                      -3.75776                    -117.35050                     -44.69863
                      -4.08933                    -128.26384                     -48.69531
                      -4.43716                    -139.17840                     -52.68627
                      -4.74439                    -148.27403                     -56.00361
                      -5.00188                    -155.55771                     -58.62912
                      -5.26040                    -162.89539                     -61.10243
                      -5.40598                    -166.52267                     -62.44347
        </DataArray>
        <DataArray type="Float32" Name="RotationalVelocity" NumberOfComponents="3" format="ascii">
                       2.79081                       0.00012                      -0.25303
                       2.79140                       0.00021                      -0.25304
                       2.79298                       0.00060                      -0.25303
                       2.79500                       0.00127                      -0.25300
                       2.79789                       0.00246                      -0.25298
                       2.80161                       0.00430                      -0.25301
                       2.80527                       0.00641                      -0.25317
                       2.80867                       0.00855                      -0.25350
                       2.81166                       0.01045                      -0.25402
                       2.81414                       0.01185                      -0.25477
                       2.81610                       0.01248                      -0.25575
                       2.81754                       0.01212                      -0.25699
                       2.81849                       0.01058                      -0.25849
                       2.81900                       0.00774                      -0.26027
                       2.81911                       0.00358                      -0.26235
                       2.81892                      -0.00083                      -0.26432
                       2.81858                      -0.00494                      -0.26607
                       2.81806                      -0.00947                      -0.26799
                       2.81773                      -0.01186                      -0.26901
        </DataArray>
        <DataArray type="Float32" Name="TranslationalAcceleration" NumberOfComponents="3" format="ascii">
                      -1.05757                       4.05141                     -11.07597
                      -1.24317                       4.92496                     -13.32388
                      -3.52657                      14.80002                     -37.87596
                      -5.60144                      24.28687                     -60.32450
                      -8.00312                      35.68100                     -86.46092
                     -10.76442                      47.73153                    -116.58628
                     -13.50696                      58.59339                    -146.34137
                     -16.28719                      69.47636                    -176.07545
                     -19.15686                      80.50910                    -206.15397
                     -22.13105                      91.75179                    -236.67757
                     -25.18907                     103.20652                    -267.56004
                     -28.27659                     114.79241                    -298.62240
                     -31.30467                     126.42025                    -329.64917
                     -34.15068                     138.00781                    -360.46711
                     -36.65900                     149.50811                    -391.01945
                     -38.34473                     159.02778                    -416.36695
                     -39.35014                     166.57354                    -436.72985
                     -39.97225                     173.75416                    -457.50717
                     -40.11411                     177.69042                    -467.94544
        </DataArray>
        <DataArray type="Float32" Name="OrientationX" NumberOfComponents="3" format="ascii">
                       0.96465                      -0.23065                      -0.12747
                       0.96463                      -0.23053                      -0.12785
                       0.96452                      -0.23030                      -0.12909
                       0.96432                      -0.23009                      -0.13093
                       0.96395                      -0.22990                      -0.13397
                       0.97117                      -0.20096                      -0.12822
                       0.97536                      -0.18093                      -0.12625
                       0.97822                      -0.16498                      -0.12597
                       0.98064                      -0.15001                      -0.12590
                       0.98251                      -0.13708                      -0.12601
                       0.98361                      -0.12830                      -0.12665
                       0.98422                      -0.12303                      -0.12716
                       0.98417                      -0.12290                      -0.12768
                       0.98315                      -0.12998                      -0.12851
                       0.98196                      -0.13961                      -0.12752
                       0.98101                      -0.14856                      -0.12469
                       0.98028                      -0.15633                      -0.12084
                       0.97905                      -0.16711                      -0.11636
                       0.97810                      -0.17414                      -0.11404
        </DataArray>
        <DataArray type="Float32" Name="OrientationY" NumberOfComponents="3" format="ascii">
                       0.26029                       0.90952                       0.32408
                       0.26031                       0.90952                       0.32406
                       0.26052                       0.90949                       0.32398
                       0.26095                       0.90941                       0.32385
                       0.26183                       0.90924                       0.32361
                       0.23273                       0.91577                       0.32741
                       0.21329                       0.91962                       0.32986
                       0.19827                       0.92230                       0.33174
                       0.18425                       0.92456                       0.33353
                       0.17221                       0.92631                       0.33510
                       0.16425                       0.92737                       0.33617
                       0.15951                       0.92795                       0.33683
                       0.15958                       0.92793                       0.33688
                       0.16648                       0.92702                       0.33602
                       0.17512                       0.92582                       0.33495
                       0.18250                       0.92471                       0.33407
                       0.18842                       0.92375                       0.33345
                       0.19695                       0.92227                       0.33262
                       0.20273                       0.92120                       0.33210
        </DataArray>
        <DataArray type="Float32" Name="OrientationZ" NumberOfComponents="3" format="ascii">
                       0.04119                      -0.34581                       0.93740
                       0.04158                      -0.34588                       0.93736
                       0.04279                      -0.34612                       0.93722
                       0.04455                      -0.34647                       0.93700
                       0.04741                      -0.34702                       0.93666
                       0.05163                      -0.34781                       0.93614
                       0.05642                      -0.34866                       0.93555
                       0.06145                      -0.34950                       0.93492
                       0.06636                      -0.35027                       0.93429
                       0.07079                      -0.35094                       0.93372
                       0.07432                      -0.35146                       0.93325
                       0.07655                      -0.35180                       0.93294
                       0.07707                      -0.35192                       0.93285
                       0.07546                      -0.35175                       0.93305
                       0.07130                      -0.35124                       0.93357
                       0.06567                      -0.35049                       0.93426
                       0.05950                      -0.34964                       0.93499
                       0.05174                      -0.34857                       0.93586
                       0.04722                      -0.34794                       0.93633
        </DataArray>
        <DataArray type="Float32" Name="Force" NumberOfComponents="3" format="ascii">
                       0.71217                      21.37896                       7.85546
                     196.28754                     123.00349                      36.67080
                     299.96740                     354.21095                     116.99284
                     308.41729                     526.98481                     179.80206
                    1629.73930                    -386.95971                    -225.35470
                    1583.02792                    -281.05710                    -191.12782
                    1540.89427                    -185.36315                    -161.44723
                    2325.35304                    -268.89603                    -252.29227
                    2775.25774                    -255.85061                    -291.81817
                    3109.00648                    -228.89531                    -320.45183
                    4764.26126                    -303.70617                    -491.88560
                    5107.68738                    -275.90180                    -521.31533
                    4363.33471                    -197.22523                    -433.56382
                    2934.55489                     -47.41805                    -254.93168
                    1067.15744                     135.32114                     -31.46802
                    1704.32380                     -52.36524                    -139.23024
                     236.52440                     198.89771                      58.44215
                   -1237.69607                     274.80501                     169.95666
                  -18966.17401                     474.88238                    1132.62547
        </DataArray>
        <DataArray type="Float32" Name="Moment" NumberOfComponents="3" format="ascii">
                       0.00000                       0.00000                       0.00000
                       0.00000                       0.00000                       0.00000
                       0.00000                       0.00000                       0.00000
                       0.00000                       0.00000                       0.00000
                     -63.79818                     465.10534                   -1260.01996
                    -130.49899                     873.44255                   -2365.27988
                    -191.83509                    1174.72135                   -3179.66219
                    -333.90777                    1877.03651                   -5078.16235
                    -534.89135                    2783.74060                   -7527.57481
                    -649.21949                    3167.28910                   -8561.05334
                    -761.04346                    3536.05226                   -9554.51996
                    -835.08928                    3766.66268                  -10175.42300
                    -637.51448                    2856.05152                   -7715.06825
                    -616.78253                    2822.19599                   -7624.80855
                    -553.23510                    2679.03730                   -7240.95730
                    -476.08779                    2503.14743                   -6769.25974
                    -381.24772                    2212.43681                   -5986.67667
                    -165.41846                    1104.11959                   -2989.91142
                    -136.80179                    1000.40192                   -2710.23379
        </DataArray>
      </PointData>
      <Lines>
        <DataArray type="Int32" Name="connectivity" format="ascii">
      0      1
      1      2
      2      3
      3      4
      4      5
      5      6
      6      7
      7      8
      8      9
      9     10
     10     11
     11     12
     12     13
     13     14
     14     15
     15     16
     16     17
     17     18
        </DataArray>
        <DataArray type="Int32" Name="offsets" format="ascii">
      2
      4
      6
      8
     10
     12
     14
     16
     18
     20
     22
     24
     26
     28
     30
     32
     34
     36
        </DataArray>
      </Lines>
    </Piece>
  </PolyData>
</VTKFile>
