<?xml version="1.0"?>
<VTKFile type="PolyData" version="0.1" byte_order="LittleEndian">
  <PolyData>
    <Piece NumberOfPoints="     19" NumberOfVerts="  0" NumberOfLines="     18"
           NumberOfStrips="  0" NumberOfPolys="      0">
      <Points>
        <DataArray type="Float32" NumberOfComponents="3" format="ascii">
                      -4.49511                       1.29357                      90.78999
                      -4.48952                       2.47717                      91.47366
                      -4.48734                       4.79713                      92.92319
                      -4.48368                       7.09558                      94.41081
                      -4.46812                       9.95703                      96.29210
                      -4.38110                      13.46529                      98.41884
                      -4.24218                      17.03968                     100.42759
                      -4.05593                      20.61534                     102.43033
                      -3.80918                      24.19186                     104.42476
                      -3.49138                      27.76664                     106.41180
                      -3.09274                      31.33598                     108.39365
                      -2.60276                      34.89843                     110.36745
                      -2.01365                      38.45165                     112.33139
                      -1.31967                      41.99308                     114.28329
                      -0.51515                      45.51968                     116.22014
                       0.24252                      48.44471                     117.81993
                       0.90109                      50.77875                     119.08250
                       1.60106                      53.13052                     120.28697
                       1.97047                      54.28156                     120.92074
        </DataArray>
      </Points>
      <PointData>
        <DataArray type="Float32" Name="TranslationalVelocity" NumberOfComponents="3" format="ascii">
                       0.31615                      -1.22428                       2.16470
                       0.50702                      -2.35780                       4.12557
                       0.88228                      -4.76042                       7.97023
                       1.25582                      -7.22771                      11.78107
                       1.72409                     -10.35191                      16.52838
                       2.30348                     -13.89838                      22.35349
                       2.90119                     -17.26100                      28.29401
                       3.50867                     -20.62508                      34.24219
                       4.12716                     -23.98908                      40.19676
                       4.75738                     -27.35638                      46.15256
                       5.39960                     -30.73237                      52.10238
                       6.05421                     -34.11418                      58.04271
                       6.72112                     -37.50034                      63.96843
                       7.39988                     -40.88845                      69.87424
                       8.08958                     -44.27495                      75.75410
                       8.67194                     -47.09219                      80.62947
                       9.14254                     -49.32894                      84.51869
                       9.62113                     -51.47855                      88.43649
                       9.85759                     -52.61052                      90.35353
        </DataArray>
        <DataArray type="Float32" Name="RotationalVelocity" NumberOfComponents="3" format="ascii">
                       1.65647                       0.00223                      -0.15987
                       1.65671                       0.00228                      -0.15998
                       1.65737                       0.00247                      -0.16040
                       1.65822                       0.00273                      -0.16105
                       1.65946                       0.00312                      -0.16216
                       1.66108                       0.00361                      -0.16393
                       1.66270                       0.00407                      -0.16613
                       1.66421                       0.00450                      -0.16873
                       1.66554                       0.00488                      -0.17168
                       1.66664                       0.00525                      -0.17494
                       1.66749                       0.00564                      -0.17844
                       1.66809                       0.00609                      -0.18209
                       1.66846                       0.00663                      -0.18580
                       1.66864                       0.00730                      -0.18943
                       1.66868                       0.00810                      -0.19281
                       1.66866                       0.00887                      -0.19532
                       1.66864                       0.00954                      -0.19701
                       1.66863                       0.01023                      -0.19833
                       1.66864                       0.01058                      -0.19883
        </DataArray>
        <DataArray type="Float32" Name="TranslationalAcceleration" NumberOfComponents="3" format="ascii">
                      -0.24154                      -3.65365                      -1.94908
                      -0.23505                      -4.41887                      -2.37140
                      -0.68661                     -12.52806                      -7.00810
                      -1.10534                     -19.93073                     -11.39861
                      -1.59362                     -28.54909                     -16.61334
                      -2.10927                     -38.54975                     -22.21745
                      -2.57989                     -48.48831                     -27.35605
                      -3.05674                     -58.42878                     -32.47187
                      -3.55395                     -68.48923                     -37.63199
                      -4.08198                     -78.69608                     -42.86725
                      -4.64823                     -89.01102                     -48.17952
                      -5.25660                     -99.36460                     -53.53679
                      -5.91025                    -109.67285                     -58.90203
                      -6.61248                    -119.86397                     -64.24178
                      -7.36784                    -129.90189                     -69.53815
                      -8.04399                    -138.16409                     -73.92424
                      -8.61551                    -144.75638                     -77.41096
                      -9.20550                    -151.45595                     -80.78592
                      -9.52620                    -154.78552                     -82.59579
        </DataArray>
        <DataArray type="Float32" Name="OrientationX" NumberOfComponents="3" format="ascii">
                       0.98894                      -0.07747                       0.12647
                       0.98894                      -0.07803                       0.12614
                       0.98893                      -0.07985                       0.12504
                       0.98892                      -0.08254                       0.12337
                       0.98888                      -0.08702                       0.12058
                       0.99297                      -0.07844                       0.08866
                       0.99509                      -0.07615                       0.06317
                       0.99624                      -0.07738                       0.03898
                       0.99668                      -0.08039                       0.01257
                       0.99621                      -0.08561                      -0.01559
                       0.99461                      -0.09399                      -0.04383
                       0.99181                      -0.10491                      -0.07287
                       0.98778                      -0.11884                      -0.10086
                       0.98272                      -0.13637                      -0.12515
                       0.97675                      -0.15430                      -0.14883
                       0.97133                      -0.16842                      -0.16776
                       0.96705                      -0.17868                      -0.18136
                       0.96337                      -0.18897                      -0.19030
                       0.96193                      -0.19427                      -0.19221
        </DataArray>
        <DataArray type="Float32" Name="OrientationY" NumberOfComponents="3" format="ascii">
                       0.14825                       0.49207                      -0.85784
                       0.14824                       0.49178                      -0.85800
                       0.14819                       0.49103                      -0.85845
                       0.14807                       0.49007                      -0.85901
                       0.14785                       0.48868                      -0.85984
                       0.11584                       0.48957                      -0.86424
                       0.09251                       0.48968                      -0.86698
                       0.07203                       0.48968                      -0.86892
                       0.05049                       0.48995                      -0.87029
                       0.02853                       0.49055                      -0.87095
                       0.00805                       0.49139                      -0.87091
                      -0.01182                       0.49261                      -0.87017
                      -0.02929                       0.49406                      -0.86893
                      -0.04177                       0.49533                      -0.86770
                      -0.05350                       0.49682                      -0.86620
                      -0.06296                       0.49822                      -0.86476
                      -0.06972                       0.49927                      -0.86364
                      -0.07253                       0.49954                      -0.86325
                      -0.07173                       0.49919                      -0.86352
        </DataArray>
        <DataArray type="Float32" Name="OrientationZ" NumberOfComponents="3" format="ascii">
                       0.00423                       0.86710                       0.49811
                       0.00492                       0.86721                       0.49791
                       0.00715                       0.86748                       0.49743
                       0.01044                       0.86777                       0.49686
                       0.01589                       0.86811                       0.49611
                       0.02439                       0.86843                       0.49521
                       0.03508                       0.86857                       0.49432
                       0.04815                       0.86846                       0.49341
                       0.06381                       0.86803                       0.49239
                       0.08221                       0.86720                       0.49113
                       0.10340                       0.86586                       0.48949
                       0.12718                       0.86390                       0.48733
                       0.15310                       0.86127                       0.48454
                       0.18032                       0.85793                       0.48108
                       0.20760                       0.85402                       0.47702
                       0.22923                       0.85054                       0.47333
                       0.24487                       0.84782                       0.47036
                       0.25819                       0.84543                       0.46754
                       0.26371                       0.84443                       0.46625
        </DataArray>
        <DataArray type="Float32" Name="Force" NumberOfComponents="3" format="ascii">
                      -0.20411                       1.21603                      -2.11511
                     156.01251                      31.35096                     -56.12852
                     192.09096                      78.11901                    -138.84275
                     170.34187                     106.35285                    -188.96342
                    1809.58785                    -304.77740                     473.54515
                    2229.70201                    -303.33080                     420.05909
                    2571.76977                    -297.41973                     338.19201
                    3358.68401                    -356.57160                     298.32678
                    3668.39466                    -365.50219                     168.46437
                    4270.87261                    -436.31528                      56.09652
                    5353.42969                    -573.92536                    -113.66982
                    6104.42368                    -720.90214                    -311.94282
                    7240.30356                    -996.64162                    -511.13331
                    7825.51259                   -1220.69102                    -750.28083
                    8321.21560                   -1460.75034                    -999.77116
                    8612.63659                   -1647.21628                   -1204.79713
                    8468.59729                   -1715.80847                   -1310.42014
                    6261.18753                   -1339.40918                   -1031.77191
                    3296.81958                    -625.41756                    -732.32755
        </DataArray>
        <DataArray type="Float32" Name="Moment" NumberOfComponents="3" format="ascii">
                       0.00000                       0.00000                       0.00000
                       0.00000                       0.00000                       0.00000
                       0.00000                       0.00000                       0.00000
                       0.00000                       0.00000                       0.00000
                      -8.76455                    -475.31859                    -272.42625
                     -28.10441                    -995.09061                    -569.38933
                     -54.25464                   -1337.66801                    -763.82178
                    -107.32280                   -1931.16107                   -1099.91405
                    -199.02203                   -2705.60692                   -1536.31251
                    -290.22348                   -3063.71338                   -1733.39552
                    -395.23957                   -3316.59536                   -1868.64934
                    -517.81594                   -3528.54342                   -1978.67469
                    -531.40442                   -3001.72597                   -1674.48343
                    -627.43621                   -2999.57721                   -1663.98096
                    -703.41134                   -2908.85633                   -1604.49173
                    -741.70845                   -2766.93270                   -1519.20076
                    -707.13791                   -2461.48026                   -1346.92490
                    -377.21727                   -1241.53304                    -677.38548
                    -345.17138                   -1110.76567                    -605.29663
        </DataArray>
      </PointData>
      <Lines>
        <DataArray type="Int32" Name="connectivity" format="ascii">
      0      1
      1      2
      2      3
      3      4
      4      5
      5      6
      6      7
      7      8
      8      9
      9     10
     10     11
     11     12
     12     13
     13     14
     14     15
     15     16
     16     17
     17     18
        </DataArray>
        <DataArray type="Int32" Name="offsets" format="ascii">
      2
      4
      6
      8
     10
     12
     14
     16
     18
     20
     22
     24
     26
     28
     30
     32
     34
     36
        </DataArray>
      </Lines>
    </Piece>
  </PolyData>
</VTKFile>
