<?xml version="1.0"?>
<VTKFile type="PolyData" version="0.1" byte_order="LittleEndian">
  <PolyData>
    <Piece NumberOfPoints="     22" NumberOfVerts="  0" NumberOfLines="     21"
           NumberOfStrips="  0" NumberOfPolys="      0">
      <Points>
        <DataArray type="Float32" NumberOfComponents="3" format="ascii">
                       0.00024                       0.00000                       2.19000
                       0.00237                       0.00000                       6.57000
                       0.00709                       0.00001                      10.95000
                       0.01460                       0.00002                      15.32999
                       0.02495                       0.00002                      19.70998
                       0.03806                       0.00003                      24.08996
                       0.05383                       0.00003                      28.46993
                       0.07216                       0.00002                      32.84989
                       0.09298                      -0.00000                      37.22984
                       0.11630                      -0.00003                      41.60978
                       0.14217                      -0.00008                      45.98970
                       0.17070                      -0.00014                      50.36961
                       0.20202                      -0.00023                      54.74950
                       0.23625                      -0.00034                      59.12936
                       0.27344                      -0.00048                      63.50920
                       0.31350                      -0.00064                      67.88902
                       0.35613                      -0.00083                      72.26881
                       0.40070                      -0.00105                      76.64859
                       0.44618                      -0.00129                      81.02835
                       0.49095                      -0.00154                      85.40813
                       0.51238                      -0.00167                      87.59802
                       0.00000                       0.00000                       0.00000
        </DataArray>
      </Points>
      <PointData>
        <DataArray type="Float32" Name="TranslationalVelocity" NumberOfComponents="3" format="ascii">
                      -0.00001                      -0.00000                       0.00000
                      -0.00009                      -0.00000                       0.00000
                      -0.00025                      -0.00001                       0.00000
                      -0.00048                      -0.00002                       0.00000
                      -0.00076                      -0.00003                       0.00000
                      -0.00107                      -0.00004                       0.00000
                      -0.00139                      -0.00005                       0.00000
                      -0.00169                      -0.00005                       0.00000
                      -0.00195                      -0.00004                       0.00001
                      -0.00212                      -0.00003                       0.00001
                      -0.00218                      -0.00001                       0.00001
                      -0.00210                       0.00002                       0.00001
                      -0.00186                       0.00007                       0.00000
                      -0.00144                       0.00013                       0.00000
                      -0.00081                       0.00021                      -0.00000
                       0.00002                       0.00031                      -0.00001
                       0.00105                       0.00043                      -0.00002
                       0.00226                       0.00056                      -0.00003
                       0.00363                       0.00071                      -0.00005
                       0.00512                       0.00087                      -0.00006
                       0.00588                       0.00096                      -0.00007
                       0.00000                      -0.00000                       0.00000
        </DataArray>
        <DataArray type="Float32" Name="RotationalVelocity" NumberOfComponents="3" format="ascii">
                       0.00000                      -0.00001                       0.00000
                       0.00000                      -0.00003                       0.00000
                       0.00000                      -0.00004                       0.00000
                       0.00000                      -0.00006                       0.00000
                       0.00000                      -0.00007                       0.00000
                       0.00000                      -0.00007                       0.00000
                       0.00000                      -0.00007                       0.00000
                      -0.00000                      -0.00006                       0.00000
                      -0.00000                      -0.00005                       0.00000
                      -0.00000                      -0.00003                       0.00000
                      -0.00001                       0.00000                       0.00000
                      -0.00001                       0.00004                       0.00000
                      -0.00001                       0.00008                       0.00000
                      -0.00002                       0.00012                       0.00000
                      -0.00002                       0.00017                       0.00000
                      -0.00002                       0.00021                       0.00000
                      -0.00003                       0.00026                       0.00000
                      -0.00003                       0.00030                       0.00000
                      -0.00004                       0.00033                       0.00000
                      -0.00004                       0.00035                       0.00000
                      -0.00004                       0.00035                       0.00000
                       0.00000                      -0.00000                       0.00000
        </DataArray>
        <DataArray type="Float32" Name="TranslationalAcceleration" NumberOfComponents="3" format="ascii">
                      -0.00033                       0.00012                       0.00000
                      -0.00312                       0.00103                       0.00000
                      -0.00891                       0.00267                       0.00001
                      -0.01765                       0.00488                       0.00002
                      -0.02907                       0.00751                       0.00005
                      -0.04273                       0.01043                       0.00009
                      -0.05812                       0.01350                       0.00015
                      -0.07466                       0.01656                       0.00022
                      -0.09173                       0.01945                       0.00030
                      -0.10878                       0.02200                       0.00039
                      -0.12525                       0.02402                       0.00049
                      -0.14067                       0.02533                       0.00059
                      -0.15465                       0.02574                       0.00068
                      -0.16687                       0.02506                       0.00078
                      -0.17709                       0.02315                       0.00087
                      -0.18515                       0.01989                       0.00094
                      -0.19093                       0.01524                       0.00099
                      -0.19435                       0.00923                       0.00103
                      -0.19535                       0.00198                       0.00104
                      -0.19382                      -0.00624                       0.00102
                      -0.19206                      -0.01059                       0.00101
                       0.00000                      -0.00000                       0.00000
        </DataArray>
        <DataArray type="Float32" Name="RotationalAcceleration" NumberOfComponents="3" format="ascii">
                      -0.00011                      -0.00031                       0.00000
                      -0.00030                      -0.00098                       0.00000
                      -0.00044                      -0.00167                       0.00000
                      -0.00056                      -0.00231                       0.00000
                      -0.00064                      -0.00288                       0.00000
                      -0.00069                      -0.00334                       0.00000
                      -0.00070                      -0.00367                       0.00000
                      -0.00069                      -0.00386                       0.00000
                      -0.00063                      -0.00392                       0.00000
                      -0.00053                      -0.00385                       0.00000
                      -0.00039                      -0.00366                       0.00000
                      -0.00020                      -0.00337                       0.00000
                       0.00003                      -0.00300                       0.00000
                       0.00029                      -0.00257                       0.00000
                       0.00059                      -0.00209                       0.00000
                       0.00090                      -0.00158                       0.00000
                       0.00122                      -0.00105                       0.00000
                       0.00152                      -0.00051                       0.00000
                       0.00178                       0.00006                       0.00000
                       0.00196                       0.00065                       0.00000
                       0.00201                       0.00096                       0.00000
                       0.00000                      -0.00000                       0.00000
        </DataArray>
        <DataArray type="Float32" Name="OrientationX" NumberOfComponents="3" format="ascii">
                       1.00000                      -0.00000                      -0.00022
                       1.00000                      -0.00000                      -0.00077
                       1.00000                      -0.00000                      -0.00139
                       1.00000                      -0.00000                      -0.00204
                       1.00000                      -0.00000                      -0.00268
                       0.99999                      -0.00000                      -0.00330
                       0.99999                       0.00000                      -0.00390
                       0.99999                       0.00000                      -0.00447
                       0.99999                       0.00000                      -0.00504
                       0.99998                       0.00000                      -0.00561
                       0.99998                       0.00000                      -0.00621
                       0.99998                       0.00000                      -0.00683
                       0.99997                       0.00000                      -0.00748
                       0.99997                       0.00000                      -0.00815
                       0.99996                       0.00000                      -0.00882
                       0.99996                       0.00000                      -0.00946
                       0.99995                       0.00000                      -0.00999
                       0.99995                       0.00000                      -0.01033
                       0.99995                       0.00000                      -0.01037
                       0.99995                       0.00000                      -0.00998
                       0.99995                       0.00000                      -0.00957
                       1.00000                      -0.00000                       0.00000
        </DataArray>
        <DataArray type="Float32" Name="OrientationY" NumberOfComponents="3" format="ascii">
                      -0.00000                       1.00000                      -0.00000
                      -0.00000                       1.00000                      -0.00000
                      -0.00000                       1.00000                      -0.00000
                      -0.00000                       1.00000                      -0.00000
                      -0.00000                       1.00000                      -0.00000
                      -0.00000                       1.00000                      -0.00000
                       0.00000                       1.00000                       0.00000
                       0.00000                       1.00000                       0.00000
                       0.00000                       1.00000                       0.00001
                       0.00000                       1.00000                       0.00001
                       0.00000                       1.00000                       0.00001
                       0.00000                       1.00000                       0.00002
                       0.00000                       1.00000                       0.00002
                       0.00000                       1.00000                       0.00003
                       0.00000                       1.00000                       0.00003
                       0.00000                       1.00000                       0.00004
                       0.00000                       1.00000                       0.00005
                       0.00000                       1.00000                       0.00005
                       0.00000                       1.00000                       0.00006
                       0.00000                       1.00000                       0.00006
                       0.00000                       1.00000                       0.00006
                      -0.00000                       1.00000                      -0.00000
        </DataArray>
        <DataArray type="Float32" Name="OrientationZ" NumberOfComponents="3" format="ascii">
                       0.00022                       0.00000                       1.00000
                       0.00077                       0.00000                       1.00000
                       0.00139                       0.00000                       1.00000
                       0.00204                       0.00000                       1.00000
                       0.00268                       0.00000                       1.00000
                       0.00330                       0.00000                       0.99999
                       0.00390                      -0.00000                       0.99999
                       0.00447                      -0.00000                       0.99999
                       0.00504                      -0.00001                       0.99999
                       0.00561                      -0.00001                       0.99998
                       0.00621                      -0.00001                       0.99998
                       0.00683                      -0.00002                       0.99998
                       0.00748                      -0.00002                       0.99997
                       0.00815                      -0.00003                       0.99997
                       0.00882                      -0.00003                       0.99996
                       0.00946                      -0.00004                       0.99996
                       0.00999                      -0.00005                       0.99995
                       0.01033                      -0.00005                       0.99995
                       0.01037                      -0.00006                       0.99995
                       0.00998                      -0.00006                       0.99995
                       0.00957                      -0.00006                       0.99995
                       0.00000                      -0.00000                       1.00000
        </DataArray>
      </PointData>
      <Lines>
        <DataArray type="Int32" Name="connectivity" format="ascii">
      0      1
      1      2
      2      3
      3      4
      4      5
      5      6
      6      7
      7      8
      8      9
      9     10
     10     11
     11     12
     12     13
     13     14
     14     15
     15     16
     16     17
     17     18
     18     19
     19     20
     21      0
        </DataArray>
        <DataArray type="Int32" Name="offsets" format="ascii">
      2
      4
      6
      8
     10
     12
     14
     16
     18
     20
     22
     24
     26
     28
     30
     32
     34
     36
     38
     40
     42
        </DataArray>
      </Lines>
    </Piece>
  </PolyData>
</VTKFile>
