<?xml version="1.0"?>
<VTKFile type="PolyData" version="0.1" byte_order="LittleEndian">
  <PolyData>
    <Piece NumberOfPoints="     19" NumberOfVerts="  0" NumberOfLines="     18"
           NumberOfStrips="  0" NumberOfPolys="      0">
      <Points>
        <DataArray type="Float32" NumberOfComponents="3" format="ascii">
                      -4.78678                      -0.66066                      91.35918
                      -4.73634                      -1.26626                      92.58369
                      -4.65943                      -2.56274                      94.99204
                      -4.59092                      -3.90051                      97.38081
                      -4.50506                      -5.59876                     100.35440
                      -4.32988                      -7.51271                     103.98080
                      -4.10800                      -9.31461                     107.66061
                      -3.86963                     -11.11838                     111.33901
                      -3.61256                     -12.92226                     115.01675
                      -3.33937                     -14.72751                     118.69334
                      -3.05482                     -16.53671                     122.36777
                      -2.76293                     -18.34765                     126.04134
                      -2.47090                     -20.15914                     129.71494
                      -2.18786                     -21.96978                     133.38959
                      -1.92249                     -23.77824                     137.06613
                      -1.72445                     -25.28233                     140.13231
                      -1.58510                     -26.47595                     142.59055
                      -1.45849                     -27.61806                     145.07454
                      -1.41459                     -28.22441                     146.29965
        </DataArray>
      </Points>
      <PointData>
        <DataArray type="Float32" Name="TranslationalVelocity" NumberOfComponents="3" format="ascii">
                      -0.16079                      -3.78573                      -1.85119
                      -0.31392                      -7.23404                      -3.55023
                      -0.64275                     -14.01332                      -7.18921
                      -0.98396                     -20.73965                     -10.94661
                      -1.42090                     -29.11949                     -15.72078
                      -1.92018                     -39.36751                     -21.10732
                      -2.39804                     -49.79038                     -26.18444
                      -2.88258                     -60.22668                     -31.27260
                      -3.37108                     -70.67885                     -36.36683
                      -3.86041                     -81.14437                     -41.47078
                      -4.34647                     -91.61850                     -46.59179
                      -4.82262                    -102.10307                     -51.72367
                      -5.28113                    -112.59811                     -56.86328
                      -5.71286                    -123.10372                     -62.00683
                      -6.10724                    -133.61975                     -67.15094
                      -6.39765                    -142.39171                     -71.43494
                      -6.59877                    -149.42437                     -74.83854
                      -6.75640                    -156.53166                     -78.09961
                      -6.83143                    -160.03439                     -79.83182
        </DataArray>
        <DataArray type="Float32" Name="RotationalVelocity" NumberOfComponents="3" format="ascii">
                       2.80506                       0.00059                      -0.25335
                       2.80561                       0.00042                      -0.25347
                       2.80706                      -0.00005                      -0.25382
                       2.80888                      -0.00066                      -0.25432
                       2.81147                      -0.00158                      -0.25515
                       2.81482                      -0.00278                      -0.25638
                       2.81821                      -0.00392                      -0.25771
                       2.82152                      -0.00477                      -0.25893
                       2.82469                      -0.00508                      -0.25980
                       2.82773                      -0.00457                      -0.26005
                       2.83067                      -0.00297                      -0.25948
                       2.83359                       0.00001                      -0.25790
                       2.83653                       0.00463                      -0.25521
                       2.83953                       0.01116                      -0.25143
                       2.84261                       0.01982                      -0.24669
                       2.84519                       0.02873                      -0.24223
                       2.84722                       0.03711                      -0.23849
                       2.84915                       0.04660                      -0.23481
                       2.85006                       0.05177                      -0.23306
        </DataArray>
        <DataArray type="Float32" Name="TranslationalAcceleration" NumberOfComponents="3" format="ascii">
                      -0.92079                       5.22401                     -10.59911
                      -1.14650                       6.36985                     -12.83078
                      -3.27675                      18.93022                     -36.39005
                      -5.25714                      30.89740                     -57.87892
                      -7.60562                      45.21135                     -82.85110
                     -10.35888                      60.65363                    -111.74318
                     -13.07887                      74.87637                    -140.39248
                     -15.73164                      89.11024                    -169.03054
                     -18.30458                     103.50415                    -198.02700
                     -20.78275                     118.11411                    -227.49231
                     -23.16825                     132.92479                    -257.35110
                     -25.50188                     147.83749                    -287.43587
                     -27.87972                     162.75405                    -317.53143
                     -30.47276                     177.60353                    -347.44909
                     -33.54593                     192.38231                    -377.09400
                     -36.76331                     204.71168                    -401.63081
                     -39.95247                     214.60769                    -421.27767
                     -43.90109                     224.30041                    -441.27001
                     -46.20383                     229.55750                    -451.23394
        </DataArray>
        <DataArray type="Float32" Name="OrientationX" NumberOfComponents="3" format="ascii">
                       0.96257                      -0.22531                      -0.15062
                       0.96255                      -0.22516                      -0.15098
                       0.96245                      -0.22482                      -0.15216
                       0.96225                      -0.22444                      -0.15394
                       0.96188                      -0.22400                      -0.15689
                       0.96936                      -0.19598                      -0.14809
                       0.97373                      -0.17646                      -0.14391
                       0.97674                      -0.16086                      -0.14178
                       0.97930                      -0.14630                      -0.13987
                       0.98131                      -0.13383                      -0.13828
                       0.98251                      -0.12555                      -0.13755
                       0.98318                      -0.12087                      -0.13695
                       0.98313                      -0.12142                      -0.13682
                       0.98201                      -0.12922                      -0.13769
                       0.98065                      -0.13986                      -0.13696
                       0.97951                      -0.14993                      -0.13446
                       0.97859                      -0.15880                      -0.13098
                       0.97707                      -0.17073                      -0.12723
                       0.97594                      -0.17834                      -0.12547
        </DataArray>
        <DataArray type="Float32" Name="OrientationY" NumberOfComponents="3" format="ascii">
                       0.26845                       0.86894                       0.41578
                       0.26847                       0.86893                       0.41579
                       0.26870                       0.86886                       0.41580
                       0.26914                       0.86873                       0.41579
                       0.27005                       0.86849                       0.41569
                       0.24107                       0.87475                       0.42035
                       0.22175                       0.87840                       0.42337
                       0.20687                       0.88090                       0.42570
                       0.19302                       0.88300                       0.42785
                       0.18119                       0.88461                       0.42969
                       0.17349                       0.88555                       0.43094
                       0.16906                       0.88603                       0.43170
                       0.16951                       0.88592                       0.43175
                       0.17686                       0.88494                       0.43082
                       0.18603                       0.88364                       0.42962
                       0.19391                       0.88242                       0.42864
                       0.20029                       0.88135                       0.42791
                       0.20931                       0.87972                       0.42694
                       0.21535                       0.87856                       0.42634
        </DataArray>
        <DataArray type="Float32" Name="OrientationZ" NumberOfComponents="3" format="ascii">
                       0.03720                      -0.44065                       0.89691
                       0.03757                      -0.44076                       0.89684
                       0.03873                      -0.44107                       0.89663
                       0.04041                      -0.44152                       0.89634
                       0.04314                      -0.44221                       0.89587
                       0.04717                      -0.44317                       0.89520
                       0.05171                      -0.44416                       0.89445
                       0.05641                      -0.44512                       0.89369
                       0.06091                      -0.44599                       0.89296
                       0.06481                      -0.44672                       0.89233
                       0.06770                      -0.44726                       0.89184
                       0.06917                      -0.44759                       0.89156
                       0.06879                      -0.44766                       0.89155
                       0.06617                      -0.44742                       0.89187
                       0.06094                      -0.44679                       0.89256
                       0.05438                      -0.44593                       0.89342
                       0.04749                      -0.44498                       0.89428
                       0.03903                      -0.44378                       0.89528
                       0.03420                      -0.44310                       0.89582
        </DataArray>
        <DataArray type="Float32" Name="Force" NumberOfComponents="3" format="ascii">
                       0.94843                      21.45603                      10.50211
                     198.03806                     119.12607                      50.23225
                     304.76033                     343.24728                     155.49898
                     315.04907                     510.65717                     236.75955
                    1618.23490                    -371.16000                    -260.45248
                    1564.25712                    -269.24785                    -214.91605
                    1519.44335                    -176.81721                    -174.92687
                    2314.36586                    -261.23316                    -274.83547
                    2798.78252                    -255.04443                    -316.70561
                    3167.30876                    -233.95618                    -345.51151
                    4889.38262                    -317.33810                    -527.82380
                    5271.56176                    -296.72680                    -555.46181
                    4439.00145                    -212.72424                    -447.54476
                    2915.64876                     -57.02746                    -244.57052
                     943.94476                     128.96721                      -0.98289
                    1373.20220                      31.83569                     -68.00650
                    -334.28227                     243.03111                     137.29895
                   -1886.53711                     336.15331                     247.52967
                  -20187.78612                     675.36588                    1103.22407
        </DataArray>
        <DataArray type="Float32" Name="Moment" NumberOfComponents="3" format="ascii">
                       0.00000                       0.00000                       0.00000
                       0.00000                       0.00000                       0.00000
                       0.00000                       0.00000                       0.00000
                       0.00000                       0.00000                       0.00000
                     -58.60004                     597.74438                   -1215.91253
                    -120.60036                    1124.59749                   -2286.68561
                    -178.12403                    1514.51053                   -3078.09144
                    -311.27833                    2425.01157                   -4926.23968
                    -498.83148                    3598.00255                   -7305.74779
                    -604.23123                    4095.17371                   -8311.96066
                    -704.99378                    4573.60094                   -9280.29806
                    -767.07130                    4870.74737                   -9881.76846
                    -578.55743                    3693.74222                   -7494.14607
                    -549.07300                    3644.15369                   -7395.49832
                    -478.64071                    3449.90972                   -7005.01437
                    -398.67873                    3220.12490                   -6542.78029
                    -307.18036                    2841.83463                   -5778.18821
                    -125.81987                    1416.50951                   -2882.59677
                     -99.70337                    1281.38526                   -2608.89356
        </DataArray>
      </PointData>
      <Lines>
        <DataArray type="Int32" Name="connectivity" format="ascii">
      0      1
      1      2
      2      3
      3      4
      4      5
      5      6
      6      7
      7      8
      8      9
      9     10
     10     11
     11     12
     12     13
     13     14
     14     15
     15     16
     16     17
     17     18
        </DataArray>
        <DataArray type="Int32" Name="offsets" format="ascii">
      2
      4
      6
      8
     10
     12
     14
     16
     18
     20
     22
     24
     26
     28
     30
     32
     34
     36
        </DataArray>
      </Lines>
    </Piece>
  </PolyData>
</VTKFile>
