<?xml version="1.0"?>
<VTKFile type="PolyData" version="0.1" byte_order="LittleEndian">
  <PolyData>
    <Piece NumberOfPoints="     22" NumberOfVerts="  0" NumberOfLines="     21"
           NumberOfStrips="  0" NumberOfPolys="      0">
      <Points>
        <DataArray type="Float32" NumberOfComponents="3" format="ascii">
                       0.00018                      -0.00001                       2.19000
                       0.00179                      -0.00009                       6.57000
                       0.00536                      -0.00025                      10.95000
                       0.01104                      -0.00047                      15.32999
                       0.01888                      -0.00076                      19.70999
                       0.02882                      -0.00112                      24.08998
                       0.04080                      -0.00155                      28.46996
                       0.05474                      -0.00205                      32.84994
                       0.07060                      -0.00265                      37.22991
                       0.08839                      -0.00333                      41.60987
                       0.10817                      -0.00412                      45.98983
                       0.13001                      -0.00501                      50.36977
                       0.15403                      -0.00602                      54.74971
                       0.18033                      -0.00714                      59.12963
                       0.20895                      -0.00837                      63.50953
                       0.23982                      -0.00972                      67.88942
                       0.27271                      -0.01118                      72.26930
                       0.30714                      -0.01273                      76.64917
                       0.34229                      -0.01437                      81.02902
                       0.37694                      -0.01607                      85.40889
                       0.39355                      -0.01694                      87.59882
                       0.00000                       0.00000                       0.00000
        </DataArray>
      </Points>
      <PointData>
        <DataArray type="Float32" Name="TranslationalVelocity" NumberOfComponents="3" format="ascii">
                      -0.00006                       0.00000                       0.00000
                      -0.00063                       0.00001                       0.00000
                      -0.00187                       0.00003                       0.00000
                      -0.00385                       0.00006                       0.00000
                      -0.00657                       0.00009                       0.00001
                      -0.01001                       0.00013                       0.00002
                      -0.01416                       0.00019                       0.00003
                      -0.01897                       0.00026                       0.00004
                      -0.02443                       0.00034                       0.00006
                      -0.03054                       0.00043                       0.00009
                      -0.03732                       0.00055                       0.00012
                      -0.04478                       0.00068                       0.00016
                      -0.05297                       0.00083                       0.00020
                      -0.06191                       0.00101                       0.00026
                      -0.07161                       0.00120                       0.00032
                      -0.08206                       0.00142                       0.00039
                      -0.09316                       0.00166                       0.00048
                      -0.10477                       0.00192                       0.00057
                      -0.11661                       0.00219                       0.00066
                      -0.12826                       0.00248                       0.00075
                      -0.13383                       0.00263                       0.00080
                       0.00000                      -0.00000                       0.00000
        </DataArray>
        <DataArray type="Float32" Name="RotationalVelocity" NumberOfComponents="3" format="ascii">
                      -0.00000                      -0.00006                       0.00000
                      -0.00000                      -0.00020                       0.00000
                      -0.00001                      -0.00037                       0.00000
                      -0.00001                      -0.00054                       0.00000
                      -0.00001                      -0.00071                       0.00000
                      -0.00001                      -0.00087                       0.00000
                      -0.00001                      -0.00102                       0.00000
                      -0.00002                      -0.00117                       0.00000
                      -0.00002                      -0.00132                       0.00000
                      -0.00002                      -0.00147                       0.00000
                      -0.00003                      -0.00162                       0.00000
                      -0.00003                      -0.00179                       0.00000
                      -0.00004                      -0.00195                       0.00000
                      -0.00004                      -0.00213                       0.00000
                      -0.00005                      -0.00230                       0.00000
                      -0.00005                      -0.00246                       0.00000
                      -0.00006                      -0.00260                       0.00000
                      -0.00006                      -0.00269                       0.00000
                      -0.00006                      -0.00270                       0.00000
                      -0.00007                      -0.00260                       0.00000
                      -0.00007                      -0.00249                       0.00000
                       0.00000                      -0.00000                       0.00000
        </DataArray>
        <DataArray type="Float32" Name="TranslationalAcceleration" NumberOfComponents="3" format="ascii">
                       0.00008                      -0.00001                      -0.00000
                       0.00079                      -0.00011                      -0.00000
                       0.00239                      -0.00028                      -0.00000
                       0.00493                      -0.00050                      -0.00001
                       0.00846                      -0.00076                      -0.00001
                       0.01295                      -0.00105                      -0.00003
                       0.01838                      -0.00134                      -0.00005
                       0.02473                      -0.00161                      -0.00007
                       0.03200                      -0.00184                      -0.00011
                       0.04019                      -0.00200                      -0.00015
                       0.04935                      -0.00209                      -0.00020
                       0.05953                      -0.00206                      -0.00026
                       0.07079                      -0.00189                      -0.00034
                       0.08318                      -0.00157                      -0.00043
                       0.09673                      -0.00107                      -0.00054
                       0.11140                      -0.00038                      -0.00067
                       0.12710                       0.00050                      -0.00082
                       0.14359                       0.00157                      -0.00098
                       0.16049                       0.00281                      -0.00114
                       0.17719                       0.00419                      -0.00130
                       0.18522                       0.00491                      -0.00138
                       0.00000                      -0.00000                       0.00000
        </DataArray>
        <DataArray type="Float32" Name="RotationalAcceleration" NumberOfComponents="3" format="ascii">
                       0.00001                       0.00007                       0.00000
                       0.00003                       0.00026                       0.00000
                       0.00005                       0.00047                       0.00000
                       0.00006                       0.00069                       0.00000
                       0.00006                       0.00092                       0.00000
                       0.00007                       0.00113                       0.00000
                       0.00006                       0.00135                       0.00000
                       0.00006                       0.00155                       0.00000
                       0.00005                       0.00176                       0.00000
                       0.00003                       0.00198                       0.00000
                       0.00001                       0.00221                       0.00000
                      -0.00002                       0.00244                       0.00000
                      -0.00005                       0.00270                       0.00000
                      -0.00009                       0.00296                       0.00000
                      -0.00014                       0.00322                       0.00000
                      -0.00018                       0.00347                       0.00000
                      -0.00022                       0.00369                       0.00000
                      -0.00027                       0.00383                       0.00000
                      -0.00030                       0.00386                       0.00000
                      -0.00033                       0.00373                       0.00000
                      -0.00033                       0.00359                       0.00000
                       0.00000                      -0.00000                       0.00000
        </DataArray>
        <DataArray type="Float32" Name="OrientationX" NumberOfComponents="3" format="ascii">
                       1.00000                       0.00000                      -0.00017
                       1.00000                       0.00000                      -0.00058
                       1.00000                       0.00000                      -0.00105
                       1.00000                       0.00000                      -0.00154
                       1.00000                       0.00000                      -0.00203
                       1.00000                       0.00000                      -0.00251
                       1.00000                       0.00000                      -0.00296
                       0.99999                       0.00000                      -0.00340
                       0.99999                       0.00000                      -0.00384
                       0.99999                       0.00000                      -0.00429
                       0.99999                       0.00000                      -0.00475
                       0.99999                       0.00000                      -0.00523
                       0.99998                       0.00000                      -0.00574
                       0.99998                       0.00000                      -0.00627
                       0.99998                       0.00000                      -0.00680
                       0.99997                       0.00000                      -0.00729
                       0.99997                       0.00000                      -0.00771
                       0.99997                       0.00000                      -0.00798
                       0.99997                       0.00000                      -0.00803
                       0.99997                       0.00000                      -0.00773
                       0.99997                       0.00000                      -0.00741
                       1.00000                      -0.00000                       0.00000
        </DataArray>
        <DataArray type="Float32" Name="OrientationY" NumberOfComponents="3" format="ascii">
                       0.00000                       1.00000                       0.00001
                       0.00000                       1.00000                       0.00003
                       0.00000                       1.00000                       0.00004
                       0.00000                       1.00000                       0.00006
                       0.00000                       1.00000                       0.00007
                       0.00000                       1.00000                       0.00009
                       0.00000                       1.00000                       0.00011
                       0.00000                       1.00000                       0.00013
                       0.00000                       1.00000                       0.00015
                       0.00000                       1.00000                       0.00017
                       0.00000                       1.00000                       0.00019
                       0.00000                       1.00000                       0.00022
                       0.00000                       1.00000                       0.00024
                       0.00000                       1.00000                       0.00027
                       0.00000                       1.00000                       0.00030
                       0.00000                       1.00000                       0.00032
                       0.00000                       1.00000                       0.00034
                       0.00000                       1.00000                       0.00036
                       0.00000                       1.00000                       0.00038
                       0.00000                       1.00000                       0.00039
                       0.00000                       1.00000                       0.00040
                      -0.00000                       1.00000                      -0.00000
        </DataArray>
        <DataArray type="Float32" Name="OrientationZ" NumberOfComponents="3" format="ascii">
                       0.00017                      -0.00001                       1.00000
                       0.00058                      -0.00003                       1.00000
                       0.00105                      -0.00004                       1.00000
                       0.00154                      -0.00006                       1.00000
                       0.00203                      -0.00007                       1.00000
                       0.00251                      -0.00009                       1.00000
                       0.00296                      -0.00011                       1.00000
                       0.00340                      -0.00013                       0.99999
                       0.00384                      -0.00015                       0.99999
                       0.00429                      -0.00017                       0.99999
                       0.00475                      -0.00019                       0.99999
                       0.00523                      -0.00022                       0.99999
                       0.00574                      -0.00024                       0.99998
                       0.00627                      -0.00027                       0.99998
                       0.00680                      -0.00030                       0.99998
                       0.00729                      -0.00032                       0.99997
                       0.00771                      -0.00034                       0.99997
                       0.00798                      -0.00036                       0.99997
                       0.00803                      -0.00038                       0.99997
                       0.00773                      -0.00039                       0.99997
                       0.00741                      -0.00040                       0.99997
                       0.00000                      -0.00000                       1.00000
        </DataArray>
      </PointData>
      <Lines>
        <DataArray type="Int32" Name="connectivity" format="ascii">
      0      1
      1      2
      2      3
      3      4
      4      5
      5      6
      6      7
      7      8
      8      9
      9     10
     10     11
     11     12
     12     13
     13     14
     14     15
     15     16
     16     17
     17     18
     18     19
     19     20
     21      0
        </DataArray>
        <DataArray type="Int32" Name="offsets" format="ascii">
      2
      4
      6
      8
     10
     12
     14
     16
     18
     20
     22
     24
     26
     28
     30
     32
     34
     36
     38
     40
     42
        </DataArray>
      </Lines>
    </Piece>
  </PolyData>
</VTKFile>
