<?xml version="1.0"?>
<VTKFile type="PolyData" version="0.1" byte_order="LittleEndian">
  <PolyData>
    <Piece NumberOfPoints="     19" NumberOfVerts="  0" NumberOfLines="     18"
           NumberOfStrips="  0" NumberOfPolys="      0">
      <Points>
        <DataArray type="Float32" NumberOfComponents="3" format="ascii">
                      -4.57278                       1.49575                      90.06917
                      -4.63042                       2.86117                      90.09704
                      -4.75375                       5.58998                      90.24748
                      -4.87540                       8.31852                      90.44132
                      -5.01687                      11.73013                      90.70756
                      -5.12158                      15.82940                      90.87482
                      -5.17836                      19.93202                      90.90515
                      -5.19135                      24.03517                      90.92800
                      -5.14871                      28.13814                      90.94151
                      -5.04128                      32.23985                      90.94783
                      -4.86068                      36.33892                      90.95081
                      -4.59784                      40.43363                      90.94888
                      -4.24624                      44.52195                      90.94193
                      -3.80120                      48.60151                      90.92971
                      -3.25785                      52.66924                      90.91158
                      -2.72773                      56.04735                      90.89121
                      -2.25732                      58.74108                      90.86333
                      -1.75052                      61.42638                      90.77681
                      -1.48008                      62.76470                      90.77358
        </DataArray>
      </Points>
      <PointData>
        <DataArray type="Float32" Name="TranslationalVelocity" NumberOfComponents="3" format="ascii">
                       0.22720                      -0.05505                       2.92760
                       0.48476                      -0.09873                       5.60014
                       1.00051                      -0.36996                      10.94135
                       1.51825                      -0.72642                      16.28228
                       2.16980                      -1.22073                      22.96088
                       2.96070                      -1.52809                      30.98672
                       3.76302                      -1.57646                      39.02041
                       4.57823                      -1.61872                      47.05651
                       5.40785                      -1.65399                      55.09361
                       6.25298                      -1.68875                      63.12947
                       7.11425                      -1.73285                      71.16122
                       7.99175                      -1.78567                      79.18526
                       8.88499                      -1.84900                      87.19735
                       9.79280                      -1.92398                      95.19254
                      10.71322                      -2.01114                     103.16454
                      11.48812                      -2.09268                     109.78475
                      12.11147                      -2.14705                     115.06350
                      12.73662                      -2.09617                     120.32543
                      13.04949                      -2.15369                     122.94775
        </DataArray>
        <DataArray type="Float32" Name="RotationalVelocity" NumberOfComponents="3" format="ascii">
                       1.95733                      -0.00111                      -0.18853
                       1.95734                      -0.00111                      -0.18870
                       1.95742                      -0.00108                      -0.18927
                       1.95753                      -0.00102                      -0.19016
                       1.95773                      -0.00092                      -0.19165
                       1.95801                      -0.00076                      -0.19396
                       1.95833                      -0.00057                      -0.19677
                       1.95865                      -0.00037                      -0.20001
                       1.95895                      -0.00014                      -0.20362
                       1.95923                       0.00010                      -0.20753
                       1.95946                       0.00038                      -0.21164
                       1.95965                       0.00069                      -0.21587
                       1.95978                       0.00106                      -0.22007
                       1.95988                       0.00150                      -0.22407
                       1.95995                       0.00206                      -0.22767
                       1.96000                       0.00263                      -0.23019
                       1.96005                       0.00317                      -0.23176
                       1.96011                       0.00382                      -0.23281
                       1.96016                       0.00418                      -0.23311
        </DataArray>
        <DataArray type="Float32" Name="TranslationalAcceleration" NumberOfComponents="3" format="ascii">
                       0.05056                      -5.79772                       0.04801
                       0.00935                      -7.00892                       0.01014
                      -0.01409                     -20.05449                      -0.32920
                      -0.06100                     -32.05490                      -0.83776
                      -0.13334                     -46.07419                      -1.56271
                      -0.16586                     -62.01967                      -1.86016
                      -0.13694                     -77.55485                      -1.62880
                      -0.08431                     -93.05329                      -1.36142
                      -0.00250                    -108.70912                      -1.05658
                       0.10805                    -124.58162                      -0.72939
                       0.24042                    -140.63230                      -0.40296
                       0.38355                    -156.76237                      -0.08073
                       0.51851                    -172.85136                       0.22905
                       0.61828                    -188.79516                       0.52009
                       0.64681                    -204.54248                       0.78899
                       0.58052                    -217.53850                       0.99680
                       0.45321                    -227.90986                       1.18616
                       0.26802                    -238.34568                       1.58476
                       0.10942                    -243.62480                       1.62384
        </DataArray>
        <DataArray type="Float32" Name="OrientationX" NumberOfComponents="3" format="ascii">
                       0.98987                       0.03924                       0.13647
                       0.98989                       0.03861                       0.13645
                       0.98998                       0.03658                       0.13640
                       0.99010                       0.03357                       0.13631
                       0.99027                       0.02858                       0.13616
                       0.99432                       0.02133                       0.10429
                       0.99662                       0.01181                       0.08128
                       0.99812                       0.00005                       0.06136
                       0.99907                      -0.01404                       0.04067
                       0.99933                      -0.03059                       0.01990
                       0.99877                      -0.04961                       0.00099
                       0.99734                      -0.07088                      -0.01695
                       0.99505                      -0.09400                      -0.03214
                       0.99210                      -0.11823                      -0.04205
                       0.98849                      -0.14243                      -0.05108
                       0.98514                      -0.16152                      -0.05832
                       0.98248                      -0.17525                      -0.06341
                       0.98026                      -0.18687                      -0.06463
                       0.97944                      -0.19165                      -0.06305
        </DataArray>
        <DataArray type="Float32" Name="OrientationY" NumberOfComponents="3" format="ascii">
                       0.13562                       0.02362                      -0.99048
                       0.13563                       0.02326                      -0.99049
                       0.13565                       0.02230                      -0.99051
                       0.13565                       0.02107                      -0.99053
                       0.13564                       0.01930                      -0.99057
                       0.10396                       0.01625                      -0.99445
                       0.08111                       0.01372                      -0.99661
                       0.06135                       0.01160                      -0.99805
                       0.04081                       0.00993                      -0.99912
                       0.02018                       0.00881                      -0.99976
                       0.00140                       0.00825                      -0.99996
                      -0.01641                       0.00829                      -0.99983
                      -0.03146                       0.00878                      -0.99947
                      -0.04125                       0.00927                      -0.99911
                      -0.05016                       0.01001                      -0.99869
                      -0.05733                       0.01082                      -0.99830
                      -0.06237                       0.01145                      -0.99799
                      -0.06363                       0.01138                      -0.99791
                      -0.06212                       0.01089                      -0.99801
        </DataArray>
        <DataArray type="Float32" Name="OrientationZ" NumberOfComponents="3" format="ascii">
                      -0.04209                       0.99895                       0.01806
                      -0.04142                       0.99898                       0.01779
                      -0.03928                       0.99908                       0.01711
                      -0.03613                       0.99921                       0.01631
                      -0.03094                       0.99941                       0.01523
                      -0.02291                       0.99964                       0.01394
                      -0.01289                       0.99984                       0.01271
                      -0.00077                       0.99993                       0.01157
                       0.01363                       0.99985                       0.01049
                       0.03041                       0.99949                       0.00942
                       0.04960                       0.99873                       0.00831
                       0.07101                       0.99745                       0.00711
                       0.09423                       0.99553                       0.00578
                       0.11851                       0.99294                       0.00432
                       0.14275                       0.98975                       0.00275
                       0.16188                       0.98681                       0.00140
                       0.17562                       0.98446                       0.00032
                       0.18721                       0.98232                      -0.00074
                       0.19196                       0.98140                      -0.00124
        </DataArray>
        <DataArray type="Float32" Name="Force" NumberOfComponents="3" format="ascii">
                      -0.33160                       0.04825                      -3.44236
                     159.61945                       8.01311                     -77.62367
                     201.42975                      11.47213                    -200.35419
                     181.72722                      11.48181                    -281.96001
                    1794.61567                      47.58166                     452.13541
                    2064.37436                      41.35662                     340.34742
                    2338.48810                      25.56061                     264.33037
                    3146.73687                      -1.80895                     247.32726
                    3504.28945                     -50.37769                     149.73406
                    4109.53451                    -126.49239                      75.38686
                    5345.72070                    -265.51349                     -38.88606
                    6105.14896                    -433.43159                    -158.54583
                    7170.37770                    -676.77970                    -236.15621
                    7733.75958                    -920.69617                    -339.15944
                    8229.55663                   -1184.57757                    -436.61524
                    8559.50030                   -1402.13223                    -514.08741
                    8493.46409                   -1513.81216                    -550.56465
                    6343.74745                   -1208.41874                    -415.19502
                    2702.65388                    -529.24637                    -339.43274
        </DataArray>
        <DataArray type="Float32" Name="Moment" NumberOfComponents="3" format="ascii">
                       0.00000                       0.00000                       0.00000
                       0.00000                       0.00000                       0.00000
                       0.00000                       0.00000                       0.00000
                       0.00000                       0.00000                       0.00000
                      23.88671                    -775.73271                     -13.17485
                      32.91124                   -1449.50836                     -23.48884
                      24.46850                   -1933.86631                     -29.46506
                       1.52661                   -2875.47595                     -40.45411
                     -56.85233                   -4109.61004                     -52.12999
                    -142.78774                   -4669.75880                     -51.70376
                    -254.25918                   -5112.22377                     -47.16802
                    -387.69141                   -5446.60395                     -39.00173
                    -418.03810                   -4421.47480                     -21.70868
                    -526.35958                   -4417.23877                     -11.21473
                    -617.61492                   -4290.48670                      -0.64739
                    -669.93353                   -4092.32609                       7.17016
                    -650.24234                   -3652.44000                      11.43943
                    -351.33765                   -1847.12380                       7.95212
                    -335.69361                   -1719.53639                       8.23360
        </DataArray>
      </PointData>
      <Lines>
        <DataArray type="Int32" Name="connectivity" format="ascii">
      0      1
      1      2
      2      3
      3      4
      4      5
      5      6
      6      7
      7      8
      8      9
      9     10
     10     11
     11     12
     12     13
     13     14
     14     15
     15     16
     16     17
     17     18
        </DataArray>
        <DataArray type="Int32" Name="offsets" format="ascii">
      2
      4
      6
      8
     10
     12
     14
     16
     18
     20
     22
     24
     26
     28
     30
     32
     34
     36
        </DataArray>
      </Lines>
    </Piece>
  </PolyData>
</VTKFile>
