<?xml version="1.0"?>
<VTKFile type="PolyData" version="0.1" byte_order="LittleEndian">
  <PolyData>
    <Piece NumberOfPoints="     19" NumberOfVerts="  0" NumberOfLines="     18"
           NumberOfStrips="  0" NumberOfPolys="      0">
      <Points>
        <DataArray type="Float32" NumberOfComponents="3" format="ascii">
                      -4.84912                       0.43511                      88.60850
                      -5.03088                       0.83342                      87.31350
                      -5.41102                       1.72005                      84.75308
                      -5.79552                       2.64921                      82.20576
                      -6.27258                       3.83601                      79.02805
                      -6.77995                       5.12373                      75.16392
                      -7.24481                       6.28747                      71.25629
                      -7.68606                       7.44931                      67.34501
                      -8.09847                       8.60793                      63.42926
                      -8.48071                       9.76543                      59.50977
                      -8.83300                      10.92552                      55.58787
                      -9.15485                      12.08688                      51.66337
                      -9.44856                      13.24943                      47.73673
                      -9.71820                      14.41296                      43.80858
                      -9.96732                      15.57724                      39.87962
                     -10.16437                      16.54766                      36.60547
                     -10.31895                      17.31623                      33.98443
                     -10.47042                      18.03190                      31.34803
                     -10.55204                      18.42903                      30.04266
        </DataArray>
      </Points>
      <PointData>
        <DataArray type="Float32" Name="TranslationalVelocity" NumberOfComponents="3" format="ascii">
                       0.08287                       3.66034                       1.10522
                       0.17778                       7.00312                       2.12006
                       0.38720                      13.61446                       4.37836
                       0.60360                      20.18935                       6.74372
                       0.87435                      28.38396                       9.76296
                       1.15650                      38.32093                      13.03617
                       1.39575                      48.34631                      15.99199
                       1.61913                      58.36343                      18.94113
                       1.82461                      68.37400                      21.88036
                       2.01120                      78.37711                      24.81531
                       2.17863                      88.37082                      27.75557
                       2.32567                      98.35704                      30.69800
                       2.45174                     108.33648                      33.64265
                       2.55654                     118.30966                      36.58914
                       2.64014                     128.27629                      39.53702
                       2.69351                     136.57645                      41.99366
                       2.72424                     143.21820                      43.93916
                       2.73155                     149.89554                      45.75092
                       2.74328                     153.20241                      46.75593
        </DataArray>
        <DataArray type="Float32" Name="RotationalVelocity" NumberOfComponents="3" format="ascii">
                       2.54826                       0.00007                      -0.23911
                       2.54778                       0.00030                      -0.23900
                       2.54649                       0.00112                      -0.23869
                       2.54485                       0.00237                      -0.23833
                       2.54248                       0.00445                      -0.23793
                       2.53940                       0.00760                      -0.23769
                       2.53630                       0.01142                      -0.23789
                       2.53334                       0.01583                      -0.23867
                       2.53062                       0.02082                      -0.24012
                       2.52820                       0.02633                      -0.24226
                       2.52607                       0.03232                      -0.24504
                       2.52424                       0.03869                      -0.24834
                       2.52266                       0.04528                      -0.25194
                       2.52130                       0.05187                      -0.25554
                       2.52014                       0.05812                      -0.25874
                       2.51932                       0.06280                      -0.26075
                       2.51877                       0.06595                      -0.26167
                       2.51834                       0.06836                      -0.26173
                       2.51817                       0.06922                      -0.26137
        </DataArray>
        <DataArray type="Float32" Name="TranslationalAcceleration" NumberOfComponents="3" format="ascii">
                       0.87639                      -2.84521                       9.37204
                       1.06035                      -3.41591                      11.32248
                       3.02115                     -10.35110                      32.20622
                       4.81878                     -17.03411                      51.29046
                       6.91905                     -25.03730                      73.46871
                       9.34686                     -33.26414                      98.87539
                      11.75873                     -40.42413                     123.79813
                      14.20992                     -47.49519                     148.59606
                      16.75116                     -54.56482                     173.58917
                      19.41407                     -61.67940                     198.87733
                      22.21561                     -68.84958                     224.40406
                      25.16028                     -76.02681                     250.03002
                      28.24392                     -83.16190                     275.58247
                      31.45683                     -90.21456                     300.91931
                      34.78688                     -97.17415                     325.98934
                      37.64471                    -102.92423                     346.74367
                      39.97295                    -107.47716                     363.37910
                      42.31468                    -111.74276                     380.28471
                      43.52141                    -114.16556                     388.79049
        </DataArray>
        <DataArray type="Float32" Name="OrientationX" NumberOfComponents="3" format="ascii">
                       0.97039                       0.23262                      -0.06499
                       0.97045                       0.23251                      -0.06458
                       0.97060                       0.23226                      -0.06325
                       0.97079                       0.23197                      -0.06127
                       0.97108                       0.23162                      -0.05800
                       0.97745                       0.20164                      -0.06276
                       0.98154                       0.18038                      -0.06354
                       0.98471                       0.16273                      -0.06225
                       0.98755                       0.14530                      -0.06021
                       0.98999                       0.12900                      -0.05734
                       0.99184                       0.11584                      -0.05327
                       0.99328                       0.10506                      -0.04860
                       0.99421                       0.09834                      -0.04321
                       0.99451                       0.09791                      -0.03694
                       0.99455                       0.09924                      -0.03182
                       0.99447                       0.10094                      -0.02916
                       0.99429                       0.10289                      -0.02846
                       0.99372                       0.10817                      -0.02849
                       0.99322                       0.11267                      -0.02868
        </DataArray>
        <DataArray type="Float32" Name="OrientationY" NumberOfComponents="3" format="ascii">
                       0.20176                      -0.92863                      -0.31136
                       0.20180                      -0.92868                      -0.31119
                       0.20201                      -0.92878                      -0.31074
                       0.20238                      -0.92889                      -0.31018
                       0.20310                      -0.92900                      -0.30936
                       0.17340                      -0.93597                      -0.30643
                       0.15311                      -0.94026                      -0.30409
                       0.13680                      -0.94341                      -0.30209
                       0.12091                      -0.94616                      -0.30026
                       0.10629                      -0.94842                      -0.29866
                       0.09498                      -0.95001                      -0.29742
                       0.08610                      -0.95116                      -0.29646
                       0.08128                      -0.95178                      -0.29583
                       0.08272                      -0.95174                      -0.29555
                       0.08550                      -0.95155                      -0.29538
                       0.08790                      -0.95136                      -0.29527
                       0.08998                      -0.95118                      -0.29524
                       0.09502                      -0.95065                      -0.29536
                       0.09925                      -0.95017                      -0.29550
        </DataArray>
        <DataArray type="Float32" Name="OrientationZ" NumberOfComponents="3" format="ascii">
                      -0.13278                       0.28903                      -0.94807
                      -0.13232                       0.28896                      -0.94815
                      -0.13091                       0.28883                      -0.94839
                      -0.12887                       0.28872                      -0.94870
                      -0.12554                       0.28863                      -0.94917
                      -0.12053                       0.28863                      -0.94982
                      -0.11459                       0.28875                      -0.95052
                      -0.10789                       0.28896                      -0.95124
                      -0.10060                       0.28924                      -0.95196
                      -0.09291                       0.28957                      -0.95264
                      -0.08506                       0.28993                      -0.95326
                      -0.07737                       0.29028                      -0.95381
                      -0.07022                       0.29061                      -0.95426
                      -0.06410                       0.29087                      -0.95461
                      -0.05960                       0.29105                      -0.95485
                      -0.05755                       0.29108                      -0.95497
                      -0.05745                       0.29100                      -0.95500
                      -0.05903                       0.29080                      -0.95496
                      -0.06055                       0.29064                      -0.95491
        </DataArray>
        <DataArray type="Float32" Name="Force" NumberOfComponents="3" format="ascii">
                      -0.33734                     -11.94625                      -3.59472
                     135.48047                     -82.62228                     -44.09518
                     208.33717                    -255.95805                    -106.77677
                     214.16739                    -396.96764                    -150.06559
                    1289.56257                     308.65335                     -76.53285
                    1258.74958                     223.95559                     -91.54276
                    1235.61256                     146.66533                    -104.32581
                    1916.86801                     217.43502                    -151.27633
                    2394.01054                     215.39091                    -187.50418
                    2839.24848                     202.36612                    -215.41326
                    4449.61386                     259.56141                    -318.23888
                    5126.16923                     241.84443                    -342.44103
                    5288.83022                     233.09986                    -318.50668
                    5038.86095                     178.22779                    -284.31159
                    4448.98350                     110.14973                    -244.30602
                    3770.07381                      48.08214                    -212.61490
                    3010.56735                      -4.06630                    -182.30425
                    1484.02798                     -50.86967                    -107.10798
                   -7634.54904                     -66.96140                     463.66420
        </DataArray>
        <DataArray type="Float32" Name="Moment" NumberOfComponents="3" format="ascii">
                       0.00000                       0.00000                       0.00000
                       0.00000                       0.00000                       0.00000
                       0.00000                       0.00000                       0.00000
                       0.00000                       0.00000                       0.00000
                     134.19952                    -309.10228                    1014.63912
                     244.75259                    -587.27363                    1928.70522
                     315.00993                    -795.17407                    2613.02304
                     474.73181                   -1272.94908                    4185.81345
                     657.52537                   -1891.06222                    6222.82142
                     693.18662                   -2158.62149                    7108.64874
                     709.54322                   -2413.06224                    7952.69118
                     688.66490                   -2574.40224                    8490.82818
                     480.11517                   -1977.10242                    6525.40571
                     435.97578                   -1966.43583                    6494.09988
                     390.66249                   -1894.70627                    6259.97494
                     357.08164                   -1793.32112                    5926.19521
                     315.97973                   -1589.75330                    5253.53988
                     162.02663                    -793.49906                    2621.81299
                     156.77796                    -748.67266                    2473.33496
        </DataArray>
      </PointData>
      <Lines>
        <DataArray type="Int32" Name="connectivity" format="ascii">
      0      1
      1      2
      2      3
      3      4
      4      5
      5      6
      6      7
      7      8
      8      9
      9     10
     10     11
     11     12
     12     13
     13     14
     14     15
     15     16
     16     17
     17     18
        </DataArray>
        <DataArray type="Int32" Name="offsets" format="ascii">
      2
      4
      6
      8
     10
     12
     14
     16
     18
     20
     22
     24
     26
     28
     30
     32
     34
     36
        </DataArray>
      </Lines>
    </Piece>
  </PolyData>
</VTKFile>
