<?xml version="1.0"?>
<VTKFile type="PolyData" version="0.1" byte_order="LittleEndian">
  <PolyData>
    <Piece NumberOfPoints="     19" NumberOfVerts="  0" NumberOfLines="     18"
           NumberOfStrips="  0" NumberOfPolys="      0">
      <Points>
        <DataArray type="Float32" NumberOfComponents="3" format="ascii">
                      -4.73711                      -0.54230                      88.64985
                      -4.91896                      -1.01963                      87.38196
                      -5.30294                      -1.88488                      84.81526
                      -5.69113                      -2.70717                      82.23272
                      -6.16945                      -3.70815                      78.99296
                      -6.66042                      -5.04049                      75.14343
                      -7.08709                      -6.49007                      71.32987
                      -7.47016                      -7.93622                      67.51020
                      -7.79764                      -9.37979                      63.68431
                      -8.06072                     -10.81824                      59.85152
                      -8.25161                     -12.24750                      56.01101
                      -8.36112                     -13.66841                      52.16404
                      -8.38284                     -15.08058                      48.31199
                      -8.31218                     -16.48370                      44.45676
                      -8.14428                     -17.87735                      40.60091
                      -7.92788                     -19.03125                      37.38963
                      -7.70790                     -19.95713                      34.82616
                      -7.44472                     -20.93062                      32.28505
                      -7.30172                     -21.37664                      31.00256
        </DataArray>
      </Points>
      <PointData>
        <DataArray type="Float32" Name="TranslationalVelocity" NumberOfComponents="3" format="ascii">
                      -0.07029                       2.56237                      -0.95639
                      -0.15440                       4.89994                      -1.82437
                      -0.30774                       9.63261                      -3.39694
                      -0.45481                      14.39131                      -4.89031
                      -0.63632                      20.35369                      -6.70640
                      -0.88149                      27.41570                      -9.12066
                      -1.15373                      34.39112                     -11.74312
                      -1.43413                      41.35975                     -14.35472
                      -1.72486                      48.32013                     -16.95738
                      -2.02746                      55.27261                     -19.54706
                      -2.34303                      62.21817                     -22.11727
                      -2.67329                      69.15387                     -24.67056
                      -3.01938                      76.07702                     -27.20735
                      -3.38199                      82.98419                     -29.72830
                      -3.76128                      89.87048                     -32.23397
                      -4.09006                      95.58850                     -34.31088
                      -4.36185                     100.14238                     -35.97928
                      -4.64893                     104.64627                     -37.73522
                      -4.78774                     106.91671                     -38.54092
        </DataArray>
        <DataArray type="Float32" Name="RotationalVelocity" NumberOfComponents="3" format="ascii">
                       1.81907                       0.00069                      -0.17435
                       1.81868                       0.00077                      -0.17435
                       1.81760                       0.00109                      -0.17437
                       1.81619                       0.00159                      -0.17450
                       1.81414                       0.00242                      -0.17483
                       1.81144                       0.00372                      -0.17555
                       1.80869                       0.00534                      -0.17665
                       1.80603                       0.00730                      -0.17809
                       1.80357                       0.00964                      -0.17979
                       1.80136                       0.01240                      -0.18167
                       1.79943                       0.01562                      -0.18360
                       1.79778                       0.01927                      -0.18544
                       1.79639                       0.02330                      -0.18708
                       1.79522                       0.02761                      -0.18840
                       1.79425                       0.03199                      -0.18930
                       1.79358                       0.03551                      -0.18970
                       1.79312                       0.03809                      -0.18976
                       1.79275                       0.04029                      -0.18961
                       1.79259                       0.04121                      -0.18945
        </DataArray>
        <DataArray type="Float32" Name="TranslationalAcceleration" NumberOfComponents="3" format="ascii">
                       0.59087                       1.89987                       4.63254
                       0.57710                       2.24689                       5.59995
                       1.64135                       6.12258                      16.13009
                       2.60080                       9.50060                      25.86924
                       3.69700                      13.29466                      37.27052
                       4.89849                      17.96133                      50.04617
                       6.03878                      22.84797                      62.30546
                       7.17753                      27.68036                      74.49937
                       8.34228                      32.52947                      86.78139
                       9.54782                      37.41213                      99.20254
                      10.79893                      42.30922                     111.73900
                      12.09245                      47.19875                     124.31453
                      13.42114                      52.04757                     136.83926
                      14.77659                      56.82800                     149.23850
                      16.15209                      61.52927                     161.48231
                      17.31242                      65.39838                     171.59563
                      18.24880                      68.50780                     179.67077
                      19.18790                      71.80648                     187.75477
                      19.67220                      73.34880                     191.89962
        </DataArray>
        <DataArray type="Float32" Name="OrientationX" NumberOfComponents="3" format="ascii">
                       0.95626                       0.20054                      -0.21296
                       0.95634                       0.20078                      -0.21235
                       0.95662                       0.20157                      -0.21036
                       0.95701                       0.20275                      -0.20742
                       0.95763                       0.20473                      -0.20258
                       0.96634                       0.17866                      -0.18511
                       0.97236                       0.16160                      -0.16854
                       0.97736                       0.14823                      -0.15098
                       0.98215                       0.13496                      -0.13104
                       0.98650                       0.12236                      -0.10881
                       0.99006                       0.11214                      -0.08490
                       0.99289                       0.10331                      -0.05914
                       0.99472                       0.09730                      -0.03250
                       0.99534                       0.09617                      -0.00649
                       0.99525                       0.09538                       0.01932
                       0.99475                       0.09427                       0.03983
                       0.99414                       0.09330                       0.05460
                       0.99327                       0.09508                       0.06608
                       0.99275                       0.09764                       0.07010
        </DataArray>
        <DataArray type="Float32" Name="OrientationY" NumberOfComponents="3" format="ascii">
                       0.26073                      -0.91440                       0.30967
                       0.26075                      -0.91437                       0.30974
                       0.26080                      -0.91429                       0.30993
                       0.26090                      -0.91418                       0.31017
                       0.26110                      -0.91400                       0.31054
                       0.23082                      -0.91986                       0.31715
                       0.20921                      -0.92350                       0.32152
                       0.19069                      -0.92631                       0.32494
                       0.17142                      -0.92897                       0.32806
                       0.15201                      -0.93140                       0.33074
                       0.13426                      -0.93342                       0.33272
                       0.11721                      -0.93522                       0.33411
                       0.10256                      -0.93668                       0.33482
                       0.09278                      -0.93764                       0.33499
                       0.08344                      -0.93855                       0.33490
                       0.07561                      -0.93931                       0.33463
                       0.06984                      -0.93985                       0.33438
                       0.06773                      -0.94000                       0.33439
                       0.06881                      -0.93985                       0.33459
        </DataArray>
        <DataArray type="Float32" Name="OrientationZ" NumberOfComponents="3" format="ascii">
                      -0.13263                      -0.35165                      -0.92669
                      -0.13197                      -0.35159                      -0.92681
                      -0.12986                      -0.35134                      -0.92720
                      -0.12673                      -0.35095                      -0.92778
                      -0.12158                      -0.35027                      -0.92872
                      -0.11362                      -0.34920                      -0.93013
                      -0.10369                      -0.34789                      -0.93178
                      -0.09169                      -0.34637                      -0.93361
                      -0.07746                      -0.34467                      -0.93552
                      -0.06088                      -0.34281                      -0.93743
                      -0.04194                      -0.34081                      -0.93920
                      -0.02079                      -0.33866                      -0.94068
                       0.00214                      -0.33639                      -0.94172
                       0.02613                      -0.33404                      -0.94220
                       0.05007                      -0.33169                      -0.94206
                       0.06896                      -0.32986                      -0.94151
                       0.08251                      -0.32861                      -0.94086
                       0.09391                      -0.32766                      -0.94012
                       0.09855                      -0.32734                      -0.93975
        </DataArray>
        <DataArray type="Float32" Name="Force" NumberOfComponents="3" format="ascii">
                       0.38731                     -10.78653                       4.03775
                     137.89794                     -76.82472                       9.51452
                     203.24858                    -196.83456                      46.20475
                     201.31353                    -270.39595                      75.04283
                    1705.90088                     553.74108                    -433.24690
                    1980.20407                     495.78452                    -429.70075
                    2240.22852                     454.70440                    -421.36245
                    2977.54423                     516.63083                    -487.63692
                    3285.53944                     472.50140                    -450.17098
                    3824.38034                     484.94430                    -430.58133
                    4979.19127                     550.69101                    -428.22959
                    5730.09152                     584.45613                    -343.78284
                    6764.37742                     708.42331                    -246.03906
                    7374.24627                     769.35942                     -77.09633
                    7933.04888                     835.20452                     118.49021
                    8309.49639                     879.84642                     291.37482
                    8245.92050                     873.06140                     409.92993
                    6090.61089                     655.78981                     373.91242
                    2126.16669                      81.46595                     195.87571
        </DataArray>
        <DataArray type="Float32" Name="Moment" NumberOfComponents="3" format="ascii">
                       0.00000                       0.00000                       0.00000
                       0.00000                       0.00000                       0.00000
                       0.00000                       0.00000                       0.00000
                       0.00000                       0.00000                       0.00000
                      86.89196                     251.53873                     663.63177
                     156.59324                     485.39671                    1281.67975
                     188.03689                     639.17767                    1689.47779
                     243.79328                     937.98710                    2482.37631
                     290.34949                    1323.78756                    3508.54729
                     256.38175                    1489.64222                    3954.87379
                     191.13988                    1617.37128                    4302.35057
                      99.28595                    1713.48865                    4567.93179
                     -10.54485                    1399.41925                    3739.45444
                    -106.50498                    1395.41761                    3737.96916
                    -196.77284                    1353.40367                    3634.39088
                    -258.03007                    1288.65427                    3467.29375
                    -275.22111                    1147.58513                    3092.08721
                    -158.02070                     578.22748                    1559.84897
                    -149.83082                     522.13134                    1409.20674
        </DataArray>
      </PointData>
      <Lines>
        <DataArray type="Int32" Name="connectivity" format="ascii">
      0      1
      1      2
      2      3
      3      4
      4      5
      5      6
      6      7
      7      8
      8      9
      9     10
     10     11
     11     12
     12     13
     13     14
     14     15
     15     16
     16     17
     17     18
        </DataArray>
        <DataArray type="Int32" Name="offsets" format="ascii">
      2
      4
      6
      8
     10
     12
     14
     16
     18
     20
     22
     24
     26
     28
     30
     32
     34
     36
        </DataArray>
      </Lines>
    </Piece>
  </PolyData>
</VTKFile>
