<?xml version="1.0"?>
<VTKFile type="PolyData" version="0.1" byte_order="LittleEndian">
  <PolyData>
    <Piece NumberOfPoints="     19" NumberOfVerts="  0" NumberOfLines="     18"
           NumberOfStrips="  0" NumberOfPolys="      0">
      <Points>
        <DataArray type="Float32" NumberOfComponents="3" format="ascii">
                      -5.00816                      -1.00773                      88.90928
                      -5.15944                      -1.91768                      87.90037
                      -5.48829                      -3.66597                      85.82129
                      -5.82732                      -5.37976                      83.71207
                      -6.25306                      -7.50037                      81.05582
                      -6.69214                     -10.15043                      77.95282
                      -7.08590                     -12.89499                      74.92811
                      -7.46773                     -15.63844                      71.90018
                      -7.83604                     -18.38246                      68.87025
                      -8.19408                     -21.12606                      65.83783
                      -8.54725                     -23.86709                      62.80170
                      -8.90006                     -26.60736                      59.76417
                      -9.26018                     -29.34764                      56.72713
                      -9.63708                     -32.08869                      53.69294
                     -10.03971                     -34.83102                      50.66387
                     -10.40476                     -37.11782                      48.14588
                     -10.71972                     -38.95415                      46.14191
                     -11.05014                     -40.83246                      44.17881
                     -11.23670                     -41.74108                      43.17367
        </DataArray>
      </Points>
      <PointData>
        <DataArray type="Float32" Name="TranslationalVelocity" NumberOfComponents="3" format="ascii">
                      -0.24996                       3.14712                      -2.80866
                      -0.48048                       6.01522                      -5.36084
                      -0.93100                      11.92709                     -10.26100
                      -1.37923                      17.92195                     -15.06041
                      -1.93776                      25.46479                     -20.99388
                      -2.63447                      34.25180                     -28.40179
                      -3.35293                      42.79810                     -36.06539
                      -4.06973                      51.34044                     -43.71690
                      -4.78945                      59.87536                     -51.36092
                      -5.51819                      68.40575                     -58.99455
                      -6.26303                      76.93725                     -66.61169
                      -7.03266                      85.46562                     -74.21722
                      -7.83515                      93.98879                     -81.81306
                      -8.67741                     102.50409                     -89.40118
                      -9.56430                     111.00882                     -96.98286
                     -10.33981                     118.08523                    -103.29724
                     -10.98435                     123.72322                    -108.36304
                     -11.66283                     129.25160                    -113.54017
                     -11.99744                     132.08754                    -116.04293
        </DataArray>
        <DataArray type="Float32" Name="RotationalVelocity" NumberOfComponents="3" format="ascii">
                       2.80529                       0.00017                      -0.25330
                       2.80467                       0.00071                      -0.25384
                       2.80298                       0.00177                      -0.25500
                       2.80087                       0.00247                      -0.25635
                       2.79787                       0.00249                      -0.25837
                       2.79405                       0.00099                      -0.26145
                       2.79023                      -0.00195                      -0.26537
                       2.78655                      -0.00571                      -0.27023
                       2.78306                      -0.00946                      -0.27612
                       2.77970                      -0.01231                      -0.28307
                       2.77642                      -0.01350                      -0.29112
                       2.77312                      -0.01257                      -0.30025
                       2.76974                      -0.00953                      -0.31044
                       2.76628                      -0.00509                      -0.32164
                       2.76281                      -0.00076                      -0.33380
                       2.76003                       0.00109                      -0.34458
                       2.75800                      -0.00013                      -0.35363
                       2.75630                      -0.00522                      -0.36301
                       2.75562                      -0.00971                      -0.36781
        </DataArray>
        <DataArray type="Float32" Name="TranslationalAcceleration" NumberOfComponents="3" format="ascii">
                       0.85221                       7.96710                       8.89812
                       0.96138                       9.56986                      10.71975
                       2.74671                      26.79809                      31.15532
                       4.39896                      42.28984                      50.19222
                       6.40014                      60.08578                      72.57323
                       8.73471                      80.98906                      97.28982
                      11.05508                     101.98724                     120.67596
                      13.43420                     122.83261                     143.96577
                      15.82588                     143.81134                     167.45573
                      18.17839                     165.01314                     191.25048
                      20.46553                     186.39222                     215.30734
                      22.71221                     207.85685                     239.45838
                      25.03221                     229.28164                     263.49848
                      27.65851                     250.56549                     287.23406
                      30.97375                     271.68367                     310.53753
                      34.69858                     289.22600                     329.60682
                      38.60631                     303.36631                     344.64284
                      43.81633                     318.03442                     359.29387
                      46.81343                     325.23597                     366.88420
        </DataArray>
        <DataArray type="Float32" Name="OrientationX" NumberOfComponents="3" format="ascii">
                       0.95161                       0.14288                      -0.27208
                       0.95164                       0.14313                      -0.27185
                       0.95168                       0.14398                      -0.27123
                       0.95171                       0.14531                      -0.27043
                       0.95168                       0.14761                      -0.26927
                       0.96025                       0.12793                      -0.24809
                       0.96559                       0.11585                      -0.23283
                       0.96951                       0.10712                      -0.22042
                       0.97292                       0.09887                      -0.20892
                       0.97566                       0.09156                      -0.19925
                       0.97736                       0.08648                      -0.19308
                       0.97826                       0.08272                      -0.19018
                       0.97805                       0.08122                      -0.19187
                       0.97630                       0.08330                      -0.19976
                       0.97383                       0.08494                      -0.21082
                       0.97137                       0.08506                      -0.22183
                       0.96909                       0.08419                      -0.23192
                       0.96588                       0.08446                      -0.24485
                       0.96376                       0.08544                      -0.25273
        </DataArray>
        <DataArray type="Float32" Name="OrientationY" NumberOfComponents="3" format="ascii">
                       0.28685                      -0.73065                       0.61957
                       0.28687                      -0.73069                       0.61951
                       0.28706                      -0.73080                       0.61929
                       0.28748                      -0.73090                       0.61898
                       0.28837                      -0.73099                       0.61846
                       0.25968                      -0.73541                       0.62589
                       0.24054                      -0.73815                       0.63030
                       0.22578                      -0.74016                       0.63339
                       0.21198                      -0.74192                       0.63609
                       0.20010                      -0.74336                       0.63826
                       0.19221                      -0.74433                       0.63955
                       0.18746                      -0.74496                       0.64023
                       0.18743                      -0.74513                       0.64004
                       0.19419                      -0.74470                       0.63852
                       0.20271                      -0.74409                       0.63658
                       0.21008                      -0.74357                       0.63480
                       0.21611                      -0.74316                       0.63325
                       0.22486                      -0.74259                       0.63088
                       0.23080                      -0.74220                       0.62919
        </DataArray>
        <DataArray type="Float32" Name="OrientationZ" NumberOfComponents="3" format="ascii">
                      -0.11026                      -0.66764                      -0.73628
                      -0.10997                      -0.66753                      -0.73642
                      -0.10905                      -0.66723                      -0.73682
                      -0.10772                      -0.66683                      -0.73738
                      -0.10555                      -0.66623                      -0.73824
                      -0.10237                      -0.66543                      -0.73941
                      -0.09884                      -0.66462                      -0.74062
                      -0.09530                      -0.66384                      -0.74178
                      -0.09211                      -0.66316                      -0.74279
                      -0.08968                      -0.66259                      -0.74359
                      -0.08841                      -0.66218                      -0.74411
                      -0.08871                      -0.66196                      -0.74427
                      -0.09099                      -0.66195                      -0.74400
                      -0.09558                      -0.66218                      -0.74323
                      -0.10280                      -0.66266                      -0.74183
                      -0.11096                      -0.66323                      -0.74014
                      -0.11904                      -0.66379                      -0.73838
                      -0.12854                      -0.66440                      -0.73624
                      -0.13382                      -0.66471                      -0.73502
        </DataArray>
        <DataArray type="Float32" Name="Force" NumberOfComponents="3" format="ascii">
                       1.65218                     -20.45062                      18.29661
                     176.25124                    -113.15964                      76.28572
                     300.88218                    -317.37960                     243.20704
                     320.25745                    -455.50938                     366.10895
                    1476.40110                     205.98065                    -397.89279
                    1338.82360                     130.09309                    -303.39473
                    1187.53762                      54.77087                    -208.28381
                    1812.16077                      96.82220                    -320.78386
                    2253.46384                      95.38401                    -366.16893
                    2472.06659                      72.68925                    -364.34515
                    4054.13472                     110.07978                    -582.00096
                    4268.12200                      81.36601                    -583.17763
                    3263.47356                       8.87878                    -407.82904
                    1765.28347                     -89.93401                    -146.03938
                    1809.00939                     -17.35402                    -235.45167
                     289.33652                    -161.98172                     103.43236
                   -1204.40814                    -194.31788                     370.86233
                   -2347.71527                    -164.67665                     560.03792
                  -19146.93333                     717.25318                    2837.15709
        </DataArray>
        <DataArray type="Float32" Name="Moment" NumberOfComponents="3" format="ascii">
                       0.00000                       0.00000                       0.00000
                       0.00000                       0.00000                       0.00000
                       0.00000                       0.00000                       0.00000
                       0.00000                       0.00000                       0.00000
                     142.10535                     900.12930                     993.26685
                     257.67047                    1684.21929                    1859.22998
                     332.06039                    2250.02258                    2484.92627
                     511.37716                    3597.30520                    3974.62831
                     732.79479                    5337.98694                    5900.24153
                     807.87047                    6049.00182                    6688.18281
                     888.26508                    6749.75752                    7464.17684
                     946.11074                    7165.94623                    7924.13879
                     731.03602                    5397.85087                    5967.31188
                     754.76228                    5302.14051                    5858.19134
                     770.04148                    5024.09980                    5546.03800
                     782.15238                    4722.61995                    5207.97219
                     741.63441                    4169.14668                    4592.99887
                     400.64275                    2082.96309                    2292.00637
                     381.92804                    1905.81199                    2095.68972
        </DataArray>
      </PointData>
      <Lines>
        <DataArray type="Int32" Name="connectivity" format="ascii">
      0      1
      1      2
      2      3
      3      4
      4      5
      5      6
      6      7
      7      8
      8      9
      9     10
     10     11
     11     12
     12     13
     13     14
     14     15
     15     16
     16     17
     17     18
        </DataArray>
        <DataArray type="Int32" Name="offsets" format="ascii">
      2
      4
      6
      8
     10
     12
     14
     16
     18
     20
     22
     24
     26
     28
     30
     32
     34
     36
        </DataArray>
      </Lines>
    </Piece>
  </PolyData>
</VTKFile>
