<?xml version="1.0"?>
<VTKFile type="PolyData" version="0.1" byte_order="LittleEndian">
  <PolyData>
    <Piece NumberOfPoints="     19" NumberOfVerts="  0" NumberOfLines="     18"
           NumberOfStrips="  0" NumberOfPolys="      0">
      <Points>
        <DataArray type="Float32" NumberOfComponents="3" format="ascii">
                      -5.02829                       0.66919                      88.68427
                      -5.19786                       1.28176                      87.47398
                      -5.55423                       2.59081                      85.09768
                      -5.91703                       3.93930                      82.74154
                      -6.37123                       5.64805                      79.80725
                      -6.86133                       7.57030                      76.21352
                      -7.32252                       9.37528                      72.55668
                      -7.77616                      11.17661                      68.89662
                      -8.22156                      12.97275                      65.23242
                      -8.66243                      14.76536                      61.56533
                      -9.10447                      16.55742                      57.89755
                      -9.55295                      18.34714                      54.22895
                     -10.01607                      20.13371                      50.56043
                     -10.50379                      21.91589                      46.89315
                     -11.02545                      23.69233                      43.22836
                     -11.49637                      25.16670                      40.17748
                     -11.90101                      26.33440                      37.73611
                     -12.33026                      27.44825                      35.27303
                     -12.56374                      28.03957                      34.06196
        </DataArray>
      </Points>
      <PointData>
        <DataArray type="Float32" Name="TranslationalVelocity" NumberOfComponents="3" format="ascii">
                       0.17051                       3.78537                       1.88219
                       0.32386                       7.22266                       3.60042
                       0.65041                      13.97387                       7.27057
                       0.98386                      20.66490                      11.04859
                       1.39994                      28.98959                      15.83116
                       1.85460                      39.15442                      21.20422
                       2.26417                      49.47177                      26.24269
                       2.65633                      59.77940                      31.26483
                       3.03170                      70.08086                      36.26704
                       3.39376                      80.37558                      41.25466
                       3.74876                      90.66157                      46.23682
                       4.10437                     100.94387                      51.20915
                       4.47147                     111.22595                      56.16971
                       4.86407                     121.51148                      61.11504
                       5.29964                     131.80394                      66.04079
                       5.71197                     140.38925                      70.12513
                       6.08089                     147.27337                      73.35677
                       6.48243                     154.23157                      76.43556
                       6.71283                     157.66220                      78.06861
        </DataArray>
        <DataArray type="Float32" Name="RotationalVelocity" NumberOfComponents="3" format="ascii">
                       2.80524                       0.00111                      -0.25344
                       2.80459                       0.00134                      -0.25325
                       2.80282                       0.00207                      -0.25268
                       2.80055                       0.00320                      -0.25189
                       2.79726                       0.00513                      -0.25065
                       2.79296                       0.00814                      -0.24894
                       2.78862                       0.01169                      -0.24719
                       2.78450                       0.01540                      -0.24567
                       2.78079                       0.01885                      -0.24465
                       2.77764                       0.02150                      -0.24443
                       2.77513                       0.02277                      -0.24526
                       2.77332                       0.02203                      -0.24738
                       2.77227                       0.01863                      -0.25097
                       2.77200                       0.01188                      -0.25614
                       2.77258                       0.00114                      -0.26291
                       2.77373                      -0.01123                      -0.26969
                       2.77515                      -0.02373                      -0.27584
                       2.77707                      -0.03871                      -0.28251
                       2.77823                      -0.04717                      -0.28600
        </DataArray>
        <DataArray type="Float32" Name="TranslationalAcceleration" NumberOfComponents="3" format="ascii">
                       0.96709                      -5.32949                      10.61123
                       1.16186                      -6.45314                      12.79925
                       3.30581                     -19.11969                      36.26483
                       5.28869                     -31.10591                      57.62038
                       7.64563                     -45.31210                      82.36329
                      10.44965                     -60.45295                     110.87602
                      13.30430                     -74.20673                     139.00709
                      16.20820                     -87.81440                     166.98233
                      19.16984                    -101.45070                     195.17243
                      22.18097                    -115.19456                     223.69585
                      25.23202                    -129.04627                     252.49335
                      28.33186                    -142.91065                     281.42085
                      31.52053                    -156.67508                     310.29427
                      34.88602                    -170.23039                     338.96361
                      38.58050                    -183.50462                     367.38212
                      42.09006                    -194.34000                     390.95426
                      45.30099                    -202.83579                     409.88966
                      49.02990                    -210.90138                     429.23213
                      51.09318                    -215.22769                     438.91905
        </DataArray>
        <DataArray type="Float32" Name="OrientationX" NumberOfComponents="3" format="ascii">
                       0.97410                       0.22493                      -0.02297
                       0.97413                       0.22485                      -0.02276
                       0.97417                       0.22475                      -0.02207
                       0.97420                       0.22470                      -0.02101
                       0.97422                       0.22480                      -0.01920
                       0.97979                       0.19763                      -0.03098
                       0.98311                       0.17905                      -0.03788
                       0.98545                       0.16452                      -0.04274
                       0.98737                       0.15114                      -0.04753
                       0.98878                       0.13996                      -0.05216
                       0.98952                       0.13308                      -0.05605
                       0.98971                       0.12992                      -0.05999
                       0.98920                       0.13209                      -0.06357
                       0.98771                       0.14158                      -0.06617
                       0.98557                       0.15393                      -0.07034
                       0.98333                       0.16539                      -0.07561
                       0.98117                       0.17530                      -0.08113
                       0.97831                       0.18819                      -0.08659
                       0.97651                       0.19624                      -0.08902
        </DataArray>
        <DataArray type="Float32" Name="OrientationY" NumberOfComponents="3" format="ascii">
                       0.18915                      -0.86634                      -0.46226
                       0.18919                      -0.86640                      -0.46212
                       0.18946                      -0.86654                      -0.46175
                       0.18995                      -0.86667                      -0.46130
                       0.19094                      -0.86680                      -0.46065
                       0.16169                      -0.87358                      -0.45904
                       0.14223                      -0.87774                      -0.45754
                       0.12726                      -0.88074                      -0.45618
                       0.11331                      -0.88330                      -0.45490
                       0.10138                      -0.88533                      -0.45378
                       0.09358                      -0.88662                      -0.45293
                       0.08907                      -0.88739                      -0.45233
                       0.08945                      -0.88748                      -0.45207
                       0.09678                      -0.88659                      -0.45232
                       0.10595                      -0.88530                      -0.45279
                       0.11384                      -0.88406                      -0.45330
                       0.12022                      -0.88294                      -0.45384
                       0.12925                      -0.88117                      -0.45479
                       0.13530                      -0.87989                      -0.45551
        </DataArray>
        <DataArray type="Float32" Name="OrientationZ" NumberOfComponents="3" format="ascii">
                      -0.12387                       0.44595                      -0.88645
                      -0.12363                       0.44586                      -0.88653
                      -0.12290                       0.44564                      -0.88673
                      -0.12186                       0.44541                      -0.88699
                      -0.12020                       0.44511                      -0.88737
                      -0.11778                       0.44476                      -0.88787
                      -0.11517                       0.44442                      -0.88838
                      -0.11270                       0.44410                      -0.88886
                      -0.11073                       0.44377                      -0.88927
                      -0.10969                       0.44340                      -0.88959
                      -0.10997                       0.44294                      -0.88978
                      -0.11200                       0.44233                      -0.88983
                      -0.11613                       0.44150                      -0.88971
                      -0.12271                       0.44036                      -0.88940
                      -0.13197                       0.43880                      -0.88884
                      -0.14181                       0.43713                      -0.88815
                      -0.15119                       0.43554                      -0.88738
                      -0.16188                       0.43373                      -0.88638
                      -0.16772                       0.43276                      -0.88577
        </DataArray>
        <DataArray type="Float32" Name="Force" NumberOfComponents="3" format="ascii">
                      -0.57131                     -12.73058                      -6.32458
                     139.80202                     -83.98626                     -61.74574
                     223.87235                    -276.29385                    -170.01200
                     232.78581                    -440.60596                    -253.59643
                    1213.92301                     242.68716                     -42.41042
                    1105.02723                     164.17685                     -64.07575
                     964.20333                      76.95757                     -86.34895
                    1548.51801                     142.67688                    -124.68868
                    2053.75875                     166.36749                    -172.22636
                    2278.76353                     145.10195                    -208.17342
                    3841.34350                     235.66002                    -356.57540
                    4030.97433                     212.89130                    -400.64499
                    2827.66654                      88.34909                    -324.94933
                    1335.38542                     -65.16064                    -217.20767
                    1463.82430                      21.35937                    -206.92763
                    -587.30939                    -258.26387                     -36.18586
                   -2319.69811                    -431.36912                     178.65852
                   -3486.09766                    -512.25760                     380.09025
                  -18878.45962                    -959.61413                    3102.71495
        </DataArray>
        <DataArray type="Float32" Name="Moment" NumberOfComponents="3" format="ascii">
                       0.00000                       0.00000                       0.00000
                       0.00000                       0.00000                       0.00000
                       0.00000                       0.00000                       0.00000
                       0.00000                       0.00000                       0.00000
                     144.11727                    -534.97099                    1063.81113
                     277.48446                   -1051.44296                    2091.35713
                     371.12826                   -1438.53730                    2862.07048
                     586.24567                   -2322.85750                    4622.66419
                     859.77071                   -3467.85049                    6902.68344
                     968.70224                   -3945.30285                    7853.89518
                    1087.40097                   -4417.97669                    8794.60607
                    1176.57666                   -4694.54208                    9343.24211
                     919.65805                   -3539.02259                    7040.53423
                     950.69738                   -3462.42925                    6883.55763
                     965.43813                   -3268.66270                    6492.19831
                     973.30888                   -3065.64953                    6082.84729
                     913.45596                   -2697.49786                    5347.21079
                     491.69276                   -1355.14606                    2683.32358
                     466.53753                   -1240.56632                    2454.96126
        </DataArray>
      </PointData>
      <Lines>
        <DataArray type="Int32" Name="connectivity" format="ascii">
      0      1
      1      2
      2      3
      3      4
      4      5
      5      6
      6      7
      7      8
      8      9
      9     10
     10     11
     11     12
     12     13
     13     14
     14     15
     15     16
     16     17
     17     18
        </DataArray>
        <DataArray type="Int32" Name="offsets" format="ascii">
      2
      4
      6
      8
     10
     12
     14
     16
     18
     20
     22
     24
     26
     28
     30
     32
     34
     36
        </DataArray>
      </Lines>
    </Piece>
  </PolyData>
</VTKFile>
